what,kind,bundleId,bundleVersion,description,time
deactivated,workbench,org.eclipse.ui.workbench,3.7.0.I20110519-0100,"",1317128043849
activated,workbench,org.eclipse.ui.workbench,3.7.0.I20110519-0100,"",1317128068031
executed,command,de.innot.avreclipse.core,2.3.4.20100807PRD,"de.innot.avreclipse.commands.uploadproject",1317128137388
deactivated,workbench,org.eclipse.ui.workbench,3.7.0.I20110519-0100,"",1317128137735
error,log,,,"Error logged from Console plug-in: ",1317128151434
error,log,,,"I/O Error reading output",1317128151485
activated,workbench,org.eclipse.ui.workbench,3.7.0.I20110519-0100,"",1317128153917
deactivated,workbench,org.eclipse.ui.workbench,3.7.0.I20110519-0100,"",1317128165794
activated,workbench,org.eclipse.ui.workbench,3.7.0.I20110519-0100,"",1317128176556
activated,view,org.eclipse.ui.navigator.resources,3.4.300.I20110421-1800,"org.eclipse.ui.navigator.ProjectExplorer",1317128178546
executed,command,org.eclipse.ui,3.7.0.I20110602-0100,"org.eclipse.ui.edit.paste",1317128181445
opened,editor,org.eclipse.cdt.ui,5.3.0.201106081058,"org.eclipse.cdt.ui.editor.CEditor",1317128203694
activated,editor,org.eclipse.cdt.ui,5.3.0.201106081058,"org.eclipse.cdt.ui.editor.CEditor",1317128203747
activated,view,org.eclipse.ui.navigator.resources,3.4.300.I20110421-1800,"org.eclipse.ui.navigator.ProjectExplorer",1317128221543
opened,editor,org.eclipse.cdt.ui,5.3.0.201106081058,"org.eclipse.cdt.ui.editor.CEditor",1317128221710
activated,editor,org.eclipse.cdt.ui,5.3.0.201106081058,"org.eclipse.cdt.ui.editor.CEditor",1317128221762
executed,command,org.eclipse.ui,3.7.0.I20110602-0100,"org.eclipse.ui.file.save",1317128230904
activated,editor,org.eclipse.cdt.ui,5.3.0.201106081058,"org.eclipse.cdt.ui.editor.CEditor",1317128233859
closed,editor,org.eclipse.cdt.ui,5.3.0.201106081058,"org.eclipse.cdt.ui.editor.CEditor",1317128233859
executed,command,org.eclipse.ui,3.7.0.I20110602-0100,"org.eclipse.ui.file.close",1317128233872
activated,editor,org.eclipse.cdt.ui,5.3.0.201106081058,"org.eclipse.cdt.ui.editor.CEditor",1317128234657
closed,editor,org.eclipse.cdt.ui,5.3.0.201106081058,"org.eclipse.cdt.ui.editor.CEditor",1317128234657
executed,command,org.eclipse.ui,3.7.0.I20110602-0100,"org.eclipse.ui.file.close",1317128234669
executed,command,org.eclipse.ui,3.7.0.I20110602-0100,"org.eclipse.ui.file.save",1317128311406
executed,command,de.innot.avreclipse.core,2.3.4.20100807PRD,"de.innot.avreclipse.commands.uploadproject",1317128316823
deactivated,workbench,org.eclipse.ui.workbench,3.7.0.I20110519-0100,"",1317128317221
activated,workbench,org.eclipse.ui.workbench,3.7.0.I20110519-0100,"",1317128340701
executed,command,org.eclipse.ui,3.7.0.I20110602-0100,"org.eclipse.ui.file.save",1317128579449
executed,command,de.innot.avreclipse.core,2.3.4.20100807PRD,"de.innot.avreclipse.commands.uploadproject",1317128584050
deactivated,workbench,org.eclipse.ui.workbench,3.7.0.I20110519-0100,"",1317128584448
activated,workbench,org.eclipse.ui.workbench,3.7.0.I20110519-0100,"",1317128607943
executed,command,org.eclipse.ui,3.7.0.I20110602-0100,"org.eclipse.ui.file.save",1317128619685
executed,command,de.innot.avreclipse.core,2.3.4.20100807PRD,"de.innot.avreclipse.commands.uploadproject",1317128624980
deactivated,workbench,org.eclipse.ui.workbench,3.7.0.I20110519-0100,"",1317128625408
activated,workbench,org.eclipse.ui.workbench,3.7.0.I20110519-0100,"",1317128648940
deactivated,workbench,org.eclipse.ui.workbench,3.7.0.I20110519-0100,"",1317129000433
activated,workbench,org.eclipse.ui.workbench,3.7.0.I20110519-0100,"",1317143960729
deactivated,workbench,org.eclipse.ui.workbench,3.7.0.I20110519-0100,"",1317143992506
activated,workbench,org.eclipse.ui.workbench,3.7.0.I20110519-0100,"",1317184519758
deactivated,workbench,org.eclipse.ui.workbench,3.7.0.I20110519-0100,"",1317184521023
activated,workbench,org.eclipse.ui.workbench,3.7.0.I20110519-0100,"",1317195569419
deactivated,workbench,org.eclipse.ui.workbench,3.7.0.I20110519-0100,"",1317195570560
activated,workbench,org.eclipse.ui.workbench,3.7.0.I20110519-0100,"",1317223570692
closed,workbench,org.eclipse.ui.workbench,3.7.0.I20110519-0100,"",1317223571006
started,bundle,org.eclipse.compare,3.5.200.I20110525-0800,"org.eclipse.compare",1317223571796
stopped,bundle,org.eclipse.cdt.build.crossgcc,1.0.0.201106081058,"org.eclipse.cdt.build.crossgcc",1317223572497
stopped,bundle,org.eclipse.cdt.codan.checkers,1.0.0.201106081058,"org.eclipse.cdt.codan.checkers",1317223572497
stopped,bundle,org.eclipse.cdt.codan.checkers.ui,1.0.0.201106081058,"org.eclipse.cdt.codan.checkers.ui",1317223572497
stopped,bundle,org.eclipse.cdt.codan.ui.cxx,2.0.0.201106081058,"org.eclipse.cdt.codan.ui.cxx",1317223572498
stopped,bundle,org.eclipse.cdt.codan.core.cxx,1.0.0.201106081058,"org.eclipse.cdt.codan.core.cxx",1317223572500
stopped,bundle,org.eclipse.cdt.launch.remote,2.3.0.201106081058,"org.eclipse.cdt.launch.remote",1317223572564
stopped,bundle,org.eclipse.cdt.debug.mi.ui,6.1.0.201106081058,"org.eclipse.cdt.debug.mi.ui",1317223572603
stopped,bundle,org.eclipse.cdt.debug.mi.core,7.1.0.201106081058,"org.eclipse.cdt.debug.mi.core",1317223572651
activated,perspective,org.eclipse.cdt.ui,,"org.eclipse.cdt.ui.CPerspective",1317527453393
started,bundle,org.eclipse.osgi,3.7.0.v20110613,"org.eclipse.osgi",1317527453394
started,bundle,org.eclipse.equinox.simpleconfigurator,1.0.200.v20110502-1955,"org.eclipse.equinox.simpleconfigurator",1317527453407
started,bundle,com.ibm.icu,4.4.2.v20110208,"com.ibm.icu",1317527453415
started,bundle,org.eclipse.cdt.codan.checkers,1.0.0.201106081058,"org.eclipse.cdt.codan.checkers",1317527453416
started,bundle,org.eclipse.cdt.codan.core,2.0.0.201106081058,"org.eclipse.cdt.codan.core",1317527453417
started,bundle,org.eclipse.cdt.codan.core.cxx,1.0.0.201106081058,"org.eclipse.cdt.codan.core.cxx",1317527453418
started,bundle,org.eclipse.cdt.codan.ui.cxx,2.0.0.201106081058,"org.eclipse.cdt.codan.ui.cxx",1317527453428
started,bundle,org.eclipse.cdt.core,5.3.0.201106081058,"org.eclipse.cdt.core",1317527453428
started,bundle,org.eclipse.cdt.make.core,7.1.0.201106081058,"org.eclipse.cdt.make.core",1317527453446
started,bundle,org.eclipse.cdt.make.ui,7.1.0.201106081058,"org.eclipse.cdt.make.ui",1317527453456
started,bundle,org.eclipse.cdt.managedbuilder.core,8.0.0.201106081058,"org.eclipse.cdt.managedbuilder.core",1317527453476
started,bundle,org.eclipse.cdt.msw.build,1.0.0.201106081058,"org.eclipse.cdt.msw.build",1317527453491
started,bundle,org.eclipse.cdt.ui,5.3.0.201106081058,"org.eclipse.cdt.ui",1317527453491
started,bundle,org.eclipse.compare.core,3.5.200.I20110208-0800,"org.eclipse.compare.core",1317527453512
started,bundle,org.eclipse.core.contenttype,3.4.100.v20110423-0524,"org.eclipse.core.contenttype",1317527453528
started,bundle,org.eclipse.core.databinding.observable,1.4.0.I20110222-0800,"org.eclipse.core.databinding.observable",1317527453567
started,bundle,org.eclipse.core.expressions,3.4.300.v20110228,"org.eclipse.core.expressions",1317527453576
started,bundle,org.eclipse.core.filebuffers,3.5.200.v20110505-0800,"org.eclipse.core.filebuffers",1317527453581
started,bundle,org.eclipse.core.filesystem,1.3.100.v20110423-0524,"org.eclipse.core.filesystem",1317527453590
started,bundle,org.eclipse.core.jobs,3.5.100.v20110404,"org.eclipse.core.jobs",1317527453605
started,bundle,org.eclipse.core.net,1.2.100.I20110511-0800,"org.eclipse.core.net",1317527453618
started,bundle,org.eclipse.core.resources,3.7.100.v20110510-0712,"org.eclipse.core.resources",1317527453642
started,bundle,org.eclipse.core.runtime,3.7.0.v20110110,"org.eclipse.core.runtime",1317527453657
started,bundle,org.eclipse.core.runtime.compatibility,3.2.100.v20100505,"org.eclipse.core.runtime.compatibility",1317527453670
started,bundle,org.eclipse.core.runtime.compatibility.auth,3.2.200.v20110110,"org.eclipse.core.runtime.compatibility.auth",1317527453684
started,bundle,org.eclipse.core.variables,3.2.500.v20110511,"org.eclipse.core.variables",1317527453697
started,bundle,org.eclipse.debug.core,3.7.0.v20110518,"org.eclipse.debug.core",1317527453700
started,bundle,org.eclipse.egit.core,1.0.0.201106090707-r,"org.eclipse.egit.core",1317527453712
started,bundle,org.eclipse.egit.ui,1.0.0.201106090707-r,"org.eclipse.egit.ui",1317527453738
started,bundle,org.eclipse.epp.mpc.ui,1.1.0.I20110525-0742,"org.eclipse.epp.mpc.ui",1317527453752
started,bundle,org.eclipse.epp.usagedata.gathering,1.3.1.R201106061540,"org.eclipse.epp.usagedata.gathering",1317527453762
started,bundle,org.eclipse.epp.usagedata.recording,1.3.1.R201106061540,"org.eclipse.epp.usagedata.recording",1317527453776
started,bundle,org.eclipse.equinox.app,1.3.100.v20110321,"org.eclipse.equinox.app",1317527453783
started,bundle,org.eclipse.equinox.common,3.6.0.v20110523,"org.eclipse.equinox.common",1317527453788
started,bundle,org.eclipse.equinox.ds,1.3.0.v20110502,"org.eclipse.equinox.ds",1317527453796
started,bundle,org.eclipse.equinox.event,1.2.100.v20110502,"org.eclipse.equinox.event",1317527453809
started,bundle,org.eclipse.equinox.p2.core,2.1.0.v20110502-1955,"org.eclipse.equinox.p2.core",1317527453824
started,bundle,org.eclipse.equinox.p2.directorywatcher,1.0.300.v20110502-1955,"org.eclipse.equinox.p2.directorywatcher",1317527453827
started,bundle,org.eclipse.equinox.p2.engine,2.1.0.v20110511,"org.eclipse.equinox.p2.engine",1317527453839
started,bundle,org.eclipse.equinox.p2.metadata,2.1.0.v20110510,"org.eclipse.equinox.p2.metadata",1317527453849
started,bundle,org.eclipse.equinox.p2.metadata.repository,1.2.0.v20110511-1359,"org.eclipse.equinox.p2.metadata.repository",1317527453864
started,bundle,org.eclipse.equinox.p2.operations,2.1.0.v20110511-1821,"org.eclipse.equinox.p2.operations",1317527453869
started,bundle,org.eclipse.equinox.p2.reconciler.dropins,1.1.100.v20110510,"org.eclipse.equinox.p2.reconciler.dropins",1317527453883
started,bundle,org.eclipse.equinox.p2.repository,2.1.0.v20110601,"org.eclipse.equinox.p2.repository",1317527453893
started,bundle,org.eclipse.equinox.p2.ui.sdk.scheduler,1.0.100.v20110502-1955,"org.eclipse.equinox.p2.ui.sdk.scheduler",1317527453894
started,bundle,org.eclipse.equinox.p2.updatechecker,1.1.200.v20110502-1955,"org.eclipse.equinox.p2.updatechecker",1317527453907
started,bundle,org.eclipse.equinox.preferences,3.4.0.v20110502,"org.eclipse.equinox.preferences",1317527453914
started,bundle,org.eclipse.equinox.registry,3.5.100.v20110502,"org.eclipse.equinox.registry",1317527453916
started,bundle,org.eclipse.equinox.security,1.1.0.v20110502,"org.eclipse.equinox.security",1317527453919
started,bundle,org.eclipse.equinox.util,1.0.300.v20110502,"org.eclipse.equinox.util",1317527453923
started,bundle,org.eclipse.help,3.5.100.v20110426,"org.eclipse.help",1317527453940
started,bundle,org.eclipse.jface,3.7.0.I20110522-1430,"org.eclipse.jface",1317527453950
started,bundle,org.eclipse.jgit,1.0.0.201106090707-r,"org.eclipse.jgit",1317527453958
started,bundle,org.eclipse.jsch.core,1.1.300.I20110514-0800,"org.eclipse.jsch.core",1317527453960
started,bundle,org.eclipse.linuxtools.cdt.autotools.core,1.0.1.201106060936,"org.eclipse.linuxtools.cdt.autotools.core",1317527453974
started,bundle,org.eclipse.ltk.core.refactoring,3.5.200.v20110505-0800,"org.eclipse.ltk.core.refactoring",1317527453984
started,bundle,org.eclipse.ltk.ui.refactoring,3.6.0.v20110505-0800,"org.eclipse.ltk.ui.refactoring",1317527453986
started,bundle,org.eclipse.mylyn.bugzilla.core,3.6.0.v20110608-1400,"org.eclipse.mylyn.bugzilla.core",1317527453994
started,bundle,org.eclipse.mylyn.bugzilla.ui,3.6.0.v20110608-1400,"org.eclipse.mylyn.bugzilla.ui",1317527454006
started,bundle,org.eclipse.mylyn.commons.identity,0.8.0.v20110608-1400,"org.eclipse.mylyn.commons.identity",1317527454013
started,bundle,org.eclipse.mylyn.commons.net,3.6.0.v20110608-1400,"org.eclipse.mylyn.commons.net",1317527454013
started,bundle,org.eclipse.mylyn.commons.ui,3.6.0.v20110608-1400,"org.eclipse.mylyn.commons.ui",1317527454032
started,bundle,org.eclipse.mylyn.context.core,3.6.0.v20110608-1400,"org.eclipse.mylyn.context.core",1317527454043
started,bundle,org.eclipse.mylyn.context.ui,3.6.0.v20110608-1400,"org.eclipse.mylyn.context.ui",1317527454052
started,bundle,org.eclipse.mylyn.monitor.ui,3.6.0.v20110608-1400,"org.eclipse.mylyn.monitor.ui",1317527454064
started,bundle,org.eclipse.mylyn.tasks.ui,3.6.0.v20110608-1400,"org.eclipse.mylyn.tasks.ui",1317527454088
started,bundle,org.eclipse.mylyn.team.ui,3.6.0.v20110608-1400,"org.eclipse.mylyn.team.ui",1317527454098
started,bundle,org.eclipse.search,3.7.0.v20110505-0800,"org.eclipse.search",1317527454113
started,bundle,org.eclipse.team.core,3.6.0.I20110525-0800,"org.eclipse.team.core",1317527454127
started,bundle,org.eclipse.team.ui,3.6.100.I20110525-0800,"org.eclipse.team.ui",1317527454166
started,bundle,org.eclipse.ui,3.7.0.I20110602-0100,"org.eclipse.ui",1317527454173
started,bundle,org.eclipse.ui.console,3.5.100.v20110511,"org.eclipse.ui.console",1317527454179
started,bundle,org.eclipse.ui.editors,3.7.0.v20110517-0800,"org.eclipse.ui.editors",1317527454179
started,bundle,org.eclipse.ui.forms,3.5.100.v20110425,"org.eclipse.ui.forms",1317527454185
started,bundle,org.eclipse.ui.ide,3.7.0.I20110519-0100,"org.eclipse.ui.ide",1317527454199
started,bundle,org.eclipse.ui.navigator,3.5.100.I20110524-0800,"org.eclipse.ui.navigator",1317527454208
started,bundle,org.eclipse.ui.navigator.resources,3.4.300.I20110421-1800,"org.eclipse.ui.navigator.resources",1317527454219
started,bundle,org.eclipse.ui.net,1.2.100.I20110511-0800,"org.eclipse.ui.net",1317527454232
started,bundle,org.eclipse.ui.views,3.6.0.I20110412-0800,"org.eclipse.ui.views",1317527454244
started,bundle,org.eclipse.ui.workbench,3.7.0.I20110519-0100,"org.eclipse.ui.workbench",1317527454262
started,bundle,org.eclipse.ui.workbench.texteditor,3.7.0.v20110505-0800,"org.eclipse.ui.workbench.texteditor",1317527454273
started,bundle,de.innot.avreclipse.core,2.3.4.20100807PRD,"de.innot.avreclipse.core",1317527454289
os,sysinfo,,,"macosx",1317527454292
arch,sysinfo,,,"x86_64",1317527454292
ws,sysinfo,,,"cocoa",1317527454292
locale,sysinfo,,,"en_US",1317527454292
processors,sysinfo,,,"2",1317527454292
java.runtime.name,sysinfo,,,"Java(TM) SE Runtime Environment",1317527454292
java.runtime.version,sysinfo,,,"1.6.0_26-b03-383-11A511",1317527454292
java.specification.name,sysinfo,,,"Java Platform API Specification",1317527454292
java.specification.vendor,sysinfo,,,"Sun Microsystems Inc.",1317527454292
java.specification.version,sysinfo,,,"1.6",1317527454292
java.vendor,sysinfo,,,"Apple Inc.",1317527454292
java.version,sysinfo,,,"1.6.0_26",1317527454292
java.vm.info,sysinfo,,,"mixed mode",1317527454292
java.vm.name,sysinfo,,,"Java HotSpot(TM) 64-Bit Server VM",1317527454292
java.vm.specification.name,sysinfo,,,"Java Virtual Machine Specification",1317527454292
java.vm.specification.vendor,sysinfo,,,"Sun Microsystems Inc.",1317527454292
java.vm.specification.version,sysinfo,,,"1.0",1317527454293
java.vm.vendor,sysinfo,,,"Apple Inc.",1317527454293
java.vm.version,sysinfo,,,"20.1-b02-383",1317527454293
started,bundle,org.eclipse.team.cvs.core,3.3.400.I20110510-0800,"org.eclipse.team.cvs.core",1317527454666
started,bundle,org.eclipse.team.cvs.ui,3.3.400.I20110510-0800,"org.eclipse.team.cvs.ui",1317527454827
started,bundle,org.eclipse.update.scheduler,3.2.300.v20100512,"org.eclipse.update.scheduler",1317527454975
started,bundle,org.eclipse.update.configurator,3.3.100.v20100512,"org.eclipse.update.configurator",1317527455081
started,bundle,org.eclipse.update.core,3.2.500.v20110330,"org.eclipse.update.core",1317527455092
executed,command,org.eclipse.ui.ide,3.7.0.I20110519-0100,"org.eclipse.ui.project.buildAutomatically",1317527486775
deactivated,workbench,org.eclipse.ui.workbench,3.7.0.I20110519-0100,"",1317527498525
activated,workbench,org.eclipse.ui.workbench,3.7.0.I20110519-0100,"",1317527501230
executed,command,de.innot.avreclipse.core,2.3.4.20100807PRD,"de.innot.avreclipse.commands.uploadproject",1317527501297
activated,view,org.eclipse.ui.navigator.resources,3.4.300.I20110421-1800,"org.eclipse.ui.navigator.ProjectExplorer",1317527507335
executed,command,de.innot.avreclipse.core,2.3.4.20100807PRD,"de.innot.avreclipse.commands.uploadproject",1317527509647
started,bundle,org.eclipse.debug.ui,3.7.0.v20110518,"org.eclipse.debug.ui",1317527510429
started,bundle,org.eclipse.cdt.dsf.gdb.ui,2.2.0.201106081058,"org.eclipse.cdt.dsf.gdb.ui",1317527510432
deactivated,workbench,org.eclipse.ui.workbench,3.7.0.I20110519-0100,"",1317527510598
activated,workbench,org.eclipse.ui.workbench,3.7.0.I20110519-0100,"",1317527511315
executed,command,org.eclipse.ui.ide,3.7.0.I20110519-0100,"org.eclipse.ui.project.buildAll",1317527516069
deactivated,workbench,org.eclipse.ui.workbench,3.7.0.I20110519-0100,"",1317527516397
activated,workbench,org.eclipse.ui.workbench,3.7.0.I20110519-0100,"",1317527548629
executed,command,org.eclipse.debug.ui,3.7.0.v20110518,"org.eclipse.debug.ui.commands.ToggleBreakpoint",1317527553081
deactivated,workbench,org.eclipse.ui.workbench,3.7.0.I20110519-0100,"",1317527563705
activated,workbench,org.eclipse.ui.workbench,3.7.0.I20110519-0100,"",1317527566277
started,bundle,org.eclipse.cdt.debug.core,7.1.0.201106081058,"org.eclipse.cdt.debug.core",1317527567521
started,bundle,org.eclipse.cdt.debug.ui,7.1.0.201106081058,"org.eclipse.cdt.debug.ui",1317527567542
deactivated,workbench,org.eclipse.ui.workbench,3.7.0.I20110519-0100,"",1317527582508
activated,workbench,org.eclipse.ui.workbench,3.7.0.I20110519-0100,"",1317527585253
deactivated,workbench,org.eclipse.ui.workbench,3.7.0.I20110519-0100,"",1317527589943
activated,workbench,org.eclipse.ui.workbench,3.7.0.I20110519-0100,"",1317527592669
executed,command,org.eclipse.ui.ide,3.7.0.I20110519-0100,"org.eclipse.ui.project.properties",1317527592719
started,bundle,org.eclipse.equinox.p2.ui.sdk,1.0.200.v20110502-1955,"org.eclipse.equinox.p2.ui.sdk",1317527601123
started,bundle,org.eclipse.equinox.p2.ui,2.1.0.v20110601,"org.eclipse.equinox.p2.ui",1317527601150
started,bundle,org.eclipse.equinox.p2.transport.ecf,1.0.0.v20110510,"org.eclipse.equinox.p2.transport.ecf",1317527602380
started,bundle,org.eclipse.ecf.filetransfer,5.0.0.v20110531-2218,"org.eclipse.ecf.filetransfer",1317527602463
started,bundle,org.eclipse.ecf.identity,3.1.100.v20110531-2218,"org.eclipse.ecf.identity",1317527602494
started,bundle,org.eclipse.ecf,3.1.300.v20110531-2218,"org.eclipse.ecf",1317527602545
started,bundle,org.eclipse.ecf.provider.filetransfer.httpclient,4.0.0.v20110531-2218,"org.eclipse.ecf.provider.filetransfer.httpclient",1317527602602
started,bundle,org.eclipse.ecf.provider.filetransfer,3.2.0.v20110531-2218,"org.eclipse.ecf.provider.filetransfer",1317527602608
deactivated,workbench,org.eclipse.ui.workbench,3.7.0.I20110519-0100,"",1317527602799
activated,workbench,org.eclipse.ui.workbench,3.7.0.I20110519-0100,"",1317527918321
executed,command,org.eclipse.equinox.p2.ui.sdk,1.0.200.v20110502-1955,"org.eclipse.equinox.p2.ui.sdk.install",1317527918372
activated,editor,org.eclipse.cdt.ui,5.3.0.201106081058,"org.eclipse.cdt.ui.editor.CEditor",1317527922110
activated,view,org.eclipse.ui.navigator.resources,3.4.300.I20110421-1800,"org.eclipse.ui.navigator.ProjectExplorer",1317527930662
opened,editor,org.eclipse.cdt.ui,5.3.0.201106081058,"org.eclipse.cdt.ui.editor.CEditor",1317527934434
activated,editor,org.eclipse.cdt.ui,5.3.0.201106081058,"org.eclipse.cdt.ui.editor.CEditor",1317527934499
started,bundle,org.eclipse.cdt.codan.checkers.ui,1.0.0.201106081058,"org.eclipse.cdt.codan.checkers.ui",1317527935237
executed,command,,,"AUTOGEN:::org.eclipse.cdt.debug.ui.CEditor.BreakpointRulerActions/org.eclipse.cdt.debug.ui.CEditor.RulerTobbleBreakpointAction",1317527944448
executed,command,,,"AUTOGEN:::org.eclipse.ui.texteditor.ruler.actions/org.eclipse.cdt.internal.ui.text.correction.CSelectRulerAction",1317527944762
deactivated,workbench,org.eclipse.ui.workbench,3.7.0.I20110519-0100,"",1317527984879
activated,workbench,org.eclipse.ui.workbench,3.7.0.I20110519-0100,"",1317528025764
deactivated,workbench,org.eclipse.ui.workbench,3.7.0.I20110519-0100,"",1317528027704
error,log,,,"Provisioning exception",1317528705533
activated,workbench,org.eclipse.ui.workbench,3.7.0.I20110519-0100,"",1317562735928
started,bundle,org.eclipse.epp.usagedata.ui,1.3.1.R201106061540,"org.eclipse.epp.usagedata.ui",1317562736183
deactivated,workbench,org.eclipse.ui.workbench,3.7.0.I20110519-0100,"",1317562737163
started,bundle,org.eclipse.cdt.mylyn.ui,3.6.0.v20110608-1400,"org.eclipse.cdt.mylyn.ui",1317609392023
closed,workbench,org.eclipse.ui.workbench,3.7.0.I20110519-0100,"",1317609392401
started,bundle,org.eclipse.compare,3.5.200.I20110525-0800,"org.eclipse.compare",1317609394004
stopped,bundle,org.eclipse.cdt.build.crossgcc,1.0.0.201106081058,"org.eclipse.cdt.build.crossgcc",1317609395335
stopped,bundle,org.eclipse.cdt.codan.checkers,1.0.0.201106081058,"org.eclipse.cdt.codan.checkers",1317609395337
stopped,bundle,org.eclipse.cdt.codan.checkers.ui,1.0.0.201106081058,"org.eclipse.cdt.codan.checkers.ui",1317609395337
stopped,bundle,org.eclipse.cdt.codan.ui.cxx,2.0.0.201106081058,"org.eclipse.cdt.codan.ui.cxx",1317609395339
stopped,bundle,org.eclipse.cdt.codan.core.cxx,1.0.0.201106081058,"org.eclipse.cdt.codan.core.cxx",1317609395339
stopped,bundle,org.eclipse.cdt.launch.remote,2.3.0.201106081058,"org.eclipse.cdt.launch.remote",1317609395387
stopped,bundle,org.eclipse.cdt.debug.mi.ui,6.1.0.201106081058,"org.eclipse.cdt.debug.mi.ui",1317609395439
stopped,bundle,org.eclipse.cdt.debug.mi.core,7.1.0.201106081058,"org.eclipse.cdt.debug.mi.core",1317609395499
stopped,bundle,org.eclipse.cdt.debug.ui.memory.memorybrowser,1.2.100.201106081058,"org.eclipse.cdt.debug.ui.memory.memorybrowser",1317609395537
stopped,bundle,org.eclipse.cdt.debug.ui.memory.search,1.2.0.201106081058,"org.eclipse.cdt.debug.ui.memory.search",1317609395561
stopped,bundle,org.eclipse.cdt.dsf.gdb.ui,2.2.0.201106081058,"org.eclipse.cdt.dsf.gdb.ui",1317609395561
stopped,bundle,org.eclipse.cdt.dsf.ui,2.2.0.201106081058,"org.eclipse.cdt.dsf.ui",1317609395626
stopped,bundle,org.eclipse.cdt.gdb.ui,7.0.0.201106081058,"org.eclipse.cdt.gdb.ui",1317609395650
activated,perspective,org.eclipse.cdt.ui,,"org.eclipse.cdt.ui.CPerspective",1318353832988
started,bundle,org.eclipse.osgi,3.7.0.v20110613,"org.eclipse.osgi",1318353832989
started,bundle,org.eclipse.equinox.simpleconfigurator,1.0.200.v20110502-1955,"org.eclipse.equinox.simpleconfigurator",1318353832995
started,bundle,com.ibm.icu,4.4.2.v20110208,"com.ibm.icu",1318353833004
started,bundle,org.eclipse.cdt.codan.checkers,1.0.0.201106081058,"org.eclipse.cdt.codan.checkers",1318353833011
started,bundle,org.eclipse.cdt.codan.core,2.0.0.201106081058,"org.eclipse.cdt.codan.core",1318353833024
started,bundle,org.eclipse.cdt.codan.core.cxx,1.0.0.201106081058,"org.eclipse.cdt.codan.core.cxx",1318353833039
started,bundle,org.eclipse.cdt.codan.ui.cxx,2.0.0.201106081058,"org.eclipse.cdt.codan.ui.cxx",1318353833051
started,bundle,org.eclipse.cdt.core,5.3.0.201106081058,"org.eclipse.cdt.core",1318353833051
started,bundle,org.eclipse.cdt.make.core,7.1.0.201106081058,"org.eclipse.cdt.make.core",1318353833067
started,bundle,org.eclipse.cdt.make.ui,7.1.0.201106081058,"org.eclipse.cdt.make.ui",1318353833078
started,bundle,org.eclipse.cdt.managedbuilder.core,8.0.0.201106081058,"org.eclipse.cdt.managedbuilder.core",1318353833099
started,bundle,org.eclipse.cdt.msw.build,1.0.0.201106081058,"org.eclipse.cdt.msw.build",1318353833113
started,bundle,org.eclipse.cdt.ui,5.3.0.201106081058,"org.eclipse.cdt.ui",1318353833113
started,bundle,org.eclipse.compare.core,3.5.200.I20110208-0800,"org.eclipse.compare.core",1318353833129
started,bundle,org.eclipse.core.contenttype,3.4.100.v20110423-0524,"org.eclipse.core.contenttype",1318353833162
started,bundle,org.eclipse.core.databinding.observable,1.4.0.I20110222-0800,"org.eclipse.core.databinding.observable",1318353833176
started,bundle,org.eclipse.core.expressions,3.4.300.v20110228,"org.eclipse.core.expressions",1318353833187
started,bundle,org.eclipse.core.filebuffers,3.5.200.v20110505-0800,"org.eclipse.core.filebuffers",1318353833203
started,bundle,org.eclipse.core.filesystem,1.3.100.v20110423-0524,"org.eclipse.core.filesystem",1318353833237
started,bundle,org.eclipse.core.jobs,3.5.100.v20110404,"org.eclipse.core.jobs",1318353833260
started,bundle,org.eclipse.core.net,1.2.100.I20110511-0800,"org.eclipse.core.net",1318353833272
started,bundle,org.eclipse.core.resources,3.7.100.v20110510-0712,"org.eclipse.core.resources",1318353833296
started,bundle,org.eclipse.core.runtime,3.7.0.v20110110,"org.eclipse.core.runtime",1318353833312
started,bundle,org.eclipse.core.runtime.compatibility,3.2.100.v20100505,"org.eclipse.core.runtime.compatibility",1318353833325
started,bundle,org.eclipse.core.runtime.compatibility.auth,3.2.200.v20110110,"org.eclipse.core.runtime.compatibility.auth",1318353833340
started,bundle,org.eclipse.core.variables,3.2.500.v20110511,"org.eclipse.core.variables",1318353833362
started,bundle,org.eclipse.debug.core,3.7.0.v20110518,"org.eclipse.debug.core",1318353833387
started,bundle,org.eclipse.egit.core,1.0.0.201106090707-r,"org.eclipse.egit.core",1318353833410
started,bundle,org.eclipse.egit.ui,1.0.0.201106090707-r,"org.eclipse.egit.ui",1318353833448
started,bundle,org.eclipse.epp.mpc.ui,1.1.0.I20110525-0742,"org.eclipse.epp.mpc.ui",1318353833472
started,bundle,org.eclipse.epp.usagedata.gathering,1.3.1.R201106061540,"org.eclipse.epp.usagedata.gathering",1318353833483
started,bundle,org.eclipse.epp.usagedata.recording,1.3.1.R201106061540,"org.eclipse.epp.usagedata.recording",1318353833497
started,bundle,org.eclipse.equinox.app,1.3.100.v20110321,"org.eclipse.equinox.app",1318353833504
started,bundle,org.eclipse.equinox.common,3.6.0.v20110523,"org.eclipse.equinox.common",1318353833509
started,bundle,org.eclipse.equinox.ds,1.3.0.v20110502,"org.eclipse.equinox.ds",1318353833517
started,bundle,org.eclipse.equinox.event,1.2.100.v20110502,"org.eclipse.equinox.event",1318353833531
started,bundle,org.eclipse.equinox.p2.core,2.1.0.v20110502-1955,"org.eclipse.equinox.p2.core",1318353833546
started,bundle,org.eclipse.equinox.p2.directorywatcher,1.0.300.v20110502-1955,"org.eclipse.equinox.p2.directorywatcher",1318353833548
started,bundle,org.eclipse.equinox.p2.engine,2.1.0.v20110511,"org.eclipse.equinox.p2.engine",1318353833561
started,bundle,org.eclipse.equinox.p2.metadata,2.1.0.v20110510,"org.eclipse.equinox.p2.metadata",1318353833568
started,bundle,org.eclipse.equinox.p2.metadata.repository,1.2.0.v20110511-1359,"org.eclipse.equinox.p2.metadata.repository",1318353833573
started,bundle,org.eclipse.equinox.p2.operations,2.1.0.v20110511-1821,"org.eclipse.equinox.p2.operations",1318353833580
started,bundle,org.eclipse.equinox.p2.reconciler.dropins,1.1.100.v20110510,"org.eclipse.equinox.p2.reconciler.dropins",1318353833594
started,bundle,org.eclipse.equinox.p2.repository,2.1.0.v20110601,"org.eclipse.equinox.p2.repository",1318353833603
started,bundle,org.eclipse.equinox.p2.ui.sdk.scheduler,1.0.100.v20110502-1955,"org.eclipse.equinox.p2.ui.sdk.scheduler",1318353833604
started,bundle,org.eclipse.equinox.p2.updatechecker,1.1.200.v20110502-1955,"org.eclipse.equinox.p2.updatechecker",1318353833618
started,bundle,org.eclipse.equinox.preferences,3.4.0.v20110502,"org.eclipse.equinox.preferences",1318353833624
started,bundle,org.eclipse.equinox.registry,3.5.100.v20110502,"org.eclipse.equinox.registry",1318353833626
started,bundle,org.eclipse.equinox.security,1.1.0.v20110502,"org.eclipse.equinox.security",1318353833635
