what,kind,bundleId,bundleVersion,description,time
deactivated,workbench,org.eclipse.ui.workbench,3.7.0.I20110519-0100,"",1317119588189
activated,workbench,org.eclipse.ui.workbench,3.7.0.I20110519-0100,"",1317119589537
executed,command,de.innot.avreclipse.core,2.3.4.20100807PRD,"de.innot.avreclipse.commands.uploadproject",1317119593913
deactivated,workbench,org.eclipse.ui.workbench,3.7.0.I20110519-0100,"",1317119594287
activated,workbench,org.eclipse.ui.workbench,3.7.0.I20110519-0100,"",1317119594720
executed,command,de.innot.avreclipse.core,2.3.4.20100807PRD,"de.innot.avreclipse.commands.uploadproject",1317119602260
deactivated,workbench,org.eclipse.ui.workbench,3.7.0.I20110519-0100,"",1317119602713
activated,workbench,org.eclipse.ui.workbench,3.7.0.I20110519-0100,"",1317119622145
activated,view,org.eclipse.ui.navigator.resources,3.4.300.I20110421-1800,"org.eclipse.ui.navigator.ProjectExplorer",1317119662603
opened,editor,org.eclipse.cdt.ui,5.3.0.201106081058,"org.eclipse.cdt.ui.editor.CEditor",1317119665531
activated,editor,org.eclipse.cdt.ui,5.3.0.201106081058,"org.eclipse.cdt.ui.editor.CEditor",1317119665607
executed,command,org.eclipse.ui,3.7.0.I20110602-0100,"org.eclipse.ui.edit.copy",1317119669855
activated,editor,org.eclipse.cdt.ui,5.3.0.201106081058,"org.eclipse.cdt.ui.editor.CEditor",1317119672214
executed,command,org.eclipse.ui,3.7.0.I20110602-0100,"org.eclipse.ui.edit.paste",1317119673576
executed,command,org.eclipse.ui,3.7.0.I20110602-0100,"org.eclipse.ui.file.save",1317119713678
started,bundle,org.eclipse.cdt.debug.core,7.1.0.201106081058,"org.eclipse.cdt.debug.core",1317119715381
started,bundle,org.eclipse.cdt.debug.ui,7.1.0.201106081058,"org.eclipse.cdt.debug.ui",1317119715418
deactivated,workbench,org.eclipse.ui.workbench,3.7.0.I20110519-0100,"",1317119717041
activated,workbench,org.eclipse.ui.workbench,3.7.0.I20110519-0100,"",1317119725798
executed,command,de.innot.avreclipse.core,2.3.4.20100807PRD,"de.innot.avreclipse.commands.uploadproject",1317119727518
executed,command,de.innot.avreclipse.core,2.3.4.20100807PRD,"de.innot.avreclipse.commands.uploadproject",1317119727545
deactivated,workbench,org.eclipse.ui.workbench,3.7.0.I20110519-0100,"",1317119728404
activated,workbench,org.eclipse.ui.workbench,3.7.0.I20110519-0100,"",1317119770768
activated,view,org.eclipse.ui.navigator.resources,3.4.300.I20110421-1800,"org.eclipse.ui.navigator.ProjectExplorer",1317119777000
executed,command,de.innot.avreclipse.core,2.3.4.20100807PRD,"de.innot.avreclipse.commands.uploadproject",1317119778971
executed,command,de.innot.avreclipse.core,2.3.4.20100807PRD,"de.innot.avreclipse.commands.uploadproject",1317119778993
deactivated,workbench,org.eclipse.ui.workbench,3.7.0.I20110519-0100,"",1317119779631
activated,workbench,org.eclipse.ui.workbench,3.7.0.I20110519-0100,"",1317119816024
opened,editor,org.eclipse.cdt.ui,5.3.0.201106081058,"org.eclipse.cdt.ui.editor.CEditor",1317119834127
activated,editor,org.eclipse.cdt.ui,5.3.0.201106081058,"org.eclipse.cdt.ui.editor.CEditor",1317119834194
executed,command,org.eclipse.ui,3.7.0.I20110602-0100,"org.eclipse.ui.edit.copy",1317119840406
activated,editor,org.eclipse.cdt.ui,5.3.0.201106081058,"org.eclipse.cdt.ui.editor.CEditor",1317119842891
executed,command,org.eclipse.ui,3.7.0.I20110602-0100,"org.eclipse.ui.edit.paste",1317119857068
executed,command,org.eclipse.ui,3.7.0.I20110602-0100,"org.eclipse.ui.file.save",1317119911884
executed,command,de.innot.avreclipse.core,2.3.4.20100807PRD,"de.innot.avreclipse.commands.uploadproject",1317119917592
deactivated,workbench,org.eclipse.ui.workbench,3.7.0.I20110519-0100,"",1317119918040
activated,workbench,org.eclipse.ui.workbench,3.7.0.I20110519-0100,"",1317119938291
executed,command,org.eclipse.ui,3.7.0.I20110602-0100,"org.eclipse.ui.file.save",1317119988451
executed,command,de.innot.avreclipse.core,2.3.4.20100807PRD,"de.innot.avreclipse.commands.uploadproject",1317119993912
executed,command,de.innot.avreclipse.core,2.3.4.20100807PRD,"de.innot.avreclipse.commands.uploadproject",1317119993929
deactivated,workbench,org.eclipse.ui.workbench,3.7.0.I20110519-0100,"",1317119994595
activated,workbench,org.eclipse.ui.workbench,3.7.0.I20110519-0100,"",1317120033389
executed,command,org.eclipse.ui,3.7.0.I20110602-0100,"org.eclipse.ui.edit.copy",1317120049182
executed,command,org.eclipse.ui,3.7.0.I20110602-0100,"org.eclipse.ui.edit.paste",1317120049471
executed,command,org.eclipse.ui,3.7.0.I20110602-0100,"org.eclipse.ui.edit.paste",1317120049700
executed,command,org.eclipse.cdt.ui,5.3.0.201106081058,"org.eclipse.cdt.ui.edit.text.c.format",1317120062844
executed,command,org.eclipse.ui,3.7.0.I20110602-0100,"org.eclipse.ui.file.save",1317120083283
executed,command,org.eclipse.ui,3.7.0.I20110602-0100,"org.eclipse.ui.file.save",1317120300803
executed,command,de.innot.avreclipse.core,2.3.4.20100807PRD,"de.innot.avreclipse.commands.uploadproject",1317120312531
deactivated,workbench,org.eclipse.ui.workbench,3.7.0.I20110519-0100,"",1317120312949
activated,workbench,org.eclipse.ui.workbench,3.7.0.I20110519-0100,"",1317120336397
executed,command,org.eclipse.ui,3.7.0.I20110602-0100,"org.eclipse.ui.edit.cut",1317120366040
executed,command,org.eclipse.ui,3.7.0.I20110602-0100,"org.eclipse.ui.edit.paste",1317120369766
executed,command,org.eclipse.cdt.ui,5.3.0.201106081058,"org.eclipse.cdt.ui.edit.text.c.format",1317120387575
executed,command,org.eclipse.ui,3.7.0.I20110602-0100,"org.eclipse.ui.file.save",1317120391202
executed,command,de.innot.avreclipse.core,2.3.4.20100807PRD,"de.innot.avreclipse.commands.uploadproject",1317120396555
deactivated,workbench,org.eclipse.ui.workbench,3.7.0.I20110519-0100,"",1317120396953
activated,workbench,org.eclipse.ui.workbench,3.7.0.I20110519-0100,"",1317120420816
deactivated,workbench,org.eclipse.ui.workbench,3.7.0.I20110519-0100,"",1317120471683
activated,workbench,org.eclipse.ui.workbench,3.7.0.I20110519-0100,"",1317120477246
activated,view,org.eclipse.ui.navigator.resources,3.4.300.I20110421-1800,"org.eclipse.ui.navigator.ProjectExplorer",1317120478477
executed,command,org.eclipse.ui,3.7.0.I20110602-0100,"org.eclipse.ui.edit.paste",1317120480773
opened,editor,org.eclipse.cdt.ui,5.3.0.201106081058,"org.eclipse.cdt.ui.editor.CEditor",1317120508585
activated,editor,org.eclipse.cdt.ui,5.3.0.201106081058,"org.eclipse.cdt.ui.editor.CEditor",1317120508658
activated,editor,org.eclipse.cdt.ui,5.3.0.201106081058,"org.eclipse.cdt.ui.editor.CEditor",1317120517266
closed,editor,org.eclipse.cdt.ui,5.3.0.201106081058,"org.eclipse.cdt.ui.editor.CEditor",1317120517338
started,bundle,org.eclipse.cdt.mylyn.ui,3.6.0.v20110608-1400,"org.eclipse.cdt.mylyn.ui",1317120517425
executed,command,org.eclipse.ui,3.7.0.I20110602-0100,"org.eclipse.ui.file.close",1317120517512
activated,editor,org.eclipse.cdt.ui,5.3.0.201106081058,"org.eclipse.cdt.ui.editor.CEditor",1317120517871
closed,editor,org.eclipse.cdt.ui,5.3.0.201106081058,"org.eclipse.cdt.ui.editor.CEditor",1317120517871
executed,command,org.eclipse.ui,3.7.0.I20110602-0100,"org.eclipse.ui.file.close",1317120517896
activated,editor,org.eclipse.cdt.ui,5.3.0.201106081058,"org.eclipse.cdt.ui.editor.CEditor",1317120518421
closed,editor,org.eclipse.cdt.ui,5.3.0.201106081058,"org.eclipse.cdt.ui.editor.CEditor",1317120518421
executed,command,org.eclipse.ui,3.7.0.I20110602-0100,"org.eclipse.ui.file.close",1317120518437
activated,view,org.eclipse.ui.navigator.resources,3.4.300.I20110421-1800,"org.eclipse.ui.navigator.ProjectExplorer",1317120518989
closed,editor,org.eclipse.cdt.ui,5.3.0.201106081058,"org.eclipse.cdt.ui.editor.CEditor",1317120518989
executed,command,org.eclipse.ui,3.7.0.I20110602-0100,"org.eclipse.ui.file.close",1317120519004
opened,editor,org.eclipse.cdt.ui,5.3.0.201106081058,"org.eclipse.cdt.ui.editor.CEditor",1317120521318
activated,editor,org.eclipse.cdt.ui,5.3.0.201106081058,"org.eclipse.cdt.ui.editor.CEditor",1317120521379
executed,command,org.eclipse.ui,3.7.0.I20110602-0100,"org.eclipse.ui.file.save",1317120590499
activated,view,org.eclipse.ui.navigator.resources,3.4.300.I20110421-1800,"org.eclipse.ui.navigator.ProjectExplorer",1317120603877
opened,editor,org.eclipse.cdt.ui,5.3.0.201106081058,"org.eclipse.cdt.ui.editor.CEditor",1317120604072
activated,editor,org.eclipse.cdt.ui,5.3.0.201106081058,"org.eclipse.cdt.ui.editor.CEditor",1317120604132
executed,command,org.eclipse.ui,3.7.0.I20110602-0100,"org.eclipse.ui.file.save",1317120609214
activated,editor,org.eclipse.cdt.ui,5.3.0.201106081058,"org.eclipse.cdt.ui.editor.CEditor",1317120611504
executed,command,de.innot.avreclipse.core,2.3.4.20100807PRD,"de.innot.avreclipse.commands.uploadproject",1317120620870
deactivated,workbench,org.eclipse.ui.workbench,3.7.0.I20110519-0100,"",1317120621292
activated,workbench,org.eclipse.ui.workbench,3.7.0.I20110519-0100,"",1317120645356
executed,command,org.eclipse.ui,3.7.0.I20110602-0100,"org.eclipse.ui.edit.copy",1317120810444
executed,command,org.eclipse.ui,3.7.0.I20110602-0100,"org.eclipse.ui.edit.paste",1317120811912
executed,command,org.eclipse.ui,3.7.0.I20110602-0100,"org.eclipse.ui.file.save",1317120820066
executed,command,de.innot.avreclipse.core,2.3.4.20100807PRD,"de.innot.avreclipse.commands.uploadproject",1317120825580
deactivated,workbench,org.eclipse.ui.workbench,3.7.0.I20110519-0100,"",1317120825978
activated,workbench,org.eclipse.ui.workbench,3.7.0.I20110519-0100,"",1317120848912
activated,view,org.eclipse.ui.navigator.resources,3.4.300.I20110421-1800,"org.eclipse.ui.navigator.ProjectExplorer",1317121438067
closed,editor,org.eclipse.cdt.ui,5.3.0.201106081058,"org.eclipse.cdt.ui.editor.CEditor",1317121492379
executed,command,org.eclipse.ui,3.7.0.I20110602-0100,"org.eclipse.ui.file.close",1317121492403
closed,editor,org.eclipse.cdt.ui,5.3.0.201106081058,"org.eclipse.cdt.ui.editor.CEditor",1317121492665
executed,command,org.eclipse.ui,3.7.0.I20110602-0100,"org.eclipse.ui.file.close",1317121492680
executed,command,org.eclipse.ui,3.7.0.I20110602-0100,"org.eclipse.ui.edit.copy",1317121503108
deactivated,workbench,org.eclipse.ui.workbench,3.7.0.I20110519-0100,"",1317121503754
activated,workbench,org.eclipse.ui.workbench,3.7.0.I20110519-0100,"",1317121508883
deactivated,workbench,org.eclipse.ui.workbench,3.7.0.I20110519-0100,"",1317121508952
activated,workbench,org.eclipse.ui.workbench,3.7.0.I20110519-0100,"",1317121509870
executed,command,org.eclipse.ui,3.7.0.I20110602-0100,"org.eclipse.ui.edit.paste",1317121509906
opened,editor,org.eclipse.cdt.ui,5.3.0.201106081058,"org.eclipse.cdt.ui.editor.CEditor",1317121527616
activated,editor,org.eclipse.cdt.ui,5.3.0.201106081058,"org.eclipse.cdt.ui.editor.CEditor",1317121527687
executed,command,org.eclipse.cdt.ui,5.3.0.201106081058,"org.eclipse.cdt.ui.edit.text.c.format",1317121548360
activated,view,org.eclipse.ui.navigator.resources,3.4.300.I20110421-1800,"org.eclipse.ui.navigator.ProjectExplorer",1317121559359
deactivated,workbench,org.eclipse.ui.workbench,3.7.0.I20110519-0100,"",1317121604362
activated,workbench,org.eclipse.ui.workbench,3.7.0.I20110519-0100,"",1317121604796
activated,editor,org.eclipse.cdt.ui,5.3.0.201106081058,"org.eclipse.cdt.ui.editor.CEditor",1317121604823
deactivated,workbench,org.eclipse.ui.workbench,3.7.0.I20110519-0100,"",1317121606356
activated,workbench,org.eclipse.ui.workbench,3.7.0.I20110519-0100,"",1317121612751
executed,command,org.eclipse.ui,3.7.0.I20110602-0100,"org.eclipse.ui.file.save",1317121670681
executed,command,de.innot.avreclipse.core,2.3.4.20100807PRD,"de.innot.avreclipse.commands.uploadproject",1317121687895
deactivated,workbench,org.eclipse.ui.workbench,3.7.0.I20110519-0100,"",1317121688324
activated,workbench,org.eclipse.ui.workbench,3.7.0.I20110519-0100,"",1317121706828
deactivated,workbench,org.eclipse.ui.workbench,3.7.0.I20110519-0100,"",1317121754424
activated,workbench,org.eclipse.ui.workbench,3.7.0.I20110519-0100,"",1317121756516
activated,view,org.eclipse.ui.navigator.resources,3.4.300.I20110421-1800,"org.eclipse.ui.navigator.ProjectExplorer",1317121758669
opened,editor,org.eclipse.cdt.ui,5.3.0.201106081058,"org.eclipse.cdt.ui.editor.CEditor",1317121761175
activated,editor,org.eclipse.cdt.ui,5.3.0.201106081058,"org.eclipse.cdt.ui.editor.CEditor",1317121761246
activated,editor,org.eclipse.cdt.ui,5.3.0.201106081058,"org.eclipse.cdt.ui.editor.CEditor",1317121766762
closed,editor,org.eclipse.cdt.ui,5.3.0.201106081058,"org.eclipse.cdt.ui.editor.CEditor",1317121766762
executed,command,org.eclipse.ui,3.7.0.I20110602-0100,"org.eclipse.ui.file.save",1317121802109
deactivated,workbench,org.eclipse.ui.workbench,3.7.0.I20110519-0100,"",1317121804755
activated,workbench,org.eclipse.ui.workbench,3.7.0.I20110519-0100,"",1317121809131
executed,command,org.eclipse.ui,3.7.0.I20110602-0100,"org.eclipse.ui.file.save",1317121813518
executed,command,de.innot.avreclipse.core,2.3.4.20100807PRD,"de.innot.avreclipse.commands.uploadproject",1317121818531
deactivated,workbench,org.eclipse.ui.workbench,3.7.0.I20110519-0100,"",1317121818944
activated,workbench,org.eclipse.ui.workbench,3.7.0.I20110519-0100,"",1317121841928
activated,view,org.eclipse.ui.navigator.resources,3.4.300.I20110421-1800,"org.eclipse.ui.navigator.ProjectExplorer",1317121849319
executed,command,de.innot.avreclipse.core,2.3.4.20100807PRD,"de.innot.avreclipse.commands.uploadproject",1317121852851
deactivated,workbench,org.eclipse.ui.workbench,3.7.0.I20110519-0100,"",1317121853194
activated,workbench,org.eclipse.ui.workbench,3.7.0.I20110519-0100,"",1317121871799
activated,editor,org.eclipse.cdt.ui,5.3.0.201106081058,"org.eclipse.cdt.ui.editor.CEditor",1317121892763
executed,command,org.eclipse.ui,3.7.0.I20110602-0100,"org.eclipse.ui.edit.copy",1317121897636
executed,command,org.eclipse.ui,3.7.0.I20110602-0100,"org.eclipse.ui.edit.paste",1317121897911
executed,command,org.eclipse.ui,3.7.0.I20110602-0100,"org.eclipse.ui.edit.paste",1317121898248
executed,command,org.eclipse.ui,3.7.0.I20110602-0100,"org.eclipse.ui.file.save",1317121954539
executed,command,de.innot.avreclipse.core,2.3.4.20100807PRD,"de.innot.avreclipse.commands.uploadproject",1317121960647
deactivated,workbench,org.eclipse.ui.workbench,3.7.0.I20110519-0100,"",1317121961049
activated,workbench,org.eclipse.ui.workbench,3.7.0.I20110519-0100,"",1317121980418
activated,view,org.eclipse.ui.navigator.resources,3.4.300.I20110421-1800,"org.eclipse.ui.navigator.ProjectExplorer",1317122064105
opened,editor,org.eclipse.cdt.ui,5.3.0.201106081058,"org.eclipse.cdt.ui.editor.CEditor",1317122064318
activated,editor,org.eclipse.cdt.ui,5.3.0.201106081058,"org.eclipse.cdt.ui.editor.CEditor",1317122064377
executed,command,org.eclipse.ui,3.7.0.I20110602-0100,"org.eclipse.ui.edit.copy",1317122070166
activated,editor,org.eclipse.cdt.ui,5.3.0.201106081058,"org.eclipse.cdt.ui.editor.CEditor",1317122072143
executed,command,org.eclipse.ui,3.7.0.I20110602-0100,"org.eclipse.ui.edit.paste",1317122075907
executed,command,org.eclipse.ui,3.7.0.I20110602-0100,"org.eclipse.ui.file.save",1317122156341
executed,command,de.innot.avreclipse.core,2.3.4.20100807PRD,"de.innot.avreclipse.commands.uploadproject",1317122162969
deactivated,workbench,org.eclipse.ui.workbench,3.7.0.I20110519-0100,"",1317122163383
activated,workbench,org.eclipse.ui.workbench,3.7.0.I20110519-0100,"",1317122182329
executed,command,org.eclipse.ui,3.7.0.I20110602-0100,"org.eclipse.ui.edit.cut",1317122309771
executed,command,org.eclipse.ui,3.7.0.I20110602-0100,"org.eclipse.ui.edit.paste",1317122312859
executed,command,org.eclipse.ui,3.7.0.I20110602-0100,"org.eclipse.ui.file.save",1317122329990
executed,command,org.eclipse.ui,3.7.0.I20110602-0100,"org.eclipse.ui.file.save",1317122339978
executed,command,de.innot.avreclipse.core,2.3.4.20100807PRD,"de.innot.avreclipse.commands.uploadproject",1317122344461
deactivated,workbench,org.eclipse.ui.workbench,3.7.0.I20110519-0100,"",1317122344867
activated,workbench,org.eclipse.ui.workbench,3.7.0.I20110519-0100,"",1317122367463
executed,command,org.eclipse.ui,3.7.0.I20110602-0100,"org.eclipse.ui.file.save",1317122386687
executed,command,de.innot.avreclipse.core,2.3.4.20100807PRD,"de.innot.avreclipse.commands.uploadproject",1317122392218
deactivated,workbench,org.eclipse.ui.workbench,3.7.0.I20110519-0100,"",1317122392617
activated,workbench,org.eclipse.ui.workbench,3.7.0.I20110519-0100,"",1317122415369
executed,command,org.eclipse.ui,3.7.0.I20110602-0100,"org.eclipse.ui.file.save",1317122443423
executed,command,de.innot.avreclipse.core,2.3.4.20100807PRD,"de.innot.avreclipse.commands.uploadproject",1317122448009
deactivated,workbench,org.eclipse.ui.workbench,3.7.0.I20110519-0100,"",1317122448430
activated,workbench,org.eclipse.ui.workbench,3.7.0.I20110519-0100,"",1317122471539
deactivated,workbench,org.eclipse.ui.workbench,3.7.0.I20110519-0100,"",1317122745501
activated,workbench,org.eclipse.ui.workbench,3.7.0.I20110519-0100,"",1317122751677
activated,view,org.eclipse.ui.navigator.resources,3.4.300.I20110421-1800,"org.eclipse.ui.navigator.ProjectExplorer",1317122753430
executed,command,org.eclipse.ui,3.7.0.I20110602-0100,"org.eclipse.ui.edit.paste",1317122754730
opened,editor,org.eclipse.cdt.ui,5.3.0.201106081058,"org.eclipse.cdt.ui.editor.CEditor",1317122768234
activated,editor,org.eclipse.cdt.ui,5.3.0.201106081058,"org.eclipse.cdt.ui.editor.CEditor",1317122768290
activated,editor,org.eclipse.cdt.ui,5.3.0.201106081058,"org.eclipse.cdt.ui.editor.CEditor",1317122783781
executed,command,org.eclipse.ui,3.7.0.I20110602-0100,"org.eclipse.ui.file.save",1317122873887
activated,editor,org.eclipse.cdt.ui,5.3.0.201106081058,"org.eclipse.cdt.ui.editor.CEditor",1317122885736
activated,view,org.eclipse.ui.navigator.resources,3.4.300.I20110421-1800,"org.eclipse.ui.navigator.ProjectExplorer",1317122889716
opened,editor,org.eclipse.cdt.ui,5.3.0.201106081058,"org.eclipse.cdt.ui.editor.CEditor",1317122889971
activated,editor,org.eclipse.cdt.ui,5.3.0.201106081058,"org.eclipse.cdt.ui.editor.CEditor",1317122890030
executed,command,org.eclipse.ui,3.7.0.I20110602-0100,"org.eclipse.ui.file.save",1317122896072
activated,editor,org.eclipse.cdt.ui,5.3.0.201106081058,"org.eclipse.cdt.ui.editor.CEditor",1317122898708
executed,command,de.innot.avreclipse.core,2.3.4.20100807PRD,"de.innot.avreclipse.commands.uploadproject",1317122905498
deactivated,workbench,org.eclipse.ui.workbench,3.7.0.I20110519-0100,"",1317122905887
activated,workbench,org.eclipse.ui.workbench,3.7.0.I20110519-0100,"",1317122929726
executed,command,org.eclipse.ui,3.7.0.I20110602-0100,"org.eclipse.ui.edit.copy",1317123097502
executed,command,org.eclipse.ui,3.7.0.I20110602-0100,"org.eclipse.ui.edit.cut",1317123119827
deactivated,workbench,org.eclipse.ui.workbench,3.7.0.I20110519-0100,"",1317123432571
activated,workbench,org.eclipse.ui.workbench,3.7.0.I20110519-0100,"",1317127004128
activated,view,org.eclipse.ui.navigator.resources,3.4.300.I20110421-1800,"org.eclipse.ui.navigator.ProjectExplorer",1317127015179
activated,editor,org.eclipse.cdt.ui,5.3.0.201106081058,"org.eclipse.cdt.ui.editor.CEditor",1317127031790
deactivated,workbench,org.eclipse.ui.workbench,3.7.0.I20110519-0100,"",1317127032087
activated,workbench,org.eclipse.ui.workbench,3.7.0.I20110519-0100,"",1317127035449
activated,editor,org.eclipse.cdt.ui,5.3.0.201106081058,"org.eclipse.cdt.ui.editor.CEditor",1317127035567
closed,editor,org.eclipse.cdt.ui,5.3.0.201106081058,"org.eclipse.cdt.ui.editor.CEditor",1317127035568
activated,editor,org.eclipse.cdt.ui,5.3.0.201106081058,"org.eclipse.cdt.ui.editor.CEditor",1317127040796
closed,editor,org.eclipse.cdt.ui,5.3.0.201106081058,"org.eclipse.cdt.ui.editor.CEditor",1317127040796
executed,command,org.eclipse.ui,3.7.0.I20110602-0100,"org.eclipse.ui.file.close",1317127040809
activated,editor,org.eclipse.cdt.ui,5.3.0.201106081058,"org.eclipse.cdt.ui.editor.CEditor",1317127041224
closed,editor,org.eclipse.cdt.ui,5.3.0.201106081058,"org.eclipse.cdt.ui.editor.CEditor",1317127041225
executed,command,org.eclipse.ui,3.7.0.I20110602-0100,"org.eclipse.ui.file.close",1317127041236
activated,view,org.eclipse.ui.navigator.resources,3.4.300.I20110421-1800,"org.eclipse.ui.navigator.ProjectExplorer",1317127041913
closed,editor,org.eclipse.cdt.ui,5.3.0.201106081058,"org.eclipse.cdt.ui.editor.CEditor",1317127041913
executed,command,org.eclipse.ui,3.7.0.I20110602-0100,"org.eclipse.ui.file.close",1317127041927
executed,command,org.eclipse.ui,3.7.0.I20110602-0100,"org.eclipse.ui.edit.copy",1317127088220
deactivated,workbench,org.eclipse.ui.workbench,3.7.0.I20110519-0100,"",1317127089463
activated,workbench,org.eclipse.ui.workbench,3.7.0.I20110519-0100,"",1317127093129
deactivated,workbench,org.eclipse.ui.workbench,3.7.0.I20110519-0100,"",1317127093193
activated,workbench,org.eclipse.ui.workbench,3.7.0.I20110519-0100,"",1317127093932
executed,command,org.eclipse.ui,3.7.0.I20110602-0100,"org.eclipse.ui.edit.paste",1317127093938
opened,editor,org.eclipse.cdt.ui,5.3.0.201106081058,"org.eclipse.cdt.ui.editor.CEditor",1317127109620
activated,editor,org.eclipse.cdt.ui,5.3.0.201106081058,"org.eclipse.cdt.ui.editor.CEditor",1317127109680
deactivated,workbench,org.eclipse.ui.workbench,3.7.0.I20110519-0100,"",1317127120376
activated,workbench,org.eclipse.ui.workbench,3.7.0.I20110519-0100,"",1317127120399
executed,command,org.eclipse.cdt.ui,5.3.0.201106081058,"org.eclipse.cdt.ui.edit.text.c.format",1317127180873
executed,command,org.eclipse.ui,3.7.0.I20110602-0100,"org.eclipse.ui.file.save",1317127219621
executed,command,de.innot.avreclipse.core,2.3.4.20100807PRD,"de.innot.avreclipse.commands.uploadproject",1317127249801
deactivated,workbench,org.eclipse.ui.workbench,3.7.0.I20110519-0100,"",1317127250219
activated,workbench,org.eclipse.ui.workbench,3.7.0.I20110519-0100,"",1317127250272
executed,command,de.innot.avreclipse.core,2.3.4.20100807PRD,"de.innot.avreclipse.commands.uploadproject",1317127256656
deactivated,workbench,org.eclipse.ui.workbench,3.7.0.I20110519-0100,"",1317127257057
activated,workbench,org.eclipse.ui.workbench,3.7.0.I20110519-0100,"",1317127276571
executed,command,org.eclipse.ui,3.7.0.I20110602-0100,"org.eclipse.ui.file.save",1317127398095
executed,command,org.eclipse.ui,3.7.0.I20110602-0100,"org.eclipse.ui.file.save",1317127414531
executed,command,org.eclipse.ui,3.7.0.I20110602-0100,"org.eclipse.ui.file.save",1317127425040
executed,command,de.innot.avreclipse.core,2.3.4.20100807PRD,"de.innot.avreclipse.commands.uploadproject",1317127429483
deactivated,workbench,org.eclipse.ui.workbench,3.7.0.I20110519-0100,"",1317127429882
activated,workbench,org.eclipse.ui.workbench,3.7.0.I20110519-0100,"",1317127449625
activated,view,org.eclipse.ui.navigator.resources,3.4.300.I20110421-1800,"org.eclipse.ui.navigator.ProjectExplorer",1317127465515
opened,editor,org.eclipse.cdt.ui,5.3.0.201106081058,"org.eclipse.cdt.ui.editor.CEditor",1317127465665
activated,editor,org.eclipse.cdt.ui,5.3.0.201106081058,"org.eclipse.cdt.ui.editor.CEditor",1317127465721
executed,command,org.eclipse.ui,3.7.0.I20110602-0100,"org.eclipse.ui.edit.copy",1317127474301
activated,editor,org.eclipse.cdt.ui,5.3.0.201106081058,"org.eclipse.cdt.ui.editor.CEditor",1317127476575
executed,command,org.eclipse.ui,3.7.0.I20110602-0100,"org.eclipse.ui.edit.paste",1317127480365
executed,command,org.eclipse.ui,3.7.0.I20110602-0100,"org.eclipse.ui.file.save",1317127571069
executed,command,de.innot.avreclipse.core,2.3.4.20100807PRD,"de.innot.avreclipse.commands.uploadproject",1317127584986
deactivated,workbench,org.eclipse.ui.workbench,3.7.0.I20110519-0100,"",1317127585388
activated,workbench,org.eclipse.ui.workbench,3.7.0.I20110519-0100,"",1317127604539
executed,command,org.eclipse.ui,3.7.0.I20110602-0100,"org.eclipse.ui.file.saveAll",1317127618299
executed,command,de.innot.avreclipse.core,2.3.4.20100807PRD,"de.innot.avreclipse.commands.uploadproject",1317127631199
deactivated,workbench,org.eclipse.ui.workbench,3.7.0.I20110519-0100,"",1317127631600
activated,workbench,org.eclipse.ui.workbench,3.7.0.I20110519-0100,"",1317127651894
executed,command,org.eclipse.ui,3.7.0.I20110602-0100,"org.eclipse.ui.edit.cut",1317127749518
executed,command,org.eclipse.ui,3.7.0.I20110602-0100,"org.eclipse.ui.edit.paste",1317127755721
executed,command,org.eclipse.ui,3.7.0.I20110602-0100,"org.eclipse.ui.edit.delete",1317127759660
executed,command,org.eclipse.ui,3.7.0.I20110602-0100,"org.eclipse.ui.edit.delete",1317127760099
executed,command,org.eclipse.ui,3.7.0.I20110602-0100,"org.eclipse.ui.edit.delete",1317127760182
executed,command,org.eclipse.ui,3.7.0.I20110602-0100,"org.eclipse.ui.edit.delete",1317127760266
executed,command,org.eclipse.ui,3.7.0.I20110602-0100,"org.eclipse.ui.edit.delete",1317127760349
executed,command,org.eclipse.ui,3.7.0.I20110602-0100,"org.eclipse.ui.edit.delete",1317127760434
executed,command,org.eclipse.ui,3.7.0.I20110602-0100,"org.eclipse.ui.edit.delete",1317127760518
executed,command,org.eclipse.ui,3.7.0.I20110602-0100,"org.eclipse.ui.edit.delete",1317127760602
executed,command,org.eclipse.ui,3.7.0.I20110602-0100,"org.eclipse.ui.edit.delete",1317127760686
executed,command,org.eclipse.ui,3.7.0.I20110602-0100,"org.eclipse.ui.edit.delete",1317127760814
executed,command,org.eclipse.ui,3.7.0.I20110602-0100,"org.eclipse.ui.edit.delete",1317127760982
executed,command,org.eclipse.ui,3.7.0.I20110602-0100,"org.eclipse.ui.edit.delete",1317127761142
executed,command,org.eclipse.ui,3.7.0.I20110602-0100,"org.eclipse.ui.edit.delete",1317127761286
executed,command,org.eclipse.ui,3.7.0.I20110602-0100,"org.eclipse.ui.edit.delete",1317127761445
executed,command,org.eclipse.ui,3.7.0.I20110602-0100,"org.eclipse.ui.edit.delete",1317127761606
executed,command,org.eclipse.ui,3.7.0.I20110602-0100,"org.eclipse.ui.edit.delete",1317127761757
executed,command,org.eclipse.ui,3.7.0.I20110602-0100,"org.eclipse.ui.edit.delete",1317127761933
executed,command,org.eclipse.ui,3.7.0.I20110602-0100,"org.eclipse.ui.edit.delete",1317127762391
executed,command,org.eclipse.ui,3.7.0.I20110602-0100,"org.eclipse.ui.edit.delete",1317127763054
executed,command,org.eclipse.ui,3.7.0.I20110602-0100,"org.eclipse.ui.edit.undo",1317127795598
executed,command,org.eclipse.ui,3.7.0.I20110602-0100,"org.eclipse.ui.file.save",1317127943708
executed,command,de.innot.avreclipse.core,2.3.4.20100807PRD,"de.innot.avreclipse.commands.uploadproject",1317127950018
deactivated,workbench,org.eclipse.ui.workbench,3.7.0.I20110519-0100,"",1317127950401
activated,workbench,org.eclipse.ui.workbench,3.7.0.I20110519-0100,"",1317127974014
executed,command,org.eclipse.ui,3.7.0.I20110602-0100,"org.eclipse.ui.file.save",1317127988041
executed,command,de.innot.avreclipse.core,2.3.4.20100807PRD,"de.innot.avreclipse.commands.uploadproject",1317127993787
deactivated,workbench,org.eclipse.ui.workbench,3.7.0.I20110519-0100,"",1317127994164
activated,workbench,org.eclipse.ui.workbench,3.7.0.I20110519-0100,"",1317128017634
executed,command,org.eclipse.ui,3.7.0.I20110602-0100,"org.eclipse.ui.file.save",1317128039021
executed,command,de.innot.avreclipse.core,2.3.4.20100807PRD,"de.innot.avreclipse.commands.uploadproject",1317128043419
