Message[302] E:\PIC KIT1\PIC181108\EXTINT\EXTINT.ASM 13 : Register in operand not in bank 0.  Ensure that bank bits are correct.
Message[302] E:\PIC KIT1\PIC181108\EXTINT\EXTINT.ASM 15 : Register in operand not in bank 0.  Ensure that bank bits are correct.
Message[302] E:\PIC KIT1\PIC181108\EXTINT\EXTINT.ASM 17 : Register in operand not in bank 0.  Ensure that bank bits are correct.
