

HI-TECH Software PIC LITE Macro Assembler V9.71a build 6446 
                                                                                               Mon Apr 22 20:57:06 2013

HI-TECH Software Omniscient Code Generator (Lite mode) build 6446
     1  0000                     opt subtitle "HI-TECH Software Omniscient Code Generator (Lite mode) build 6446"
     2                           
     3                           opt pagewidth 120
     4                           
     5                           	opt lm
     6                           
     7                           	processor	16F877A
     8                           clrc	macro
     9                           	bcf	3,0
    10  0000                     	endm
    11                           clrz	macro
    12                           	bcf	3,2
    13  0000                     	endm
    14                           setc	macro
    15                           	bsf	3,0
    16  0000                     	endm
    17                           setz	macro
    18                           	bsf	3,2
    19  0000                     	endm
    20                           skipc	macro
    21                           	btfss	3,0
    22  0000                     	endm
    23                           skipz	macro
    24                           	btfss	3,2
    25  0000                     	endm
    26                           skipnc	macro
    27                           	btfsc	3,0
    28  0000                     	endm
    29                           skipnz	macro
    30                           	btfsc	3,2
    31  0000                     	endm
    32  0000                     indf	equ	0
    33  0000                     indf0	equ	0
    34  0002                     pc	equ	2
    35  0002                     pcl	equ	2
    36  0003                     status	equ	3
    37  0004                     fsr	equ	4
    38  0004                     fsr0	equ	4
    39  0001                     c	equ	1
    40  0000                     z	equ	0
    41  000A                     pclath	equ	10
    42                           	FNROOT	_main
    43                           	global	_ADC_VALUE
    44                           	global	_ADCON0
    45                           psect	maintext,global,class=CODE,delta=2
    46                           global __pmaintext
    47  07DC                     __pmaintext:
    48  001F                     _ADCON0	set	31
    49                           	global	_ADRESH
    50  001E                     _ADRESH	set	30
    51                           	global	_PORTB
    52  0006                     _PORTB	set	6
    53                           	global	_ADIF
    54  0066                     _ADIF	set	102
    55                           	global	_ADCON1
    56  009F                     _ADCON1	set	159
    57                           	global	_ADRESL
    58  009E                     _ADRESL	set	158
    59                           	global	_TRISA
    60  0085                     _TRISA	set	133
    61                           	global	_TRISB
    62  0086                     _TRISB	set	134
    63                           	global	_ADIE
    64  0466                     _ADIE	set	1126
    65                           	file	"pic_adc.as"
    66                           	line	#
    67                           psect cinit,class=CODE,delta=2
    68                           global start_initialization
    69  07D6                     start_initialization:
    70                           
    71                           psect	bssCOMMON,class=COMMON,space=1
    72                           global __pbssCOMMON
    73  0070                     __pbssCOMMON:
    74  0070                     _ADC_VALUE:
    75  0070                            ds      2
    76                           
    77                           ; Clear objects allocated to COMMON
    78                           psect cinit,class=CODE,delta=2
    79  07D6  01F0               	clrf	((__pbssCOMMON)+0)&07Fh
    80  07D7  01F1               	clrf	((__pbssCOMMON)+1)&07Fh
    81                           psect cinit,class=CODE,delta=2
    82                           global end_of_initialization
    83                           
    84                           ;End of C runtime variable initialization code
    85                           
    86  07D8                     end_of_initialization:
    87  07D8  0183               clrf status
    88  07D9  120A  118A  2FDC   ljmp _main	;jump to C main() function
    89                           psect	cstackCOMMON,class=COMMON,space=1
    90                           global __pcstackCOMMON
    91  0000                     __pcstackCOMMON:
    92                           	global	?_main
    93  0000                     ?_main:	; 0 bytes @ 0x0
    94                           	global	??_main
    95  0000                     ??_main:	; 0 bytes @ 0x0
    96 ;;Data sizes: Strings 0, constant 0, data 0, bss 2, persistent 0 stack 0
    97 ;;Auto spaces:   Size  Autos    Used
    98 ;; COMMON          14      0       2
    99 ;; BANK0           80      0       0
   100 ;; BANK1           80      0       0
   101 ;; BANK3           96      0       0
   102 ;; BANK2           96      0       0
   103                           
   104 ;;
   105 ;; Pointer list with targets:
   106                           
   107                           
   108                           
   109 ;;
   110 ;; Critical Paths under _main in COMMON
   111 ;;
   112 ;;   None.
   113 ;;
   114 ;; Critical Paths under _main in BANK0
   115 ;;
   116 ;;   None.
   117 ;;
   118 ;; Critical Paths under _main in BANK1
   119 ;;
   120 ;;   None.
   121 ;;
   122 ;; Critical Paths under _main in BANK3
   123 ;;
   124 ;;   None.
   125 ;;
   126 ;; Critical Paths under _main in BANK2
   127 ;;
   128 ;;   None.
   129                           
   130 ;;
   131 ;;Main: autosize = 0, tempsize = 0, incstack = 0, save=0
   132 ;;
   133                           
   134 ;;
   135 ;;Call Graph Tables:
   136 ;;
   137 ;; ---------------------------------------------------------------------------------
   138 ;; (Depth) Function   	        Calls       Base Space   Used Autos Params    Refs
   139 ;; ---------------------------------------------------------------------------------
   140 ;; (0) _main                                                 2     2      0       0
   141 ;; ---------------------------------------------------------------------------------
   142 ;; Estimated maximum stack depth 0
   143 ;; ---------------------------------------------------------------------------------
   144                           
   145 ;; Call Graph Graphs:
   146                           
   147 ;; _main (ROOT)
   148 ;;
   149                           
   150 ;; Address spaces:
   151                           
   152 ;;Name               Size   Autos  Total    Cost      Usage
   153 ;;BITCOMMON            E      0       0       0        0.0%
   154 ;;EEDATA             100      0       0       0        0.0%
   155 ;;NULL                 0      0       0       0        0.0%
   156 ;;CODE                 0      0       0       0        0.0%
   157 ;;COMMON               E      0       2       1       14.3%
   158 ;;BITSFR0              0      0       0       1        0.0%
   159 ;;SFR0                 0      0       0       1        0.0%
   160 ;;BITSFR1              0      0       0       2        0.0%
   161 ;;SFR1                 0      0       0       2        0.0%
   162 ;;STACK                0      0       0       2        0.0%
   163 ;;ABS                  0      0       2       3        0.0%
   164 ;;BITBANK0            50      0       0       4        0.0%
   165 ;;BITSFR3              0      0       0       4        0.0%
   166 ;;SFR3                 0      0       0       4        0.0%
   167 ;;BANK0               50      0       0       5        0.0%
   168 ;;BITSFR2              0      0       0       5        0.0%
   169 ;;SFR2                 0      0       0       5        0.0%
   170 ;;BITBANK1            50      0       0       6        0.0%
   171 ;;BANK1               50      0       0       7        0.0%
   172 ;;BITBANK3            60      0       0       8        0.0%
   173 ;;BANK3               60      0       0       9        0.0%
   174 ;;BITBANK2            60      0       0      10        0.0%
   175 ;;BANK2               60      0       0      11        0.0%
   176 ;;DATA                 0      0       2      12        0.0%
   177                           
   178                           	global	_main
   179                           psect	maintext
   180                           
   181 ;; *************** function _main *****************
   182 ;; Defined at:
   183 ;;		line 7 in file "D:\EMBEDEDD\8051prgms\pic adc\ADC2.C"
   184 ;; Parameters:    Size  Location     Type
   185 ;;		None
   186 ;; Auto vars:     Size  Location     Type
   187 ;;  ADC_VALUE       2    0        unsigned int 
   188 ;; Return value:  Size  Location     Type
   189 ;;		None               void
   190 ;; Registers used:
   191 ;;		wreg, status,2
   192 ;; Tracked objects:
   193 ;;		On entry : 17F/0
   194 ;;		On exit  : 0/0
   195 ;;		Unchanged: 0/0
   196 ;; Data sizes:     COMMON   BANK0   BANK1   BANK3   BANK2
   197 ;;      Params:         0       0       0       0       0
   198 ;;      Locals:         0       0       0       0       0
   199 ;;      Temps:          0       0       0       0       0
   200 ;;      Totals:         0       0       0       0       0
   201 ;;Total ram usage:        0 bytes
   202 ;; This function calls:
   203 ;;		Nothing
   204 ;; This function is called by:
   205 ;;		Startup code after reset
   206 ;; This function uses a non-reentrant model
   207 ;;
   208                           psect	maintext
   209                           	file	"D:\EMBEDEDD\8051prgms\pic adc\ADC2.C"
   210                           	line	7
   211                           	global	__size_of_main
   212  0024                     	__size_of_main	equ	__end_of_main-_main
   213                           	
   214  07DC                     _main:	
   215                           	opt	stack 8
   216                           ; Regs used in _main: [wreg+status,2]
   217                           	line	10
   218                           	
   219  07DC                     l944:	
   220                           ;ADC2.C: 10: ADCON1=0b00000001;
   221  07DC  3001               	movlw	(01h)
   222  07DD  1683               	bsf	status, 5	;RP0=1, select bank1
   223  07DE  1303               	bcf	status, 6	;RP1=0, select bank1
   224  07DF  009F               	movwf	(159)^080h	;volatile
   225                           	line	11
   226                           ;ADC2.C: 11: TRISA=0xff;
   227  07E0  30FF               	movlw	(0FFh)
   228  07E1  0085               	movwf	(133)^080h	;volatile
   229                           	line	12
   230                           	
   231  07E2                     l946:	
   232                           ;ADC2.C: 12: TRISB=0x00;
   233  07E2  0186               	clrf	(134)^080h	;volatile
   234                           	line	15
   235                           ;ADC2.C: 15: while(1)
   236                           	
   237  07E3                     l561:	
   238                           	line	18
   239                           	
   240  07E3                     l948:	
   241                           ;ADC2.C: 16: {
   242                           ;ADC2.C: 17: unsigned int ADC_VALUE;
   243                           ;ADC2.C: 18: ADCON0 = 0b01010001;
   244  07E3  3051               	movlw	(051h)
   245  07E4  1283               	bcf	status, 5	;RP0=0, select bank0
   246  07E5  1303               	bcf	status, 6	;RP1=0, select bank0
   247  07E6  009F               	movwf	(31)	;volatile
   248                           	line	19
   249                           	
   250  07E7                     l950:	
   251                           ;ADC2.C: 19: ADIE = 0b0;
   252  07E7  1683               	bsf	status, 5	;RP0=1, select bank1
   253  07E8  1303               	bcf	status, 6	;RP1=0, select bank1
   254  07E9  130C               	bcf	(1126/8)^080h,(1126)&7
   255                           	line	20
   256                           	
   257  07EA                     l952:	
   258                           ;ADC2.C: 20: ADIF = 0b0;
   259  07EA  1283               	bcf	status, 5	;RP0=0, select bank0
   260  07EB  1303               	bcf	status, 6	;RP1=0, select bank0
   261  07EC  130C               	bcf	(102/8),(102)&7
   262                           	line	21
   263                           ;ADC2.C: 21: ADRESL = 0b0;
   264  07ED  1683               	bsf	status, 5	;RP0=1, select bank1
   265  07EE  1303               	bcf	status, 6	;RP1=0, select bank1
   266  07EF  019E               	clrf	(158)^080h	;volatile
   267                           	line	22
   268                           ;ADC2.C: 22: ADRESH = 0b0;
   269  07F0  1283               	bcf	status, 5	;RP0=0, select bank0
   270  07F1  1303               	bcf	status, 6	;RP1=0, select bank0
   271  07F2  019E               	clrf	(30)	;volatile
   272                           	line	23
   273                           	
   274  07F3                     l954:	
   275                           ;ADC2.C: 23: ADCON0 = 0b01010101;
   276  07F3  3055               	movlw	(055h)
   277  07F4  009F               	movwf	(31)	;volatile
   278                           	line	25
   279                           ;ADC2.C: 25: while(!ADIF);
   280  07F5  2FF6               	goto	l562
   281                           	
   282  07F6                     l563:	
   283                           	
   284  07F6                     l562:	
   285  07F6  1F0C               	btfss	(102/8),(102)&7
   286  07F7  2FF9               	goto	u11
   287  07F8  2FFA               	goto	u10
   288  07F9                     u11:
   289  07F9  2FF6               	goto	l563
   290  07FA                     u10:
   291                           	
   292  07FA                     l564:	
   293                           	line	26
   294                           	
   295  07FA                     l956:	
   296                           ;ADC2.C: 26: PORTB = ADRESH;
   297  07FA  081E               	movf	(30),w	;volatile
   298  07FB  0086               	movwf	(6)	;volatile
   299                           	line	33
   300                           	
   301  07FC                     l565:	
   302                           	line	15
   303  07FC  2FE3               	goto	l561
   304                           	
   305  07FD                     l566:	
   306                           	line	34
   307                           	
   308  07FD                     l567:	
   309                           	global	start
   310  07FD  120A  118A  2800   	ljmp	start
   311                           	opt stack 0
   312                           GLOBAL	__end_of_main
   313  0800                     	__end_of_main:
   314 ;; =============== function _main ends ============
   315                           
   316                           	signat	_main,88
   317                           psect	maintext
   318                           	global	btemp
   319  007E                     	btemp set 07Eh
   320                           
   321                           	DABS	1,126,2	;btemp
   322                           	global	wtemp0
   323  007E                     	wtemp0 set btemp


HI-TECH Software PICC Macro Assembler V9.71a build 6446 
Symbol Table                                                                                   Mon Apr 22 20:57:06 2013

                  u10 07FA                    u11 07F9                   l561 07E3                   l562 07F6  
                 l563 07F6                   l564 07FA                   l565 07FC                   l566 07FD  
                 l567 07FD                   l950 07E7                   l952 07EA                   l944 07DC  
                 l954 07F3                   l946 07E2                   l956 07FA                   l948 07E3  
                _ADIE 0466                  _ADIF 0066                  _main 07DC                  btemp 007E  
                start 0000                 ?_main 0000                 _PORTB 0006                 _TRISA 0085  
               _TRISB 0086                 status 0003                 wtemp0 007E          __end_of_main 0800  
              ??_main 0000                _ADCON0 001F                _ADCON1 009F                _ADRESH 001E  
              _ADRESL 009E        __pcstackCOMMON 0000            __pmaintext 07DC             _ADC_VALUE 0070  
end_of_initialization 07D8   start_initialization 07D6           __pbssCOMMON 0070         __size_of_main 0024  
