   1               		.file	"adcinterrupt.c"
   2               	__SREG__ = 0x3f
   3               	__SP_H__ = 0x3e
   4               	__SP_L__ = 0x3d
   5               	__CCP__  = 0x34
   6               	__tmp_reg__ = 0
   7               	__zero_reg__ = 1
  15               	.Ltext0:
  16               	.global	__vector_21
  18               	__vector_21:
  19               	.LFB6:
  20               	.LM1:
  21 0000 1F92      		push __zero_reg__
  22 0002 0F92      		push r0
  23 0004 0FB6      		in r0,__SREG__
  24 0006 0F92      		push r0
  25 0008 1124      		clr __zero_reg__
  26 000a 8F93      		push r24
  27               	/* prologue: Signal */
  28               	/* frame size = 0 */
  29               	.LM2:
  30 000c 84B1      		in r24,36-32
  31 000e 82BB      		out 50-32,r24
  32               	.LM3:
  33 0010 85B1      		in r24,37-32
  34 0012 83B9      		out 35-32,r24
  35               	.LM4:
  36 0014 349A      		sbi 38-32,4
  37               	.LM5:
  38 0016 369A      		sbi 38-32,6
  39               	/* epilogue start */
  40               	.LM6:
  41 0018 8F91      		pop r24
  42 001a 0F90      		pop r0
  43 001c 0FBE      		out __SREG__,r0
  44 001e 0F90      		pop r0
  45 0020 1F90      		pop __zero_reg__
  46 0022 1895      		reti
  47               	.LFE6:
  49               	.global	main
  51               	main:
  52               	.LFB7:
  53               	.LM7:
  54               	/* prologue: function */
  55               	/* frame size = 0 */
  56               	.LM8:
  57 0024 8FEF      		ldi r24,lo8(-1)
  58 0026 81BB      		out 49-32,r24
  59               	.LM9:
  60 0028 82B9      		out 34-32,r24
  61               	.LM10:
  62 002a 8BEC      		ldi r24,lo8(-53)
  63 002c 86B9      		out 38-32,r24
  64               	.LM11:
  65 002e 81E0      		ldi r24,lo8(1)
  66 0030 87B9      		out 39-32,r24
  67               	.LM12:
  68               	/* #APP */
  69               	 ;  18 "adcinterrupt.c" 1
  70 0032 7894      		sei
  71               	 ;  0 "" 2
  72               	/* #NOAPP */
  73               	.L4:
  74 0034 00C0      		rjmp .L4
  75               	.LFE7:
 109               	.Letext0:
DEFINED SYMBOLS
                            *ABS*:00000000 adcinterrupt.c
C:\DOCUME~1\embedded\LOCALS~1\Temp/cctkSAEq.s:2      *ABS*:0000003f __SREG__
C:\DOCUME~1\embedded\LOCALS~1\Temp/cctkSAEq.s:3      *ABS*:0000003e __SP_H__
C:\DOCUME~1\embedded\LOCALS~1\Temp/cctkSAEq.s:4      *ABS*:0000003d __SP_L__
C:\DOCUME~1\embedded\LOCALS~1\Temp/cctkSAEq.s:5      *ABS*:00000034 __CCP__
C:\DOCUME~1\embedded\LOCALS~1\Temp/cctkSAEq.s:6      *ABS*:00000000 __tmp_reg__
C:\DOCUME~1\embedded\LOCALS~1\Temp/cctkSAEq.s:7      *ABS*:00000001 __zero_reg__
C:\DOCUME~1\embedded\LOCALS~1\Temp/cctkSAEq.s:18     .text:00000000 __vector_21
C:\DOCUME~1\embedded\LOCALS~1\Temp/cctkSAEq.s:51     .text:00000024 main

NO UNDEFINED SYMBOLS
