   1               		.file	"EEPROM.c"
   2               	__SREG__ = 0x3f
   3               	__SP_H__ = 0x3e
   4               	__SP_L__ = 0x3d
   5               	__CCP__  = 0x34
   6               	__tmp_reg__ = 0
   7               	__zero_reg__ = 1
  15               	.Ltext0:
  16               	.global	main
  18               	main:
  19               	.LFB6:
  20               	.LM1:
  21               	/* prologue: function */
  22               	/* frame size = 0 */
  23               	.LM2:
  24 0000 1FBA      		out (62)+1-32,__zero_reg__
  25 0002 1EBA      		out 62-32,__zero_reg__
  26               	.LM3:
  27 0004 8CB3      		in r24,60-32
  28               	.LM4:
  29 0006 88E4      		ldi r24,lo8(72)
  30 0008 8DBB      		out 61-32,r24
  31               	.LM5:
  32 000a E29A      		sbi 60-32,2
  33               	.LM6:
  34 000c E19A      		sbi 60-32,1
  35               	.L2:
  36 000e 00C0      		rjmp .L2
  37               	.LFE6:
  63               	.Letext0:
DEFINED SYMBOLS
                            *ABS*:00000000 EEPROM.c
C:\DOCUME~1\embedded\LOCALS~1\Temp/ccy7H37M.s:2      *ABS*:0000003f __SREG__
C:\DOCUME~1\embedded\LOCALS~1\Temp/ccy7H37M.s:3      *ABS*:0000003e __SP_H__
C:\DOCUME~1\embedded\LOCALS~1\Temp/ccy7H37M.s:4      *ABS*:0000003d __SP_L__
C:\DOCUME~1\embedded\LOCALS~1\Temp/ccy7H37M.s:5      *ABS*:00000034 __CCP__
C:\DOCUME~1\embedded\LOCALS~1\Temp/ccy7H37M.s:6      *ABS*:00000000 __tmp_reg__
C:\DOCUME~1\embedded\LOCALS~1\Temp/ccy7H37M.s:7      *ABS*:00000001 __zero_reg__
C:\DOCUME~1\embedded\LOCALS~1\Temp/ccy7H37M.s:18     .text:00000000 main

NO UNDEFINED SYMBOLS
