00000000 W __heap_end
00000000 a __tmp_reg__
00000000 a __tmp_reg__
00000000 a __tmp_reg__
00000000 a __tmp_reg__
00000000 W __vector_default
00000000 T __vectors
00000001 a __zero_reg__
00000001 a __zero_reg__
00000001 a __zero_reg__
00000001 a __zero_reg__
00000034 a __CCP__
00000034 a __CCP__
00000034 a __CCP__
00000034 a __CCP__
0000003d a __SP_L__
0000003d a __SP_L__
0000003d a __SP_L__
0000003d a __SP_L__
0000003e a __SP_H__
0000003e a __SP_H__
0000003e a __SP_H__
0000003e a __SP_H__
0000003f a __SREG__
0000003f a __SREG__
0000003f a __SREG__
0000003f a __SREG__
0000008c T __ctors_end
0000008c T __ctors_start
0000008c T __dtors_end
0000008c T __dtors_start
0000008c W __init
0000008c T __trampolines_end
0000008c T __trampolines_start
00000098 T __do_copy_data
000000ba T __bad_interrupt
000000ba W __vector_1
000000ba W __vector_10
000000ba W __vector_11
000000ba W __vector_12
000000ba W __vector_13
000000ba W __vector_14
000000ba W __vector_15
000000ba W __vector_16
000000ba W __vector_17
000000ba W __vector_18
000000ba W __vector_19
000000ba W __vector_2
000000ba W __vector_20
000000ba W __vector_21
000000ba W __vector_22
000000ba W __vector_23
000000ba W __vector_24
000000ba W __vector_25
000000ba W __vector_26
000000ba W __vector_27
000000ba W __vector_28
000000ba W __vector_29
000000ba W __vector_3
000000ba W __vector_30
000000ba W __vector_31
000000ba W __vector_32
000000ba W __vector_33
000000ba W __vector_34
000000ba W __vector_4
000000ba W __vector_5
000000ba W __vector_6
000000ba W __vector_7
000000ba W __vector_8
000000ba W __vector_9
000000be T lcd_cmd
000000f4 T lcd_init
00000162 T lcd_data
00000198 T lcd_str
000001b2 T main
0000027a T sprintf
000002dc T vfprintf
000006e8 T strnlen_P
000006fe T strnlen
00000714 T fputc
0000076c T __ultoa_invert
00000828 T _exit
00000828 W exit
0000082a t __stop_program
0000082c A __data_load_start
0000082c T _etext
00000830 A __data_load_end
000010ff W __stack
00800100 D __data_start
00800104 D __data_end
00800104 D _edata
00800104 N _end
00810000 N __eeprom_end
