   1               		.file	"PORTBLINK.c"
   2               	__SREG__ = 0x3f
   3               	__SP_H__ = 0x3e
   4               	__SP_L__ = 0x3d
   5               	__CCP__  = 0x34
   6               	__tmp_reg__ = 0
   7               	__zero_reg__ = 1
  15               	.Ltext0:
  16               	.global	main
  18               	main:
  19               	.LFB6:
  20               	.LM1:
  21               	/* prologue: function */
  22               	/* frame size = 0 */
  23               	.LM2:
  24 0000 8FEF      		ldi r24,lo8(-1)
  25 0002 8ABB      		out 58-32,r24
  26 0004 20E0      		ldi r18,lo8(0)
  27 0006 30E0      		ldi r19,hi8(0)
  28               	.LVL0:
  29               	.LBB12:
  30               	.LBB13:
  31               	.LBB14:
  32               	.LBB15:
  33               	.LM3:
  34 0008 40E7      		ldi r20,lo8(368)
  35 000a 51E0      		ldi r21,hi8(368)
  36               	.LVL1:
  37               	.L3:
  38               	.LBE15:
  39               	.LBE14:
  40               	.LBE13:
  41               	.LBE12:
  42               	.LM4:
  43 000c 2BBB      		out 59-32,r18
  44 000e 80E1      		ldi r24,lo8(10000)
  45 0010 97E2      		ldi r25,hi8(10000)
  46               	.L2:
  47               	.LBB19:
  48               	.LBB18:
  49               	.LBB17:
  50               	.LBB16:
  51               	.LM5:
  52 0012 FA01      		movw r30,r20
  53               	/* #APP */
  54               	 ;  105 "c:/winavr-20100110/lib/gcc/../../avr/include/util/delay_basic.h" 1
  55 0014 3197      		1: sbiw r30,1
  56 0016 01F4      		brne 1b
  57               	 ;  0 "" 2
  58               	/* #NOAPP */
  59               	.LBE16:
  60               	.LBE17:
  61               	.LM6:
  62 0018 0197      		sbiw r24,1
  63               	.LM7:
  64 001a 01F4      		brne .L2
  65               	.LBE18:
  66               	.LBE19:
  67               	.LM8:
  68 001c 2095      		com r18
  69 001e 3095      		com r19
  70 0020 00C0      		rjmp .L3
  71               	.LFE6:
  97               	.Letext0:
DEFINED SYMBOLS
                            *ABS*:00000000 PORTBLINK.c
C:\DOCUME~1\embedded\LOCALS~1\Temp/ccOPYaH6.s:2      *ABS*:0000003f __SREG__
C:\DOCUME~1\embedded\LOCALS~1\Temp/ccOPYaH6.s:3      *ABS*:0000003e __SP_H__
C:\DOCUME~1\embedded\LOCALS~1\Temp/ccOPYaH6.s:4      *ABS*:0000003d __SP_L__
C:\DOCUME~1\embedded\LOCALS~1\Temp/ccOPYaH6.s:5      *ABS*:00000034 __CCP__
C:\DOCUME~1\embedded\LOCALS~1\Temp/ccOPYaH6.s:6      *ABS*:00000000 __tmp_reg__
C:\DOCUME~1\embedded\LOCALS~1\Temp/ccOPYaH6.s:7      *ABS*:00000001 __zero_reg__
C:\DOCUME~1\embedded\LOCALS~1\Temp/ccOPYaH6.s:18     .text:00000000 main

NO UNDEFINED SYMBOLS
