   1               		.file	"rotation.c"
   2               	__SREG__ = 0x3f
   3               	__SP_H__ = 0x3e
   4               	__SP_L__ = 0x3d
   5               	__CCP__  = 0x34
   6               	__tmp_reg__ = 0
   7               	__zero_reg__ = 1
  15               	.Ltext0:
  16               	.global	main
  18               	main:
  19               	.LFB6:
  20               	.LM1:
  21               	/* prologue: function */
  22               	/* frame size = 0 */
  23               	.LM2:
  24 0000 8FEF      		ldi r24,lo8(-1)
  25 0002 81BB      		out 49-32,r24
  26 0004 81E0      		ldi r24,lo8(1)
  27 0006 90E0      		ldi r25,hi8(1)
  28               	.LVL0:
  29               	.LM3:
  30 0008 20E8      		ldi r18,lo8(-128)
  31               	.L6:
  32               	.LM4:
  33 000a 82BB      		out 50-32,r24
  34               	.LM5:
  35 000c 880F      		lsl r24
  36 000e 991F      		rol r25
  37               	.LM6:
  38 0010 8038      		cpi r24,128
  39 0012 9105      		cpc r25,__zero_reg__
  40 0014 01F4      		brne .L6
  41               	.LM7:
  42 0016 22BB      		out 50-32,r18
  43 0018 81E0      		ldi r24,lo8(1)
  44 001a 90E0      		ldi r25,hi8(1)
  45 001c 00C0      		rjmp .L6
  46               	.LFE6:
  72               	.Letext0:
DEFINED SYMBOLS
                            *ABS*:00000000 rotation.c
C:\DOCUME~1\embedded\LOCALS~1\Temp/ccC3a1sy.s:2      *ABS*:0000003f __SREG__
C:\DOCUME~1\embedded\LOCALS~1\Temp/ccC3a1sy.s:3      *ABS*:0000003e __SP_H__
C:\DOCUME~1\embedded\LOCALS~1\Temp/ccC3a1sy.s:4      *ABS*:0000003d __SP_L__
C:\DOCUME~1\embedded\LOCALS~1\Temp/ccC3a1sy.s:5      *ABS*:00000034 __CCP__
C:\DOCUME~1\embedded\LOCALS~1\Temp/ccC3a1sy.s:6      *ABS*:00000000 __tmp_reg__
C:\DOCUME~1\embedded\LOCALS~1\Temp/ccC3a1sy.s:7      *ABS*:00000001 __zero_reg__
C:\DOCUME~1\embedded\LOCALS~1\Temp/ccC3a1sy.s:18     .text:00000000 main

NO UNDEFINED SYMBOLS
