   1               		.file	"spi1m.c"
   2               	__SREG__ = 0x3f
   3               	__SP_H__ = 0x3e
   4               	__SP_L__ = 0x3d
   5               	__CCP__  = 0x34
   6               	__tmp_reg__ = 0
   7               	__zero_reg__ = 1
  15               	.Ltext0:
  16               	.global	spi_init
  18               	spi_init:
  19               	.LFB6:
  20               	.LM1:
  21               	/* prologue: function */
  22               	/* frame size = 0 */
  23               	.LM2:
  24 0000 87E0      		ldi r24,lo8(7)
  25 0002 87BB      		out 55-32,r24
  26               	.LM3:
  27 0004 81E5      		ldi r24,lo8(81)
  28 0006 8DB9      		out 45-32,r24
  29               	.LM4:
  30 0008 C09A      		sbi 56-32,0
  31               	/* epilogue start */
  32               	.LM5:
  33 000a 0895      		ret
  34               	.LFE6:
  36               	.global	spi_tx
  38               	spi_tx:
  39               	.LFB7:
  40               	.LM6:
  41               	.LVL0:
  42               	/* prologue: function */
  43               	/* frame size = 0 */
  44               	.LM7:
  45 000c C098      		cbi 56-32,0
  46               	.LM8:
  47 000e 8FB9      		out 47-32,r24
  48               	.L4:
  49               	.LM9:
  50 0010 779B      		sbis 46-32,7
  51 0012 00C0      		rjmp .L4
  52               	.LM10:
  53 0014 C09A      		sbi 56-32,0
  54               	/* epilogue start */
  55               	.LM11:
  56 0016 0895      		ret
  57               	.LFE7:
  59               	.global	main
  61               	main:
  62               	.LFB8:
  63               	.LM12:
  64 0018 0F93      		push r16
  65 001a 1F93      		push r17
  66 001c CF93      		push r28
  67 001e DF93      		push r29
  68               	/* prologue: function */
  69               	/* frame size = 0 */
  70               	.LBB20:
  71               	.LBB21:
  72               	.LM13:
  73 0020 87E0      		ldi r24,lo8(7)
  74 0022 87BB      		out 55-32,r24
  75               	.LM14:
  76 0024 81E5      		ldi r24,lo8(81)
  77 0026 8DB9      		out 45-32,r24
  78               	.LM15:
  79 0028 C09A      		sbi 56-32,0
  80               	.LBE21:
  81               	.LBE20:
  82               	.LBB22:
  83               	.LBB23:
  84               	.LBB24:
  85               	.LBB25:
  86               	.LM16:
  87 002a C0E3      		ldi r28,lo8(30000)
  88 002c D5E7      		ldi r29,hi8(30000)
  89               	.LBE25:
  90               	.LBE24:
  91               	.LBE23:
  92               	.LBE22:
  93               	.LM17:
  94 002e 01E0      		ldi r16,lo8(1)
  95 0030 10E0      		ldi r17,hi8(1)
  96               	.LVL1:
  97               	.L12:
  98               	.LM18:
  99 0032 8091 0000 		lds r24,a
 100 0036 9091 0000 		lds r25,(a)+1
 101               	.LVL2:
 102 003a 0E94 0000 		call spi_tx
 103               	.LVL3:
 104               	.LM19:
 105 003e 8091 0000 		lds r24,a
 106 0042 9091 0000 		lds r25,(a)+1
 107 0046 880F      		lsl r24
 108 0048 991F      		rol r25
 109 004a 9093 0000 		sts (a)+1,r25
 110 004e 8093 0000 		sts a,r24
 111               	.LBB29:
 112               	.LBB28:
 113               	.LBB27:
 114               	.LBB26:
 115               	.LM20:
 116 0052 FE01      		movw r30,r28
 117               	.LVL4:
 118               	/* #APP */
 119               	 ;  105 "c:/winavr-20100110/lib/gcc/../../avr/include/util/delay_basic.h" 1
 120 0054 3197      		1: sbiw r30,1
 121 0056 01F4      		brne 1b
 122               	 ;  0 "" 2
 123               	/* #NOAPP */
 124               	.LBE26:
 125               	.LBE27:
 126               	.LBE28:
 127               	.LBE29:
 128               	.LM21:
 129 0058 8038      		cpi r24,128
 130 005a 9105      		cpc r25,__zero_reg__
 131 005c 01F4      		brne .L12
 132               	.LBB30:
 133               	.LBB31:
 134               	.LBB32:
 135               	.LBB33:
 136               	.LM22:
 137 005e CE01      		movw r24,r28
 138               	.LVL5:
 139               	/* #APP */
 140               	 ;  105 "c:/winavr-20100110/lib/gcc/../../avr/include/util/delay_basic.h" 1
 141 0060 0197      		1: sbiw r24,1
 142 0062 01F4      		brne 1b
 143               	 ;  0 "" 2
 144               	/* #NOAPP */
 145               	.LBE33:
 146               	.LBE32:
 147               	.LBE31:
 148               	.LBE30:
 149               	.LM23:
 150 0064 1093 0000 		sts (a)+1,r17
 151 0068 0093 0000 		sts a,r16
 152 006c 00C0      		rjmp .L12
 153               	.LFE8:
 155               	.global	a
 156               		.data
 159               	a:
 160 0000 0100      		.word	1
 201               	.Letext0:
DEFINED SYMBOLS
                            *ABS*:00000000 spi1m.c
C:\DOCUME~1\embedded\LOCALS~1\Temp/ccfUCzxk.s:2      *ABS*:0000003f __SREG__
C:\DOCUME~1\embedded\LOCALS~1\Temp/ccfUCzxk.s:3      *ABS*:0000003e __SP_H__
C:\DOCUME~1\embedded\LOCALS~1\Temp/ccfUCzxk.s:4      *ABS*:0000003d __SP_L__
C:\DOCUME~1\embedded\LOCALS~1\Temp/ccfUCzxk.s:5      *ABS*:00000034 __CCP__
C:\DOCUME~1\embedded\LOCALS~1\Temp/ccfUCzxk.s:6      *ABS*:00000000 __tmp_reg__
C:\DOCUME~1\embedded\LOCALS~1\Temp/ccfUCzxk.s:7      *ABS*:00000001 __zero_reg__
C:\DOCUME~1\embedded\LOCALS~1\Temp/ccfUCzxk.s:18     .text:00000000 spi_init
C:\DOCUME~1\embedded\LOCALS~1\Temp/ccfUCzxk.s:38     .text:0000000c spi_tx
C:\DOCUME~1\embedded\LOCALS~1\Temp/ccfUCzxk.s:61     .text:00000018 main
C:\DOCUME~1\embedded\LOCALS~1\Temp/ccfUCzxk.s:159    .data:00000000 a

UNDEFINED SYMBOLS
__do_copy_data
