   1               		.file	"spis.c"
   2               	__SREG__ = 0x3f
   3               	__SP_H__ = 0x3e
   4               	__SP_L__ = 0x3d
   5               	__CCP__  = 0x34
   6               	__tmp_reg__ = 0
   7               	__zero_reg__ = 1
  15               	.Ltext0:
  16               	.global	spi_init
  18               	spi_init:
  19               	.LFB6:
  20               	.LM1:
  21               	/* prologue: function */
  22               	/* frame size = 0 */
  23               	.LM2:
  24 0000 88E0      		ldi r24,lo8(8)
  25 0002 87BB      		out 55-32,r24
  26               	.LM3:
  27 0004 81E4      		ldi r24,lo8(65)
  28 0006 8DB9      		out 45-32,r24
  29               	/* epilogue start */
  30               	.LM4:
  31 0008 0895      		ret
  32               	.LFE6:
  34               	.global	spi_rx
  36               	spi_rx:
  37               	.LFB7:
  38               	.LM5:
  39               	/* prologue: function */
  40               	/* frame size = 0 */
  41               	.L4:
  42               	.LM6:
  43 000a 779B      		sbis 46-32,7
  44 000c 00C0      		rjmp .L4
  45               	.LM7:
  46 000e 8FB1      		in r24,47-32
  47               	/* epilogue start */
  48               	.LM8:
  49 0010 0895      		ret
  50               	.LFE7:
  52               	.global	main
  54               	main:
  55               	.LFB8:
  56               	.LM9:
  57               	/* prologue: function */
  58               	/* frame size = 0 */
  59               	.LM10:
  60 0012 8FEF      		ldi r24,lo8(-1)
  61 0014 82B9      		out 34-32,r24
  62               	.LBB6:
  63               	.LBB7:
  64               	.LM11:
  65 0016 88E0      		ldi r24,lo8(8)
  66 0018 87BB      		out 55-32,r24
  67               	.LM12:
  68 001a 81E4      		ldi r24,lo8(65)
  69 001c 8DB9      		out 45-32,r24
  70               	.L12:
  71               	.LBE7:
  72               	.LBE6:
  73               	.LBB8:
  74               	.LBB9:
  75               	.LM13:
  76 001e 779B      		sbis 46-32,7
  77 0020 00C0      		rjmp .L12
  78               	.LM14:
  79 0022 8FB1      		in r24,47-32
  80               	.LBE9:
  81               	.LBE8:
  82               	.LM15:
  83 0024 83B9      		out 35-32,r24
  84 0026 00C0      		rjmp .L12
  85               	.LFE8:
 127               	.Letext0:
DEFINED SYMBOLS
                            *ABS*:00000000 spis.c
C:\DOCUME~1\embedded\LOCALS~1\Temp/ccXRaOp0.s:2      *ABS*:0000003f __SREG__
C:\DOCUME~1\embedded\LOCALS~1\Temp/ccXRaOp0.s:3      *ABS*:0000003e __SP_H__
C:\DOCUME~1\embedded\LOCALS~1\Temp/ccXRaOp0.s:4      *ABS*:0000003d __SP_L__
C:\DOCUME~1\embedded\LOCALS~1\Temp/ccXRaOp0.s:5      *ABS*:00000034 __CCP__
C:\DOCUME~1\embedded\LOCALS~1\Temp/ccXRaOp0.s:6      *ABS*:00000000 __tmp_reg__
C:\DOCUME~1\embedded\LOCALS~1\Temp/ccXRaOp0.s:7      *ABS*:00000001 __zero_reg__
C:\DOCUME~1\embedded\LOCALS~1\Temp/ccXRaOp0.s:18     .text:00000000 spi_init
C:\DOCUME~1\embedded\LOCALS~1\Temp/ccXRaOp0.s:36     .text:0000000a spi_rx
C:\DOCUME~1\embedded\LOCALS~1\Temp/ccXRaOp0.s:54     .text:00000012 main

NO UNDEFINED SYMBOLS
