   1               		.file	"SWITCHPUSH.c"
   2               	__SREG__ = 0x3f
   3               	__SP_H__ = 0x3e
   4               	__SP_L__ = 0x3d
   5               	__CCP__  = 0x34
   6               	__tmp_reg__ = 0
   7               	__zero_reg__ = 1
  15               	.Ltext0:
  16               	.global	main
  18               	main:
  19               	.LFB6:
  20               	.LM1:
  21               	/* prologue: function */
  22               	/* frame size = 0 */
  23               	.LM2:
  24 0000 8FEF      		ldi r24,lo8(-1)
  25 0002 8ABB      		out 58-32,r24
  26               	.LM3:
  27 0004 8EEF      		ldi r24,lo8(-2)
  28 0006 87BB      		out 55-32,r24
  29 0008 2FEF      		ldi r18,lo8(255)
  30 000a 30E0      		ldi r19,hi8(255)
  31               	.LVL0:
  32               	.L9:
  33               	.LM4:
  34 000c 86B3      		in r24,54-32
  35 000e 8130      		cpi r24,lo8(1)
  36 0010 01F4      		brne .L9
  37               	.L6:
  38               	.LM5:
  39 0012 86B3      		in r24,54-32
  40 0014 8823      		tst r24
  41 0016 01F4      		brne .L6
  42               	.LM6:
  43 0018 2BBB      		out 59-32,r18
  44               	.LM7:
  45 001a 2095      		com r18
  46 001c 3095      		com r19
  47 001e 00C0      		rjmp .L9
  48               	.LFE6:
  74               	.Letext0:
DEFINED SYMBOLS
                            *ABS*:00000000 SWITCHPUSH.c
C:\DOCUME~1\embedded\LOCALS~1\Temp/ccxtqCVB.s:2      *ABS*:0000003f __SREG__
C:\DOCUME~1\embedded\LOCALS~1\Temp/ccxtqCVB.s:3      *ABS*:0000003e __SP_H__
C:\DOCUME~1\embedded\LOCALS~1\Temp/ccxtqCVB.s:4      *ABS*:0000003d __SP_L__
C:\DOCUME~1\embedded\LOCALS~1\Temp/ccxtqCVB.s:5      *ABS*:00000034 __CCP__
C:\DOCUME~1\embedded\LOCALS~1\Temp/ccxtqCVB.s:6      *ABS*:00000000 __tmp_reg__
C:\DOCUME~1\embedded\LOCALS~1\Temp/ccxtqCVB.s:7      *ABS*:00000001 __zero_reg__
C:\DOCUME~1\embedded\LOCALS~1\Temp/ccxtqCVB.s:18     .text:00000000 main

NO UNDEFINED SYMBOLS
