   1               		.file	"usartpass.c"
   2               	__SREG__ = 0x3f
   3               	__SP_H__ = 0x3e
   4               	__SP_L__ = 0x3d
   5               	__CCP__  = 0x34
   6               	__tmp_reg__ = 0
   7               	__zero_reg__ = 1
  15               	.Ltext0:
  16               		.data
  17               	.LC0:
  18 0000 2061 6363 		.string	" access granted"
  18      6573 7320 
  18      6772 616E 
  18      7465 6400 
  19 0010 0000 0000 		.skip 4,0
  20               	.LC1:
  21 0014 6163 6365 		.string	"access denied "
  21      7373 2064 
  21      656E 6965 
  21      6420 00
  22 0023 0000 0000 		.skip 5,0
  22      00
  23               	.LC2:
  24 0028 656E 7465 		.string	"enter the password"
  24      7220 7468 
  24      6520 7061 
  24      7373 776F 
  24      7264 00
  25 003b 00        		.skip 1,0
  26               		.text
  27               	.global	main
  29               	main:
  30               	.LFB6:
  31               	.LM1:
  32 0000 7F92      		push r7
  33 0002 8F92      		push r8
  34 0004 9F92      		push r9
  35 0006 AF92      		push r10
  36 0008 BF92      		push r11
  37 000a CF92      		push r12
  38 000c DF92      		push r13
  39 000e EF92      		push r14
  40 0010 FF92      		push r15
  41 0012 0F93      		push r16
  42 0014 1F93      		push r17
  43 0016 DF93      		push r29
  44 0018 CF93      		push r28
  45 001a CDB7      		in r28,__SP_L__
  46 001c DEB7      		in r29,__SP_H__
  47 001e C055      		subi r28,lo8(-(-80))
  48 0020 D040      		sbci r29,hi8(-(-80))
  49 0022 0FB6      		in __tmp_reg__,__SREG__
  50 0024 F894      		cli
  51 0026 DEBF      		out __SP_H__,r29
  52 0028 0FBE      		out __SREG__,__tmp_reg__
  53 002a CDBF      		out __SP_L__,r28
  54               	/* prologue: function */
  55               	/* frame size = 80 */
  56               	.LM2:
  57 002c 81E3      		ldi r24,lo8(3355185)
  58 002e 92E3      		ldi r25,hi8(3355185)
  59 0030 A3E3      		ldi r26,hlo8(3355185)
  60 0032 B0E0      		ldi r27,hhi8(3355185)
  61 0034 8983      		std Y+1,r24
  62 0036 9A83      		std Y+2,r25
  63 0038 AB83      		std Y+3,r26
  64 003a BC83      		std Y+4,r27
  65 003c FE01      		movw r30,r28
  66 003e 3596      		adiw r30,5
  67 0040 86E0      		ldi r24,lo8(6)
  68 0042 DF01      		movw r26,r30
  69 0044 1D92      		st X+,__zero_reg__
  70 0046 8A95      	        dec r24
  71 0048 01F4      		brne .-6
  72 004a DE01      		movw r26,r28
  73 004c 5596      		adiw r26,21
  74 004e E0E0      		ldi r30,lo8(.LC0)
  75 0050 F0E0      		ldi r31,hi8(.LC0)
  76 0052 80E1      		ldi r24,lo8(16)
  77               	.L2:
  78 0054 0190      		ld r0,Z+
  79 0056 0D92      		st X+,r0
  80 0058 8150      		subi r24,lo8(-(-1))
  81 005a 01F4      		brne .L2
  82 005c 1DA2      		std Y+37,__zero_reg__
  83 005e 1EA2      		std Y+38,__zero_reg__
  84 0060 1FA2      		std Y+39,__zero_reg__
  85 0062 18A6      		std Y+40,__zero_reg__
  86 0064 DE01      		movw r26,r28
  87 0066 9996      		adiw r26,41
  88 0068 E0E0      		ldi r30,lo8(.LC1)
  89 006a F0E0      		ldi r31,hi8(.LC1)
  90 006c 8FE0      		ldi r24,lo8(15)
  91               	.L3:
  92 006e 0190      		ld r0,Z+
  93 0070 0D92      		st X+,r0
  94 0072 8150      		subi r24,lo8(-(-1))
  95 0074 01F4      		brne .L3
  96 0076 FE01      		movw r30,r28
  97 0078 F896      		adiw r30,56
  98 007a 85E0      		ldi r24,lo8(5)
  99 007c DF01      		movw r26,r30
 100 007e 1D92      		st X+,__zero_reg__
 101 0080 8A95      	        dec r24
 102 0082 01F4      		brne .-6
 103               	.LM3:
 104 0084 DE01      		movw r26,r28
 105 0086 DD96      		adiw r26,61
 106 0088 E0E0      		ldi r30,lo8(.LC2)
 107 008a F0E0      		ldi r31,hi8(.LC2)
 108 008c 83E1      		ldi r24,lo8(19)
 109               	.L4:
 110 008e 0190      		ld r0,Z+
 111 0090 0D92      		st X+,r0
 112 0092 8150      		subi r24,lo8(-(-1))
 113 0094 01F4      		brne .L4
 114 0096 FE01      		movw r30,r28
 115 0098 E05B      		subi r30,lo8(-(80))
 116 009a FF4F      		sbci r31,hi8(-(80))
 117 009c 1082      		st Z,__zero_reg__
 118               	.LM4:
 119 009e 8FEF      		ldi r24,lo8(-1)
 120 00a0 81BB      		out 49-32,r24
 121               	.LM5:
 122 00a2 8FE5      		ldi r24,lo8(95)
 123 00a4 89B9      		out 41-32,r24
 124               	.LM6:
 125 00a6 88E1      		ldi r24,lo8(24)
 126 00a8 8AB9      		out 42-32,r24
 127 00aa 20E0      		ldi r18,lo8(0)
 128 00ac 30E0      		ldi r19,hi8(0)
 129               	.LVL0:
 130               	.LM7:
 131 00ae 5DE3      		ldi r21,lo8(61)
 132 00b0 852E      		mov r8,r21
 133 00b2 912C      		mov r9,__zero_reg__
 134 00b4 8C0E      		add r8,r28
 135 00b6 9D1E      		adc r9,r29
 136               	.LM8:
 137 00b8 8E01      		movw r16,r28
 138 00ba 055F      		subi r16,lo8(-(11))
 139 00bc 1F4F      		sbci r17,hi8(-(11))
 140               	.LM9:
 141 00be 4AE2      		ldi r20,lo8(42)
 142 00c0 742E      		mov r7,r20
 143               	.LM10:
 144 00c2 5E01      		movw r10,r28
 145 00c4 0894      		sec
 146 00c6 A11C      		adc r10,__zero_reg__
 147 00c8 B11C      		adc r11,__zero_reg__
 148               	.LM11:
 149 00ca 99E2      		ldi r25,lo8(41)
 150 00cc C92E      		mov r12,r25
 151 00ce D12C      		mov r13,__zero_reg__
 152 00d0 CC0E      		add r12,r28
 153 00d2 DD1E      		adc r13,r29
 154               	.LM12:
 155 00d4 88E3      		ldi r24,lo8(56)
 156 00d6 E82E      		mov r14,r24
 157 00d8 F12C      		mov r15,__zero_reg__
 158 00da EC0E      		add r14,r28
 159 00dc FD1E      		adc r15,r29
 160 00de 00C0      		rjmp .L34
 161               	.L7:
 162               	.LM13:
 163 00e0 F401      		movw r30,r8
 164 00e2 E20F      		add r30,r18
 165 00e4 F31F      		adc r31,r19
 166 00e6 8081      		ld r24,Z
 167 00e8 8CB9      		out 44-32,r24
 168               	.L6:
 169               	.LM14:
 170 00ea 5E9B      		sbis 43-32,6
 171 00ec 00C0      		rjmp .L6
 172               	.LM15:
 173 00ee 5E9A      		sbi 43-32,6
 174               	.LM16:
 175 00f0 2F5F      		subi r18,lo8(-(1))
 176 00f2 3F4F      		sbci r19,hi8(-(1))
 177               	.L34:
 178 00f4 2431      		cpi r18,20
 179 00f6 3105      		cpc r19,__zero_reg__
 180 00f8 04F0      		brlt .L7
 181 00fa A0E0      		ldi r26,lo8(0)
 182 00fc B0E0      		ldi r27,hi8(0)
 183               	.LVL1:
 184               	.L33:
 185               	.LM17:
 186 00fe 5F9B      		sbis 43-32,7
 187 0100 00C0      		rjmp .L33
 188               	.LM18:
 189 0102 5F9A      		sbi 43-32,7
 190               	.LM19:
 191 0104 8CB1      		in r24,44-32
 192               	.LM20:
 193 0106 8D30      		cpi r24,lo8(13)
 194 0108 01F0      		breq .L9
 195               	.LM21:
 196 010a F801      		movw r30,r16
 197 010c EA0F      		add r30,r26
 198 010e FB1F      		adc r31,r27
 199 0110 8083      		st Z,r24
 200               	.LM22:
 201 0112 7CB8      		out 44-32,r7
 202               	.L10:
 203               	.LM23:
 204 0114 5E9B      		sbis 43-32,6
 205 0116 00C0      		rjmp .L10
 206               	.LM24:
 207 0118 5E9A      		sbi 43-32,6
 208               	.LM25:
 209 011a 1196      		adiw r26,1
 210 011c A930      		cpi r26,9
 211 011e B105      		cpc r27,__zero_reg__
 212 0120 01F4      		brne .L33
 213               	.L9:
 214               	.LM26:
 215 0122 A00F      		add r26,r16
 216 0124 B11F      		adc r27,r17
 217 0126 1C92      		st X,__zero_reg__
 218 0128 F801      		movw r30,r16
 219 012a 00C0      		rjmp .L11
 220               	.LVL2:
 221               	.L13:
 222               	.LM27:
 223 012c 8CB9      		out 44-32,r24
 224               	.L12:
 225               	.LM28:
 226 012e 5E9B      		sbis 43-32,6
 227 0130 00C0      		rjmp .L12
 228               	.LM29:
 229 0132 5E9A      		sbi 43-32,6
 230 0134 3196      		adiw r30,1
 231               	.LVL3:
 232               	.L11:
 233               	.LM30:
 234 0136 8081      		ld r24,Z
 235               	.LVL4:
 236 0138 8823      		tst r24
 237 013a 01F4      		brne .L13
 238               	.LM31:
 239 013c C501      		movw r24,r10
 240 013e B801      		movw r22,r16
 241 0140 0E94 0000 		call strcmp
 242               	.LVL5:
 243               	.LM32:
 244 0144 0097      		sbiw r24,0
 245               	.LVL6:
 246 0146 01F4      		brne .L14
 247 0148 FE01      		movw r30,r28
 248 014a 7596      		adiw r30,21
 249               	.LM33:
 250 014c 9E01      		movw r18,r28
 251 014e 2B5D      		subi r18,lo8(-(37))
 252 0150 3F4F      		sbci r19,hi8(-(37))
 253               	.L16:
 254               	.LM34:
 255 0152 8081      		ld r24,Z
 256               	.LVL7:
 257 0154 8CB9      		out 44-32,r24
 258               	.L15:
 259               	.LM35:
 260 0156 5E9B      		sbis 43-32,6
 261 0158 00C0      		rjmp .L15
 262               	.LM36:
 263 015a 5E9A      		sbi 43-32,6
 264 015c 3196      		adiw r30,1
 265               	.LM37:
 266 015e E217      		cp r30,r18
 267 0160 F307      		cpc r31,r19
 268 0162 01F4      		brne .L16
 269               	.L35:
 270 0164 00C0      		rjmp .L35
 271               	.LVL8:
 272               	.L14:
 273 0166 F601      		movw r30,r12
 274               	.L19:
 275               	.LM38:
 276 0168 8081      		ld r24,Z
 277               	.LVL9:
 278 016a 8CB9      		out 44-32,r24
 279               	.L18:
 280               	.LM39:
 281 016c 5E9B      		sbis 43-32,6
 282 016e 00C0      		rjmp .L18
 283               	.LM40:
 284 0170 5E9A      		sbi 43-32,6
 285 0172 3196      		adiw r30,1
 286               	.LM41:
 287 0174 EE15      		cp r30,r14
 288 0176 FF05      		cpc r31,r15
 289 0178 01F4      		brne .L19
 290 017a 20E0      		ldi r18,lo8(0)
 291 017c 30E0      		ldi r19,hi8(0)
 292               	.LVL10:
 293 017e 00C0      		rjmp .L34
 294               	.LFE6:
 320               	.Letext0:
DEFINED SYMBOLS
                            *ABS*:00000000 usartpass.c
C:\DOCUME~1\embedded\LOCALS~1\Temp/ccWfd7NQ.s:2      *ABS*:0000003f __SREG__
C:\DOCUME~1\embedded\LOCALS~1\Temp/ccWfd7NQ.s:3      *ABS*:0000003e __SP_H__
C:\DOCUME~1\embedded\LOCALS~1\Temp/ccWfd7NQ.s:4      *ABS*:0000003d __SP_L__
C:\DOCUME~1\embedded\LOCALS~1\Temp/ccWfd7NQ.s:5      *ABS*:00000034 __CCP__
C:\DOCUME~1\embedded\LOCALS~1\Temp/ccWfd7NQ.s:6      *ABS*:00000000 __tmp_reg__
C:\DOCUME~1\embedded\LOCALS~1\Temp/ccWfd7NQ.s:7      *ABS*:00000001 __zero_reg__
C:\DOCUME~1\embedded\LOCALS~1\Temp/ccWfd7NQ.s:29     .text:00000000 main

UNDEFINED SYMBOLS
strcmp
__do_copy_data
