Message[302] E:\PIC KIT1\PIC181108\ADC\ADC.ASM 18 : Register in operand not in bank 0.  Ensure that bank bits are correct.
Message[302] E:\PIC KIT1\PIC181108\ADC\ADC.ASM 26 : Register in operand not in bank 0.  Ensure that bank bits are correct.
Message[302] E:\PIC KIT1\PIC181108\ADC\ADC.ASM 30 : Register in operand not in bank 0.  Ensure that bank bits are correct.
