:020000040000FA
:020000001028C6
:100020008316031388018701831203138701880154
:100030007530A0000330A1000301A201A301031049
:1000400022082007A200031C2628A30AA10B1F28B0
:10005000292822088800362003018800362023083A
:100060008800362003018800362029280830A400A3
:10007000FF30A500FF30A60000000000A60B3C28C2
:0A008000A50B3A28A40B382808004D
:00000001FF
