*** Error 18 "2q.c" Line 1(9,36): File can not be opened
    Not in local "E:\JIJU\pic c\sample\2q.h"
*** Error 128 "C:\Program Files (x86)\PICC\drivers\string.h" Line 34(1,2): A #DEVICE required before this line
      2 Errors,  0 Warnings.
