*** Error 18 "adc.c" Line 1(9,37): File can not be opened
    Not in local "D:\JIJU\pic c\sample\adc.h"
*** Error 128 "adc.c" Line 4(1,29): A #DEVICE required before this line
*** "adc.c" Line 7: Error #12: Undefined identifier   setup_adc_ports
*** "adc.c" Line 8: Error #12: Undefined identifier   setup_adc
*** "adc.c" Line 9: Error #12: Undefined identifier   setup_spi
*** "adc.c" Line 10: Error #12: Undefined identifier   setup_timer_0
*** "adc.c" Line 11: Error #12: Undefined identifier   setup_timer_1
*** "adc.c" Line 12: Error #12: Undefined identifier   setup_timer_2
*** "adc.c" Line 13: Error #12: Undefined identifier   set_tris_b
*** "adc.c" Line 16: Error #12: Undefined identifier   set_adc_channel
*** "adc.c" Line 17: Error #12: Undefined identifier   delay_us
*** "adc.c" Line 18: Error #12: Undefined identifier   read_adc
*** "adc.c" Line 19: Error #12: Undefined identifier   output_b
      13 Errors,  0 Warnings.
