CCS PCM C Compiler, Version 4.057, 17685               25-Nov-14 12:36

               Filename: adctousart.lst

               ROM used: 214 words (5%)
                         Largest free fragment is 2048
               RAM used: 8 (4%) at main() level
                         12 (6%) worst case
               Stack:    2 locations

*
0000:  MOVLW  00
0001:  MOVWF  0A
0002:  GOTO   06C
0003:  NOP
.................... #include "E:\JIJU\pic c\sample\adctousart.h" 
.................... #include <16F73.h> 
.................... //////// Standard Header file for the PIC16F73 device //////////////// 
.................... #device PIC16F73 
.................... #list 
....................  
.................... #device adc=8 
....................  
.................... #FUSES NOWDT                 	//No Watch Dog Timer 
.................... #FUSES XT                    	//Crystal osc <= 4mhz 
.................... #FUSES NOPUT                 	//No Power Up Timer 
.................... #FUSES NOPROTECT             	//Code not protected from reading 
.................... #FUSES NOBROWNOUT            	//No brownout reset 
....................  
.................... #use delay(clock=4000000) 
*
000A:  MOVLW  28
000B:  MOVWF  04
000C:  MOVF   00,W
000D:  BTFSC  03.2
000E:  GOTO   01D
000F:  MOVLW  01
0010:  MOVWF  21
0011:  CLRF   20
0012:  DECFSZ 20,F
0013:  GOTO   012
0014:  DECFSZ 21,F
0015:  GOTO   011
0016:  MOVLW  4A
0017:  MOVWF  20
0018:  DECFSZ 20,F
0019:  GOTO   018
001A:  GOTO   01B
001B:  DECFSZ 00,F
001C:  GOTO   00F
001D:  RETLW  00
.................... #use rs232(baud=9600,parity=N,xmit=PIN_C6,rcv=PIN_C7,bits=8) 
....................  
....................  
....................  
....................  
.................... void main() 
.................... { 
*
006C:  CLRF   04
006D:  MOVLW  1F
006E:  ANDWF  03,F
006F:  MOVLW  19
0070:  BSF    03.5
0071:  MOVWF  19
0072:  MOVLW  A6
0073:  MOVWF  18
0074:  MOVLW  90
0075:  BCF    03.5
0076:  MOVWF  18
0077:  BSF    03.5
0078:  BSF    1F.0
0079:  BSF    1F.1
007A:  BSF    1F.2
.................... unsigned int a,z=0; 
007B:  BCF    03.5
007C:  CLRF   27
....................    setup_adc_ports(ALL_ANALOG); 
007D:  BSF    03.5
007E:  BCF    1F.0
007F:  BCF    1F.1
0080:  BCF    1F.2
....................    setup_adc(ADC_CLOCK_DIV_2); 
0081:  BCF    03.5
0082:  BCF    1F.6
0083:  BCF    1F.7
0084:  BSF    1F.0
....................    setup_spi(SPI_SS_DISABLED); 
0085:  BCF    14.5
0086:  BSF    03.5
0087:  BCF    07.5
0088:  BSF    07.4
0089:  BCF    07.3
008A:  MOVLW  01
008B:  BCF    03.5
008C:  MOVWF  14
008D:  MOVLW  00
008E:  BSF    03.5
008F:  MOVWF  14
....................    setup_timer_0(RTCC_INTERNAL|RTCC_DIV_1); 
0090:  MOVF   01,W
0091:  ANDLW  C7
0092:  IORLW  08
0093:  MOVWF  01
....................    setup_timer_1(T1_DISABLED); 
0094:  BCF    03.5
0095:  CLRF   10
....................    setup_timer_2(T2_DISABLED,0,1); 
0096:  MOVLW  00
0097:  MOVWF  21
0098:  MOVWF  12
0099:  MOVLW  00
009A:  BSF    03.5
009B:  MOVWF  12
....................  set_adc_channel(2); 
009C:  MOVLW  10
009D:  BCF    03.5
009E:  MOVWF  21
009F:  MOVF   1F,W
00A0:  ANDLW  C7
00A1:  IORWF  21,W
00A2:  MOVWF  1F
....................   while(1) 
....................   { 
....................  puts("\f"); 
00A3:  CLRF   28
00A4:  MOVF   28,W
00A5:  CALL   004
00A6:  IORLW  00
00A7:  BTFSC  03.2
00A8:  GOTO   0AE
00A9:  INCF   28,F
00AA:  BTFSS  0C.4
00AB:  GOTO   0AA
00AC:  MOVWF  19
00AD:  GOTO   0A4
00AE:  MOVLW  0D
00AF:  BTFSS  0C.4
00B0:  GOTO   0AF
00B1:  MOVWF  19
00B2:  MOVLW  0A
00B3:  BTFSS  0C.4
00B4:  GOTO   0B3
00B5:  MOVWF  19
....................  delay_ms(20); 
00B6:  MOVLW  14
00B7:  MOVWF  28
00B8:  CALL   00A
....................  a=read_adc(); 
00B9:  BSF    1F.2
00BA:  BTFSC  1F.2
00BB:  GOTO   0BA
00BC:  MOVF   1E,W
00BD:  MOVWF  26
....................  if(a!=z) 
00BE:  MOVF   27,W
00BF:  SUBWF  26,W
00C0:  BTFSC  03.2
00C1:  GOTO   0D2
....................  { 
....................  printf(" %u ",a); 
00C2:  MOVLW  20
00C3:  BTFSS  0C.4
00C4:  GOTO   0C3
00C5:  MOVWF  19
00C6:  MOVF   26,W
00C7:  MOVWF  28
00C8:  MOVLW  1B
00C9:  MOVWF  29
00CA:  GOTO   033
00CB:  MOVLW  20
00CC:  BTFSS  0C.4
00CD:  GOTO   0CC
00CE:  MOVWF  19
....................  delay_ms(100); 
00CF:  MOVLW  64
00D0:  MOVWF  28
00D1:  CALL   00A
....................  
....................   } 
....................   z=a; 
00D2:  MOVF   26,W
00D3:  MOVWF  27
.................... } 
00D4:  GOTO   0A3
.................... } 
00D5:  SLEEP

Configuration Fuses:
   Word  1: 3FB9   XT NOWDT NOPUT NOPROTECT NOBROWNOUT
