004-005 @READ_PROGRAM_MEMORY8.P1
015-016 CCP_1
015     CCP_1_LOW
016     CCP_1_HIGH
01B     CCP_2_LOW
01B-01C CCP_2
01C     CCP_2_HIGH
020     @SCRATCH
021     @SCRATCH
021     _RETURN_
022     @SCRATCH
023     @SCRATCH
024     @SCRATCH
025     @INTERRUPT_AREA
026     @INTERRUPT_AREA
027     @INTERRUPT_AREA
028     @INTERRUPT_AREA
029     @INTERRUPT_AREA
02A     @INTERRUPT_AREA
02B     @INTERRUPT_AREA
02C     @INTERRUPT_AREA
02D     @INTERRUPT_AREA
02E     a
10D-10E @READ_PROGRAM_MEMORY8.P1

ROM Allocation:
0048  AD_isr
005B  MAIN
005B  @cinit

Project Directory:
    E:\JIJU\pic c\sample\

Project Files:
    adcusngint.c
    adcusngint.h
    C:\Program Files\PICC\devices\16F73.h

Units:
    adcusngint.c (main)

Compiler Settings:
    Processor:      PIC16F73
    Pointer Size:   8
    ADC Range:      0-255
    Opt Level:      9
    Short,Int,Long: UNSIGNED: 1,8,16
    Float,Double:   32,32

Output Files:
    Errors:      adcusngint.err
    Ext Symbols: adcusngint.esym
    INHX8:       adcusngint.hex
    Symbols:     adcusngint.sym
    List:        adcusngint.lst
    Debug/COFF:  adcusngint.cof
    Project:     adcusngint.PJT
    Call Tree:   adcusngint.tre
    Statistics:  adcusngint.sta
