*** Error 12 "C:\Program Files\PICC\drivers\lcd.c" Line 92(29,30): Undefined identifier   set_tris_d
*** Error 12 "C:\Program Files\PICC\drivers\lcd.c" Line 104(30,31): Undefined identifier   set_tris_d
*** Error 12 "C:\Program Files\PICC\drivers\lcd.c" Line 134(28,29): Undefined identifier   set_tris_d
      3 Errors,  0 Warnings.
