004-005 @READ_PROGRAM_MEMORY8.P1
007     lcd
015     CCP_1_LOW
015-016 CCP_1
016     CCP_1_HIGH
01B-01C CCP_2
01B     CCP_2_LOW
01C     CCP_2_HIGH
020     @SCRATCH
021     @SCRATCH
021     _RETURN_
022     @SCRATCH
023     @SCRATCH
024     @SCRATCH
025     strtok.save
026-02F MAIN.a
030-039 MAIN.d
03A     MAIN.x
03B     MAIN.i
03C     lcd_init.i
03C     strcmp.s1
03C     MAIN.@SCRATCH1
03D     strcmp.s2
03D     lcd_putc.c
03D     lcd_init.@SCRATCH1
03E     lcd_gotoxy.x
03E     @delay_ms1.P1
03E     strcmp.@SCRATCH1
03F     lcd_gotoxy.y
040     lcd_gotoxy.address
041     lcd_gotoxy.@SCRATCH1
042     lcd_send_byte.address
043     lcd_send_byte.n
044     lcd_read_byte.low
044     lcd_send_byte.@SCRATCH1
045     lcd_send_nibble.n
045     lcd_read_byte.high
046     lcd_read_byte.@SCRATCH1
10D-10E @READ_PROGRAM_MEMORY8.P1

ROM Allocation:
0047  @delay_ms1
0102  strcmp
0004  LCD_INIT_STRING
0068  lcd_read_byte
005B  lcd_send_nibble
0067  lcd_send_byte
00A1  lcd_init
00CB  lcd_gotoxy
00DD  lcd_putc
0128  MAIN
000C  @const182
001C  @const183
0022  @const184
002F  @const187
003B  @const188
0128  @cinit
0161  l

Project Directory:
    E:\JIJU\pic c\sample\

Project Files:
    kitpassword.c
    kitpassword.h
    C:\Program Files\PICC\devices\16F73.h
    C:\Program Files\PICC\drivers\string.h
    C:\Program Files\PICC\drivers\stddef.h
    C:\Program Files\PICC\drivers\ctype.h
    C:\Program Files\PICC\drivers\lcd.c

Units:
    kitpassword.c (main)

Compiler Settings:
    Processor:      PIC16F73
    Pointer Size:   8
    ADC Range:      0-255
    Opt Level:      9
    Short,Int,Long: UNSIGNED: 1,8,16
    Float,Double:   32,32

Output Files:
    Errors:      kitpassword.err
    Ext Symbols: kitpassword.esym
    INHX8:       kitpassword.hex
    Symbols:     kitpassword.sym
    List:        kitpassword.lst
    Debug/COFF:  kitpassword.cof
    Project:     kitpassword.PJT
    Call Tree:   kitpassword.tre
    Statistics:  kitpassword.sta
