CCS PCM C Compiler, Version 4.057, 17685               27-Nov-14 12:23

               Filename: kitstepper1.lst

               ROM used: 257 words (6%)
                         Largest free fragment is 2048
               RAM used: 5 (3%) at main() level
                         12 (6%) worst case
               Stack:    2 locations

*
0000:  MOVLW  00
0001:  MOVWF  0A
0002:  GOTO   08F
0003:  NOP
.................... #include "E:\JIJU\pic c\sample\kitstepper1.h" 
.................... #include <16F73.h> 
.................... //////// Standard Header file for the PIC16F73 device //////////////// 
.................... #device PIC16F73 
.................... #list 
....................  
.................... #device adc=8 
....................  
.................... #FUSES NOWDT                 	//No Watch Dog Timer 
.................... #FUSES XT                    	//Crystal osc <= 4mhz 
.................... #FUSES NOPUT                 	//No Power Up Timer 
.................... #FUSES NOPROTECT             	//Code not protected from reading 
.................... #FUSES NOBROWNOUT            	//No brownout reset 
....................  
.................... #use delay(clock=4000000) 
000C:  MOVLW  27
000D:  MOVWF  04
000E:  MOVF   00,W
000F:  BTFSC  03.2
0010:  GOTO   01F
0011:  MOVLW  01
0012:  MOVWF  21
0013:  CLRF   20
0014:  DECFSZ 20,F
0015:  GOTO   014
0016:  DECFSZ 21,F
0017:  GOTO   013
0018:  MOVLW  4A
0019:  MOVWF  20
001A:  DECFSZ 20,F
001B:  GOTO   01A
001C:  GOTO   01D
001D:  DECFSZ 00,F
001E:  GOTO   011
001F:  RETLW  00
.................... #use rs232(baud=9600,parity=N,xmit=PIN_C6,rcv=PIN_C7,bits=8) 
....................  
....................  
....................  
....................  
.................... #define LCD_TYPE 2 
.................... #include <lcd.c> 
.................... /////////////////////////////////////////////////////////////////////////// 
.................... ////                             LCDD.C                                //// 
.................... ////                 Driver for common LCD modules                     //// 
.................... ////                                                                   //// 
.................... ////  lcd_init()   Must be called before any other function.           //// 
.................... ////                                                                   //// 
.................... ////  lcd_putc(c)  Will display c on the next position of the LCD.     //// 
.................... ////                     The following have special meaning:           //// 
.................... ////                      \f  Clear display                            //// 
.................... ////                      \n  Go to start of second line               //// 
.................... ////                      \b  Move back one position                   //// 
.................... ////                                                                   //// 
.................... ////  lcd_gotoxy(x,y) Set write position on LCD (upper left is 1,1)    //// 
.................... ////                                                                   //// 
.................... ////  lcd_getc(x,y)   Returns character at position x,y on LCD         //// 
.................... ////                                                                   //// 
.................... /////////////////////////////////////////////////////////////////////////// 
.................... ////        (C) Copyright 1996,2007 Custom Computer Services           //// 
.................... //// This source code may only be used by licensed users of the CCS C  //// 
.................... //// compiler.  This source code may only be distributed to other      //// 
.................... //// licensed users of the CCS C compiler.  No other use, reproduction //// 
.................... //// or distribution is permitted without written permission.          //// 
.................... //// Derivative programs created using this software in object code    //// 
.................... //// form are not restricted in any way.                               //// 
.................... /////////////////////////////////////////////////////////////////////////// 
....................  
.................... // As defined in the following structure the pin connection is as follows: 
.................... //     D0  enable 
.................... //     D1  rs 
.................... //     D2  rw 
.................... //     D4  D4 
.................... //     D5  D5 
.................... //     D6  D6 
.................... //     D7  D7 
.................... // 
.................... //   LCD pins D0-D3 are not used and PIC D3 is not used. 
....................  
.................... // Un-comment the following define to use port B 
....................  #define use_portc_lcd TRUE 
....................  
....................  
.................... struct lcd_pin_map {                 // This structure is overlayed 
....................                      // on to an I/O port to gain 
....................            BOOLEAN rs;               // access to the LCD pins. 
....................            BOOLEAN rw; 
....................            BOOLEAN enable; // The bits are allocated from 
....................            BOOLEAN unused;           // low order up.  ENABLE will 
....................            int     data : 4;         // be pin B0. 
....................         } lcd; 
....................  
....................  
.................... #if defined use_portc_lcd 
....................    //#locate lcd = getenv("sfr:PORTB")    // This puts the entire structure over the port 
....................    #ifdef __pch__ 
....................     #locate lcd = 0xf81 
....................    #else 
....................     #locate lcd = 7 
....................    #endif 
....................    #define set_tris_lcd(x) set_tris_c(x) 
.................... #else 
....................    //#locate lcd = getenv("sfr:PORTD")    // This puts the entire structure over the port 
....................    #ifdef __pch__ 
....................     #locate lcd = 0xf83 
....................    #else 
....................     #locate lcd = 8 
....................    #endif 
....................    #define set_tris_lcd(x) set_tris_d(x) 
.................... #endif 
....................  
.................... #ifndef lcd_type 
.................... #define lcd_type 2           // 0=5x7, 1=5x10, 2=2 lines 
.................... #endif 
....................  
.................... #define lcd_line_two 0x40    // LCD RAM address for the second line 
....................  
....................  
.................... BYTE const LCD_INIT_STRING[4] = {0x20 | (lcd_type << 2), 0xc, 1, 6}; 
....................                              // These bytes need to be sent to the LCD 
....................                              // to start it up. 
....................  
....................  
....................                              // The following are used for setting 
....................                              // the I/O port direction register. 
....................  
.................... struct lcd_pin_map const LCD_WRITE = {0,0,0,0,0}; // For write mode all pins are out 
.................... struct lcd_pin_map const LCD_READ = {0,0,0,0,15}; // For read mode data pins are in 
....................  
....................  
....................  
.................... BYTE lcd_read_byte() { 
....................       BYTE low,high; 
....................       set_tris_lcd(LCD_READ); 
*
0053:  MOVLW  F0
0054:  BSF    03.5
0055:  MOVWF  07
....................       lcd.rw = 1; 
0056:  BCF    03.5
0057:  BSF    07.1
....................       delay_cycles(1); 
0058:  NOP
....................       lcd.enable = 1; 
0059:  BSF    07.2
....................       delay_cycles(1); 
005A:  NOP
....................       high = lcd.data; 
005B:  MOVF   07,W
005C:  SWAPF  07,W
005D:  ANDLW  0F
005E:  MOVWF  2B
....................       lcd.enable = 0; 
005F:  BCF    07.2
....................       delay_cycles(1); 
0060:  NOP
....................       lcd.enable = 1; 
0061:  BSF    07.2
....................       delay_us(1); 
0062:  NOP
....................       low = lcd.data; 
0063:  MOVF   07,W
0064:  SWAPF  07,W
0065:  ANDLW  0F
0066:  MOVWF  2A
....................       lcd.enable = 0; 
0067:  BCF    07.2
....................       set_tris_lcd(LCD_WRITE); 
0068:  MOVLW  00
0069:  BSF    03.5
006A:  MOVWF  07
....................       return( (high<<4) | low); 
006B:  BCF    03.5
006C:  SWAPF  2B,W
006D:  MOVWF  20
006E:  MOVLW  F0
006F:  ANDWF  20,F
0070:  MOVF   20,W
0071:  IORWF  2A,W
0072:  MOVWF  21
.................... } 
....................  
....................  
.................... void lcd_send_nibble( BYTE n ) { 
....................       lcd.data = n; 
*
0020:  SWAPF  2B,W
0021:  ANDLW  F0
0022:  MOVWF  20
0023:  MOVLW  0F
0024:  ANDWF  07,W
0025:  IORWF  20,W
0026:  MOVWF  07
....................       delay_cycles(1); 
0027:  NOP
....................       lcd.enable = 1; 
0028:  BSF    07.2
....................       delay_us(2); 
0029:  GOTO   02A
....................       lcd.enable = 0; 
002A:  BCF    07.2
.................... } 
002B:  RETLW  00
....................  
....................  
.................... void lcd_send_byte( BYTE address, BYTE n ) { 
....................  
....................       lcd.rs = 0; 
*
0052:  BCF    07.0
....................       while ( bit_test(lcd_read_byte(),7) ) ; 
*
0073:  MOVF   21,W
0074:  MOVWF  2A
0075:  BTFSC  2A.7
0076:  GOTO   053
....................       lcd.rs = address; 
0077:  BTFSS  28.0
0078:  BCF    07.0
0079:  BTFSC  28.0
007A:  BSF    07.0
....................       delay_cycles(1); 
007B:  NOP
....................       lcd.rw = 0; 
007C:  BCF    07.1
....................       delay_cycles(1); 
007D:  NOP
....................       lcd.enable = 0; 
007E:  BCF    07.2
....................       lcd_send_nibble(n >> 4); 
007F:  SWAPF  29,W
0080:  MOVWF  2A
0081:  MOVLW  0F
0082:  ANDWF  2A,F
0083:  MOVF   2A,W
0084:  MOVWF  2B
0085:  CALL   020
....................       lcd_send_nibble(n & 0xf); 
0086:  MOVF   29,W
0087:  ANDLW  0F
0088:  MOVWF  2A
0089:  MOVWF  2B
008A:  CALL   020
.................... } 
....................  
....................  
.................... void lcd_init() { 
....................     BYTE i; 
....................     set_tris_lcd(LCD_WRITE); 
*
002C:  MOVLW  00
002D:  BSF    03.5
002E:  MOVWF  07
....................     lcd.rs = 0; 
002F:  BCF    03.5
0030:  BCF    07.0
....................     lcd.rw = 0; 
0031:  BCF    07.1
....................     lcd.enable = 0; 
0032:  BCF    07.2
....................     delay_ms(15); 
0033:  MOVLW  0F
0034:  MOVWF  27
0035:  CALL   00C
....................     for(i=1;i<=3;++i) { 
0036:  MOVLW  01
0037:  MOVWF  26
0038:  MOVF   26,W
0039:  SUBLW  03
003A:  BTFSS  03.0
003B:  GOTO   044
....................        lcd_send_nibble(3); 
003C:  MOVLW  03
003D:  MOVWF  2B
003E:  CALL   020
....................        delay_ms(5); 
003F:  MOVLW  05
0040:  MOVWF  27
0041:  CALL   00C
....................     } 
0042:  INCF   26,F
0043:  GOTO   038
....................     lcd_send_nibble(2); 
0044:  MOVLW  02
0045:  MOVWF  2B
0046:  CALL   020
....................     for(i=0;i<=3;++i) 
0047:  CLRF   26
0048:  MOVF   26,W
0049:  SUBLW  03
004A:  BTFSS  03.0
004B:  GOTO   08D
....................        lcd_send_byte(0,LCD_INIT_STRING[i]); 
004C:  MOVF   26,W
004D:  CALL   004
004E:  MOVWF  27
004F:  CLRF   28
0050:  MOVF   27,W
0051:  MOVWF  29
*
008B:  INCF   26,F
008C:  GOTO   048
.................... } 
008D:  BCF    0A.3
008E:  GOTO   0A0 (RETURN)
....................  
....................  
.................... void lcd_gotoxy( BYTE x, BYTE y) { 
....................    BYTE address; 
....................  
....................    if(y!=1) 
....................      address=lcd_line_two; 
....................    else 
....................      address=0; 
....................    address+=x-1; 
....................    lcd_send_byte(0,0x80|address); 
.................... } 
....................  
.................... void lcd_putc( char c) { 
....................    switch (c) { 
....................      case '\f'   : lcd_send_byte(0,1); 
....................                    delay_ms(2); 
....................                                            break; 
....................      case '\n'   : lcd_gotoxy(1,2);        break; 
....................      case '\b'   : lcd_send_byte(0,0x10);  break; 
....................      default     : lcd_send_byte(1,c);     break; 
....................    } 
.................... } 
....................  
.................... char lcd_getc( BYTE x, BYTE y) { 
....................    char value; 
....................  
....................     lcd_gotoxy(x,y); 
....................     while ( bit_test(lcd_read_byte(),7) ); // wait until busy flag is low 
....................     lcd.rs=1; 
....................     value = lcd_read_byte(); 
....................     lcd.rs=0; 
....................     return(value); 
.................... } 
.................... void lcd_puts(char *a) 
.................... { 
.................... while(*a) 
.................... lcd_putc(*a++); 
.................... } 
....................  
.................... void main() 
.................... { 
008F:  CLRF   04
0090:  MOVLW  1F
0091:  ANDWF  03,F
0092:  MOVLW  19
0093:  BSF    03.5
0094:  MOVWF  19
0095:  MOVLW  A6
0096:  MOVWF  18
0097:  MOVLW  90
0098:  BCF    03.5
0099:  MOVWF  18
009A:  BSF    03.5
009B:  BSF    1F.0
009C:  BSF    1F.1
009D:  BSF    1F.2
....................    lcd_init(); 
009E:  BCF    03.5
009F:  GOTO   02C
....................  
.................... //int a; 
....................  
....................    setup_adc_ports(NO_ANALOGS); 
00A0:  BSF    03.5
00A1:  BSF    1F.0
00A2:  BSF    1F.1
00A3:  BSF    1F.2
....................    setup_adc(ADC_OFF); 
00A4:  BCF    03.5
00A5:  BCF    1F.0
....................    setup_spi(SPI_SS_DISABLED); 
00A6:  BCF    14.5
00A7:  BSF    03.5
00A8:  BCF    07.5
00A9:  BSF    07.4
00AA:  BCF    07.3
00AB:  MOVLW  01
00AC:  BCF    03.5
00AD:  MOVWF  14
00AE:  MOVLW  00
00AF:  BSF    03.5
00B0:  MOVWF  14
....................    setup_timer_0(RTCC_INTERNAL|RTCC_DIV_1); 
00B1:  MOVF   01,W
00B2:  ANDLW  C7
00B3:  IORLW  08
00B4:  MOVWF  01
....................    setup_timer_1(T1_DISABLED); 
00B5:  BCF    03.5
00B6:  CLRF   10
....................    setup_timer_2(T2_DISABLED,0,1); 
00B7:  MOVLW  00
00B8:  MOVWF  21
00B9:  MOVWF  12
00BA:  MOVLW  00
00BB:  BSF    03.5
00BC:  MOVWF  12
....................  
....................  set_tris_b(0x0f); 
00BD:  MOVLW  0F
00BE:  MOVWF  06
....................  while(1) 
.................... { 
.................... output_b(0x0c); 
00BF:  CLRF   06
00C0:  MOVLW  0C
00C1:  BCF    03.5
00C2:  MOVWF  06
.................... delay_ms(10); 
00C3:  MOVLW  0A
00C4:  MOVWF  27
00C5:  CALL   00C
.................... output_b(0x08); 
00C6:  BSF    03.5
00C7:  CLRF   06
00C8:  MOVLW  08
00C9:  BCF    03.5
00CA:  MOVWF  06
.................... delay_ms(10); 
00CB:  MOVLW  0A
00CC:  MOVWF  27
00CD:  CALL   00C
.................... output_b(0x09); 
00CE:  BSF    03.5
00CF:  CLRF   06
00D0:  MOVLW  09
00D1:  BCF    03.5
00D2:  MOVWF  06
.................... delay_ms(10); 
00D3:  MOVLW  0A
00D4:  MOVWF  27
00D5:  CALL   00C
.................... output_b(0x01); 
00D6:  BSF    03.5
00D7:  CLRF   06
00D8:  MOVLW  01
00D9:  BCF    03.5
00DA:  MOVWF  06
.................... delay_ms(10); 
00DB:  MOVLW  0A
00DC:  MOVWF  27
00DD:  CALL   00C
.................... output_b(0x03); 
00DE:  BSF    03.5
00DF:  CLRF   06
00E0:  MOVLW  03
00E1:  BCF    03.5
00E2:  MOVWF  06
.................... delay_ms(10); 
00E3:  MOVLW  0A
00E4:  MOVWF  27
00E5:  CALL   00C
.................... output_b(0x02); 
00E6:  BSF    03.5
00E7:  CLRF   06
00E8:  MOVLW  02
00E9:  BCF    03.5
00EA:  MOVWF  06
.................... delay_ms(10); 
00EB:  MOVLW  0A
00EC:  MOVWF  27
00ED:  CALL   00C
.................... output_b(0x06); 
00EE:  BSF    03.5
00EF:  CLRF   06
00F0:  MOVLW  06
00F1:  BCF    03.5
00F2:  MOVWF  06
.................... delay_ms(10); 
00F3:  MOVLW  0A
00F4:  MOVWF  27
00F5:  CALL   00C
.................... output_b(0x04); 
00F6:  BSF    03.5
00F7:  CLRF   06
00F8:  MOVLW  04
00F9:  BCF    03.5
00FA:  MOVWF  06
.................... delay_ms(10); 
00FB:  MOVLW  0A
00FC:  MOVWF  27
00FD:  CALL   00C
.................... } 
00FE:  BSF    03.5
00FF:  GOTO   0BF
.................... } 
....................  
....................  
....................  
....................  
....................  
0100:  SLEEP

Configuration Fuses:
   Word  1: 3FB9   XT NOWDT NOPUT NOPROTECT NOBROWNOUT
