CCS PCM C Compiler, Version 4.057, 17685               14-Nov-14 11:34

               Filename: passwordinlcd.lst

               ROM used: 771 words (19%)
                         Largest free fragment is 2048
               RAM used: 29 (15%) at main() level
                         39 (20%) worst case
               Stack:    4 locations

*
0000:  MOVLW  00
0001:  MOVWF  0A
0002:  GOTO   126
0003:  NOP
.................... #include "E:\JIJU\pic c\sample\passwordinlcd.h" 
.................... #include <16F73.h> 
.................... //////// Standard Header file for the PIC16F73 device //////////////// 
.................... #device PIC16F73 
.................... #list 
....................  
.................... #device adc=8 
....................  
.................... #FUSES NOWDT                    //No Watch Dog Timer 
.................... #FUSES LP                       //Low power osc < 200 khz 
.................... #FUSES NOPUT                    //No Power Up Timer 
.................... #FUSES NOPROTECT                //Code not protected from reading 
.................... #FUSES NOBROWNOUT               //No brownout reset 
....................  
.................... #use delay(clock=4000000) 
0044:  MOVLW  3E
0045:  MOVWF  04
0046:  MOVF   00,W
0047:  BTFSC  03.2
0048:  GOTO   057
0049:  MOVLW  01
004A:  MOVWF  21
004B:  CLRF   20
004C:  DECFSZ 20,F
004D:  GOTO   04C
004E:  DECFSZ 21,F
004F:  GOTO   04B
0050:  MOVLW  4A
0051:  MOVWF  20
0052:  DECFSZ 20,F
0053:  GOTO   052
0054:  GOTO   055
0055:  DECFSZ 00,F
0056:  GOTO   049
0057:  RETLW  00
.................... #use rs232(baud=9600,parity=N,xmit=PIN_C6,rcv=PIN_C7,bits=8) 
....................  
....................  
....................  
.................... #include "lcd.c" 
.................... /////////////////////////////////////////////////////////////////////////// 
.................... ////                             LCDD.C                                //// 
.................... ////                 Driver for common LCD modules                     //// 
.................... ////                                                                   //// 
.................... ////  lcd_init()   Must be called before any other function.           //// 
.................... ////                                                                   //// 
.................... ////  lcd_putc(c)  Will display c on the next position of the LCD.     //// 
.................... ////                     The following have special meaning:           //// 
.................... ////                      \f  Clear display                            //// 
.................... ////                      \n  Go to start of second line               //// 
.................... ////                      \b  Move back one position                   //// 
.................... ////                                                                   //// 
.................... ////  lcd_gotoxy(x,y) Set write position on LCD (upper left is 1,1)    //// 
.................... ////                                                                   //// 
.................... ////  lcd_getc(x,y)   Returns character at position x,y on LCD         //// 
.................... ////                                                                   //// 
.................... /////////////////////////////////////////////////////////////////////////// 
.................... ////        (C) Copyright 1996,2007 Custom Computer Services           //// 
.................... //// This source code may only be used by licensed users of the CCS C  //// 
.................... //// compiler.  This source code may only be distributed to other      //// 
.................... //// licensed users of the CCS C compiler.  No other use, reproduction //// 
.................... //// or distribution is permitted without written permission.          //// 
.................... //// Derivative programs created using this software in object code    //// 
.................... //// form are not restricted in any way.                               //// 
.................... /////////////////////////////////////////////////////////////////////////// 
....................  
.................... // As defined in the following structure the pin connection is as follows: 
.................... //     D0  enable 
.................... //     D1  rs 
.................... //     D2  rw 
.................... //     D4  D4 
.................... //     D5  D5 
.................... //     D6  D6 
.................... //     D7  D7 
.................... // 
.................... //   LCD pins D0-D3 are not used and PIC D3 is not used. 
....................  
.................... // Un-comment the following define to use port B 
....................  #define use_portc_lcd TRUE 
....................  
....................  
.................... struct lcd_pin_map {                 // This structure is overlayed 
....................            BOOLEAN enable;           // on to an I/O port to gain 
....................            BOOLEAN rs;               // access to the LCD pins. 
....................            BOOLEAN rw;               // The bits are allocated from 
....................            BOOLEAN unused;           // low order up.  ENABLE will 
....................            int     data : 4;         // be pin B0. 
....................         } lcd; 
....................  
....................  
.................... #if defined use_portc_lcd 
....................    //#locate lcd = getenv("sfr:PORTB")    // This puts the entire structure over the port 
....................    #ifdef __pch__ 
....................     #locate lcd = 0xf81 
....................    #else 
....................     #locate lcd = 7 
....................    #endif 
....................    #define set_tris_lcd(x) set_tris_b(x) 
.................... #else 
....................    //#locate lcd = getenv("sfr:PORTD")    // This puts the entire structure over the port 
....................    #ifdef __pch__ 
....................     #locate lcd = 0xf83 
....................    #else 
....................     #locate lcd = 8 
....................    #endif 
....................    #define set_tris_lcd(x) set_tris_d(x) 
.................... #endif 
....................  
.................... #ifndef lcd_type 
.................... #define lcd_type 2           // 0=5x7, 1=5x10, 2=2 lines 
.................... #endif 
....................  
.................... #define lcd_line_two 0x40    // LCD RAM address for the second line 
....................  
....................  
.................... BYTE const LCD_INIT_STRING[4] = {0x20 | (lcd_type << 2), 0xc, 1, 6}; 
....................                              // These bytes need to be sent to the LCD 
....................                              // to start it up. 
....................  
....................  
....................                              // The following are used for setting 
....................                              // the I/O port direction register. 
....................  
.................... struct lcd_pin_map const LCD_WRITE = {0,0,0,0,0}; // For write mode all pins are out 
.................... struct lcd_pin_map const LCD_READ = {0,0,0,0,15}; // For read mode data pins are in 
....................  
....................  
....................  
.................... BYTE lcd_read_byte() { 
....................       BYTE low,high; 
....................       set_tris_lcd(LCD_READ); 
*
0065:  MOVLW  F0
0066:  BSF    03.5
0067:  MOVWF  06
....................       lcd.rw = 1; 
0068:  BCF    03.5
0069:  BSF    07.2
....................       delay_cycles(1); 
006A:  NOP
....................       lcd.enable = 1; 
006B:  BSF    07.0
....................       delay_cycles(1); 
006C:  NOP
....................       high = lcd.data; 
006D:  MOVF   07,W
006E:  SWAPF  07,W
006F:  ANDLW  0F
0070:  MOVWF  45
....................       lcd.enable = 0; 
0071:  BCF    07.0
....................       delay_cycles(1); 
0072:  NOP
....................       lcd.enable = 1; 
0073:  BSF    07.0
....................       delay_us(1); 
0074:  NOP
....................       low = lcd.data; 
0075:  MOVF   07,W
0076:  SWAPF  07,W
0077:  ANDLW  0F
0078:  MOVWF  44
....................       lcd.enable = 0; 
0079:  BCF    07.0
....................       set_tris_lcd(LCD_WRITE); 
007A:  MOVLW  00
007B:  BSF    03.5
007C:  MOVWF  06
....................       return( (high<<4) | low); 
007D:  BCF    03.5
007E:  SWAPF  45,W
007F:  MOVWF  20
0080:  MOVLW  F0
0081:  ANDWF  20,F
0082:  MOVF   20,W
0083:  IORWF  44,W
0084:  MOVWF  21
.................... } 
....................  
....................  
.................... void lcd_send_nibble( BYTE n ) { 
....................       lcd.data = n; 
*
0058:  SWAPF  45,W
0059:  ANDLW  F0
005A:  MOVWF  20
005B:  MOVLW  0F
005C:  ANDWF  07,W
005D:  IORWF  20,W
005E:  MOVWF  07
....................       delay_cycles(1); 
005F:  NOP
....................       lcd.enable = 1; 
0060:  BSF    07.0
....................       delay_us(2); 
0061:  GOTO   062
....................       lcd.enable = 0; 
0062:  BCF    07.0
.................... } 
0063:  RETLW  00
....................  
....................  
.................... void lcd_send_byte( BYTE address, BYTE n ) { 
....................  
....................       lcd.rs = 0; 
0064:  BCF    07.1
....................       while ( bit_test(lcd_read_byte(),7) ) ; 
*
0085:  MOVF   21,W
0086:  MOVWF  44
0087:  BTFSC  44.7
0088:  GOTO   065
....................       lcd.rs = address; 
0089:  BTFSS  42.0
008A:  BCF    07.1
008B:  BTFSC  42.0
008C:  BSF    07.1
....................       delay_cycles(1); 
008D:  NOP
....................       lcd.rw = 0; 
008E:  BCF    07.2
....................       delay_cycles(1); 
008F:  NOP
....................       lcd.enable = 0; 
0090:  BCF    07.0
....................       lcd_send_nibble(n >> 4); 
0091:  SWAPF  43,W
0092:  MOVWF  44
0093:  MOVLW  0F
0094:  ANDWF  44,F
0095:  MOVF   44,W
0096:  MOVWF  45
0097:  CALL   058
....................       lcd_send_nibble(n & 0xf); 
0098:  MOVF   43,W
0099:  ANDLW  0F
009A:  MOVWF  44
009B:  MOVWF  45
009C:  CALL   058
.................... } 
009D:  RETLW  00
....................  
....................  
.................... void lcd_init() { 
....................     BYTE i; 
....................     set_tris_lcd(LCD_WRITE); 
009E:  MOVLW  00
009F:  BSF    03.5
00A0:  MOVWF  06
....................     lcd.rs = 0; 
00A1:  BCF    03.5
00A2:  BCF    07.1
....................     lcd.rw = 0; 
00A3:  BCF    07.2
....................     lcd.enable = 0; 
00A4:  BCF    07.0
....................     delay_ms(15); 
00A5:  MOVLW  0F
00A6:  MOVWF  3E
00A7:  CALL   044
....................     for(i=1;i<=3;++i) { 
00A8:  MOVLW  01
00A9:  MOVWF  3C
00AA:  MOVF   3C,W
00AB:  SUBLW  03
00AC:  BTFSS  03.0
00AD:  GOTO   0B6
....................        lcd_send_nibble(3); 
00AE:  MOVLW  03
00AF:  MOVWF  45
00B0:  CALL   058
....................        delay_ms(5); 
00B1:  MOVLW  05
00B2:  MOVWF  3E
00B3:  CALL   044
....................     } 
00B4:  INCF   3C,F
00B5:  GOTO   0AA
....................     lcd_send_nibble(2); 
00B6:  MOVLW  02
00B7:  MOVWF  45
00B8:  CALL   058
....................     for(i=0;i<=3;++i) 
00B9:  CLRF   3C
00BA:  MOVF   3C,W
00BB:  SUBLW  03
00BC:  BTFSS  03.0
00BD:  GOTO   0C7
....................        lcd_send_byte(0,LCD_INIT_STRING[i]); 
00BE:  MOVF   3C,W
00BF:  CALL   004
00C0:  MOVWF  3D
00C1:  CLRF   42
00C2:  MOVF   3D,W
00C3:  MOVWF  43
00C4:  CALL   064
00C5:  INCF   3C,F
00C6:  GOTO   0BA
.................... } 
00C7:  BCF    0A.3
00C8:  GOTO   167 (RETURN)
....................  
....................  
.................... void lcd_gotoxy( BYTE x, BYTE y) { 
....................    BYTE address; 
....................  
....................    if(y!=1) 
00C9:  DECFSZ 3F,W
00CA:  GOTO   0CC
00CB:  GOTO   0CF
....................      address=lcd_line_two; 
00CC:  MOVLW  40
00CD:  MOVWF  40
....................    else 
00CE:  GOTO   0D0
....................      address=0; 
00CF:  CLRF   40
....................    address+=x-1; 
00D0:  MOVLW  01
00D1:  SUBWF  3E,W
00D2:  ADDWF  40,F
....................    lcd_send_byte(0,0x80|address); 
00D3:  MOVF   40,W
00D4:  IORLW  80
00D5:  MOVWF  41
00D6:  CLRF   42
00D7:  MOVF   41,W
00D8:  MOVWF  43
00D9:  CALL   064
.................... } 
00DA:  RETLW  00
....................  
.................... void lcd_putc( char c) { 
....................    switch (c) { 
00DB:  MOVF   3D,W
00DC:  XORLW  0C
00DD:  BTFSC  03.2
00DE:  GOTO   0E6
00DF:  XORLW  06
00E0:  BTFSC  03.2
00E1:  GOTO   0EE
00E2:  XORLW  02
00E3:  BTFSC  03.2
00E4:  GOTO   0F4
00E5:  GOTO   0F9
....................      case '\f'   : lcd_send_byte(0,1); 
00E6:  CLRF   42
00E7:  MOVLW  01
00E8:  MOVWF  43
00E9:  CALL   064
....................                    delay_ms(2); 
00EA:  MOVLW  02
00EB:  MOVWF  3E
00EC:  CALL   044
....................                                            break; 
00ED:  GOTO   0FF
....................      case '\n'   : lcd_gotoxy(1,2);        break; 
00EE:  MOVLW  01
00EF:  MOVWF  3E
00F0:  MOVLW  02
00F1:  MOVWF  3F
00F2:  CALL   0C9
00F3:  GOTO   0FF
....................      case '\b'   : lcd_send_byte(0,0x10);  break; 
00F4:  CLRF   42
00F5:  MOVLW  10
00F6:  MOVWF  43
00F7:  CALL   064
00F8:  GOTO   0FF
....................      default     : lcd_send_byte(1,c);     break; 
00F9:  MOVLW  01
00FA:  MOVWF  42
00FB:  MOVF   3D,W
00FC:  MOVWF  43
00FD:  CALL   064
00FE:  GOTO   0FF
....................    } 
.................... } 
00FF:  RETLW  00
....................  
.................... char lcd_getc( BYTE x, BYTE y) { 
....................    char value; 
....................  
....................     lcd_gotoxy(x,y); 
....................     while ( bit_test(lcd_read_byte(),7) ); // wait until busy flag is low 
....................     lcd.rs=1; 
....................     value = lcd_read_byte(); 
....................     lcd.rs=0; 
....................     return(value); 
.................... } 
.................... void lcd_puts(char *a) 
.................... { 
.................... while(*a) 
.................... lcd_putc(*a++); 
.................... } 
....................  
.................... #include "string.h" 
.................... //////////////////////////////////////////////////////////////////////////// 
.................... ////        (C) Copyright 1996,2003 Custom Computer Services            //// 
.................... //// This source code may only be used by licensed users of the CCS C   //// 
.................... //// compiler.  This source code may only be distributed to other       //// 
.................... //// licensed users of the CCS C compiler.  No other use, reproduction  //// 
.................... //// or distribution is permitted without written permission.           //// 
.................... //// Derivative programs created using this software in object code     //// 
.................... //// form are not restricted in any way.                                //// 
.................... //////////////////////////////////////////////////////////////////////////// 
....................  
.................... #ifndef _STRING 
.................... #define _STRING 
.................... #include <stddef.h> 
.................... /////////////////////////////////////////////////////////////////////////// 
.................... ////        (C) Copyright 1996,2003 Custom Computer Services           //// 
.................... //// This source code may only be used by licensed users of the CCS C  //// 
.................... //// compiler.  This source code may only be distributed to other      //// 
.................... //// licensed users of the CCS C compiler.  No other use, reproduction //// 
.................... //// or distribution is permitted without written permission.          //// 
.................... //// Derivative programs created using this software in object code    //// 
.................... //// form are not restricted in any way.                               //// 
.................... /////////////////////////////////////////////////////////////////////////// 
....................  
.................... #ifndef _STDDEF 
....................  
.................... #define _STDDEF 
....................  
.................... #if sizeof(unsigned int8 *)==1 
.................... #define ptrdiff_t unsigned int8 
.................... #else 
.................... #define ptrdiff_t unsigned int16 
.................... #endif 
....................  
.................... #define size_t unsigned int8 
.................... #define wchar_t char 
.................... #define NULL 0 
....................  
.................... #define offsetof(s,f) (offsetofbit(s,f)/8) 
....................  
.................... #endif 
....................  
.................... #include <ctype.h> 
.................... //////////////////////////////////////////////////////////////////////////// 
.................... ////        (C) Copyright 1996,2003 Custom Computer Services            //// 
.................... //// This source code may only be used by licensed users of the CCS C   //// 
.................... //// compiler.  This source code may only be distributed to other       //// 
.................... //// licensed users of the CCS C compiler.  No other use, reproduction  //// 
.................... //// or distribution is permitted without written permission.           //// 
.................... //// Derivative programs created using this software in object code     //// 
.................... //// form are not restricted in any way.                                //// 
.................... //////////////////////////////////////////////////////////////////////////// 
....................  
.................... #ifndef _CTYPE 
.................... #define _CTYPE 
....................  
.................... #define islower(x)  isamong(x,"abcdefghijklmnopqrstuvwxyz") 
.................... #define isupper(x)  isamong(x,"ABCDEFGHIJKLMNOPQRSTUVWXYZ") 
.................... #define isalnum(x)  isamong(x,"0123456789ABCDEFGHIJKLMNOPQRSTUVWXYZabcdefghijklmnopqrstuvwxyz") 
.................... #define isalpha(x)  isamong(x,"ABCDEFGHIJKLMNOPQRSTUVWXYZabcdefghijklmnopqrstuvwxyz") 
.................... #define isdigit(x)  isamong(x,"0123456789") 
.................... #define isspace(x)  ((x)==' ') 
.................... #define isxdigit(x) isamong(x,"0123456789ABCDEFabcdef") 
.................... #define iscntrl(x)  ((x)<' ') 
.................... #define isprint(x)  ((x)>=' ') 
.................... #define isgraph(x)  ((x)>' ') 
.................... #define ispunct(x)  (((x)>' ')&&!isalnum(x)) 
....................  
.................... #endif 
....................  
....................  
....................  
....................  
....................  
.................... ////////////////////////////////////////////// 
.................... //// Uncomment the following define to    //// 
.................... //// allow some functions to use a        //// 
.................... //// quicker algorithm, but use more ROM  //// 
.................... ////                                      //// 
.................... //// #define FASTER_BUT_MORE_ROM          //// 
.................... ////////////////////////////////////////////// 
....................  
....................  
....................  
.................... /*Copying functions*/ 
.................... /* standard template: 
....................    void *memmove(void *s1, void *s2, size_t n). 
....................    Copies max of n characters safely (not following ending '\0') 
....................    from s2 in s1; if s2 has less than n characters, appends 0 */ 
....................  
.................... char *memmove(void *s1,char *s2,size_t n) 
.................... { 
....................    char *sc1; 
....................    char *sc2; 
....................    sc1=s1; 
....................    sc2=s2; 
....................    if(sc2<sc1 && sc1 <sc2 +n) 
....................       for(sc1+=n,sc2+=n;0<n;--n) 
....................          *--sc1=*--sc2; 
....................    else 
....................       for(;0<n;--n) 
....................          *sc1++=*sc2++; 
....................   return s1; 
....................   } 
....................  
.................... /* compiler ignored the name 'strcpy()'; perhaps, it's reserved? 
....................    Standard template: char *strcpy(char *s1, const char *s2) 
....................    copies the string s2 including the null character to s1*/ 
....................  
.................... char *strcopy(char *s1, char *s2) 
.................... { 
....................   char *s; 
....................  
....................   for (s = s1; *s2 != 0; s++, s2++) { 
....................      *s = *s2; 
....................   } 
....................   *s = *s2; 
....................   return(s1); 
.................... } 
....................  
.................... /* standard template: 
....................    char *strncpy(char *s1, const char *s2, size_t n). 
....................    Copies max of n characters (not following ending '\0') 
....................    from s2 in s1; if s2 has less than n characters, appends 0 */ 
....................  
.................... char *strncpy(char *s1, char *s2, size_t n) 
.................... { 
....................   char *s; 
....................  
....................   for (s = s1; n > 0 && *s2 != '\0'; n--) 
....................      *s++ = *s2++; 
....................   for (; n > 0; n--) 
....................      *s++ = '\0'; 
....................  
....................   return(s1); 
.................... } 
.................... /***********************************************************/ 
....................  
.................... /*concatenation functions*/ 
.................... /* standard template: char *strcat(char *s1, const char *s2) 
.................... appends s2 to s1*/ 
....................  
.................... char *strcat(char *s1, char *s2) 
.................... { 
....................    char *s; 
....................  
....................    for (s = s1; *s != '\0'; ++s); 
....................    while(*s2 != '\0') 
....................    { 
....................       *s = *s2; 
....................       ++s; 
....................       ++s2; 
....................    } 
....................  
....................    *s = '\0'; 
....................    return(s1); 
.................... } 
.................... /* standard template: char *strncat(char *s1, char *s2,size_t n) 
.................... appends not more than n characters from s2 to s1*/ 
....................  
.................... char *strncat(char *s1, char *s2, size_t n) 
.................... { 
....................    char *s; 
....................  
....................    for (s = s1; *s != '\0'; ++s); 
....................    while(*s2 != '\0' && 0<n) 
....................    { 
....................       *s = *s2; 
....................       ++s; 
....................       ++s2; 
....................       --n; 
....................    } 
....................  
....................    *s = '\0'; 
....................    return(s1); 
.................... } 
....................  
.................... /***********************************************************/ 
....................  
....................  
.................... /*comparison functions*/ 
.................... /* standard template: signed int memcmp(void *s1, void *s2). 
....................    Compares s1 & s2; returns -1 if s1<s2, 0 if s1=s2, 1 if s1>s2 */ 
....................  
.................... signed int8 memcmp(void * s1,char *s2,size_t n) 
.................... { 
.................... char *su1, *su2; 
.................... for(su1=s1, su2=s2; 0<n; ++su1, ++su2, --n) 
.................... { 
....................    if(*su1!=*su2) 
....................       return ((*su1<*su2)?-1:+1); 
.................... } 
.................... return 0; 
.................... } 
....................  
.................... /* standard template: int strcmp(const char *s1, const char *s2). 
....................    Compares s1 & s2; returns -1 if s1<s2, 0 if s1=s2, 1 if s1>s2 */ 
....................  
.................... signed int8 strcmp(char *s1, char *s2) 
.................... { 
....................    for (; *s1 == *s2; s1++, s2++) 
0100:  MOVF   3C,W
0101:  MOVWF  04
0102:  MOVF   00,W
0103:  MOVWF  3E
0104:  MOVF   3D,W
0105:  MOVWF  04
0106:  MOVF   00,W
0107:  SUBWF  3E,W
0108:  BTFSS  03.2
0109:  GOTO   116
....................       if (*s1 == '\0') 
010A:  MOVF   3C,W
010B:  MOVWF  04
010C:  MOVF   00,F
010D:  BTFSS  03.2
010E:  GOTO   112
....................          return(0); 
010F:  MOVLW  00
0110:  MOVWF  21
0111:  GOTO   124
0112:  MOVF   3C,W
0113:  INCF   3C,F
0114:  INCF   3D,F
0115:  GOTO   100
....................    return((*s1 < *s2) ? -1: 1); 
0116:  MOVF   3C,W
0117:  MOVWF  04
0118:  MOVF   00,W
0119:  MOVWF  3E
011A:  MOVF   3D,W
011B:  MOVWF  04
011C:  MOVF   00,W
011D:  SUBWF  3E,W
011E:  BTFSC  03.0
011F:  GOTO   122
0120:  MOVLW  FF
0121:  GOTO   123
0122:  MOVLW  01
0123:  MOVWF  21
.................... } 
0124:  BCF    0A.3
0125:  GOTO   2A9 (RETURN)
.................... /* standard template: int strcoll(const char *s1, const char *s2). 
....................    Compares s1 & s2; returns -1 if s1<s2, 0 if s1=s2, 1 if s1>s2 */ 
....................  
.................... signed int8 strcoll(char *s1, char *s2) 
.................... { 
....................    for (; *s1 == *s2; s1++, s2++) 
....................       if (*s1 == '\0') 
....................          return(0); 
....................    return((*s1 < *s2) ? -1: 1); 
.................... } 
....................  
.................... /* standard template: 
....................    int strncmp(const char *s1, const char *s2, size_t n). 
....................    Compares max of n characters (not following 0) from s1 to s2; 
....................    returns same as strcmp */ 
....................  
.................... signed int8 strncmp(char *s1, char *s2, size_t n) 
.................... { 
....................    for (; n > 0; s1++, s2++, n--) 
....................       if (*s1 != *s2) 
....................          return((*s1 <*s2) ? -1: 1); 
....................       else if (*s1 == '\0') 
....................          return(0); 
....................    return(0); 
.................... } 
.................... /* standard template: 
....................    int strxfrm(const char *s1, const char *s2, size_t n). 
....................    transforms maximum of n characters from s2 and places them into s1*/ 
.................... size_t strxfrm(char *s1, char *s2, size_t n) 
.................... { 
....................   char *s; 
....................   unsigned int8 n1; 
....................   n1=n; 
....................   for (s = s1; n > 0 && *s2 != '\0'; n--) 
....................      *s++ = *s2++; 
....................   for (; n > 0; n--) 
....................      *s++ = '\0'; 
....................  
....................   return(n1); 
.................... } 
....................  
....................  
....................  
....................  
....................  
.................... /***********************************************************/ 
.................... /*Search functions*/ 
.................... /* standard template: void *memchr(const char *s, int c). 
....................    Finds first occurrence of c in n characters of s */ 
....................  
.................... char *memchr(void *s,unsigned int8 c,size_t n) 
.................... { 
....................    char uc; 
....................    char *su; 
....................    uc=c; 
....................    for(su=s;0<n;++su,--n) 
....................       if(*su==uc) 
....................       return su; 
....................    return NULL; 
.................... } 
....................  
.................... /* standard template: char *strchr(const char *s, int c). 
....................    Finds first occurrence of c in s */ 
....................  
.................... char *strchr(char *s, unsigned int8 c) 
.................... { 
....................    for (; *s != c; s++) 
....................       if (*s == '\0') 
....................          return(0); 
....................    return(s); 
.................... } 
.................... /* standard template: 
....................    size_t strcspn(const char *s1, const char *s2). 
....................    Computes length of max initial segment of s1 that 
....................    consists entirely of characters NOT from s2*/ 
....................  
.................... unsigned int8 *strcspn(char *s1, char *s2) 
.................... { 
....................    char *sc1, *sc2; 
....................  
....................    for (sc1 = s1; *sc1 != 0; sc1++) 
....................       for (sc2 = s2; *sc2 != 0; sc2++) 
....................          if (*sc1 == *sc2) 
....................             return(sc1 - s1); 
....................    return(sc1 - s1); 
.................... } 
.................... /* standard template: 
....................    char *strpbrk(const char *s1, const char *s2). 
....................    Locates first occurence of any character from s2 in s1; 
....................    returns s1 if s2 is empty string */ 
....................  
.................... char *strpbrk(char *s1, char *s2) 
.................... { 
....................    char *sc1, *sc2; 
....................  
....................    for (sc1 = s1; *sc1 != 0; sc1++) 
....................       for (sc2 = s2; *sc2 != 0; sc2++) 
....................          if (*sc1 == *sc2) 
....................             return(sc1); 
....................    return(0); 
.................... } 
....................  
....................  
.................... /* standard template: char *strrchr(const char *s, int c). 
....................    Finds last occurrence of c in s */ 
....................  
.................... char *strrchr(char *s, unsigned int8 c) 
.................... { 
....................    char *p; 
....................  
....................    for (p = 0; ; s++) 
....................    { 
....................       if (*s == c) 
....................          p = s; 
....................       if (*s == '\0') 
....................          return(p); 
....................    } 
.................... } 
.................... /* computes length of max initial segment of s1 consisting 
....................    entirely of characters from s2 */ 
....................  
.................... unsigned int8 *strspn(char *s1, char *s2) 
.................... { 
....................    char *sc1, *sc2; 
....................  
....................    for (sc1 = s1; *sc1 != 0; sc1++) 
....................       for (sc2 = s2; ; sc2++) 
....................     if (*sc2 == '\0') 
....................        return(sc1 - s1); 
....................          else if (*sc1 == *sc2) 
....................             break; 
....................    return(sc1 - s1); 
.................... } 
.................... /* standard template: 
....................    char *strstr(const char *s1, const char *s2); 
....................    Locates first occurence of character sequence s2 in s1; 
....................    returns 0 if s2 is empty string 
....................  
....................    Uncomment #define FASTER_BUT_MORE_ROM at the top of the 
....................    file to use the faster algorithm */ 
.................... char *strstr(char *s1, char *s2) 
.................... { 
....................    char *s, *t; 
....................  
....................    #ifdef FASTER_BUT_MORE_ROM 
....................    if (*s2 == '\0') 
....................          return(s1); 
....................    #endif 
....................  
....................    while (*s1) 
....................    { 
....................       for(s = s1, t = s2; *t && (*s == *t); ++s, ++t); 
....................  
....................       if (*t == '\0') 
....................          return s1; 
....................       ++s1; 
....................       #ifdef FASTER_BUT_MORE_ROM 
....................          while(*s1 != '\0' && *s1 != *s2) 
....................             ++s1; 
....................       #endif 
....................    } 
....................    return 0; 
.................... } 
....................  
.................... /* standard template: char *strtok(char *s1, const char *s2). 
....................  
....................    Finds next token in s1 delimited by a character from separator 
....................    string s2 (which can be different from call to call).  First call 
....................    starts at beginning of s1 searching for first character NOT 
....................    contained in s2; returns 0 if none is found. 
....................    If one is found, it is the start of first token (return value). 
....................    Function then searches from there for a character contained in s2. 
....................    If none is found, current token extends to end of s1, and subsequent 
....................    searches for a token will return 0.  If one is found, it is 
....................    overwritten by '\0', which terminates current token.  Function saves 
....................    pointer to following character from which next search will start. 
....................    Each subsequent call, with 0 as first argument, starts searching 
....................    from saved pointer */ 
....................  
.................... char *strtok(char *s1, char *s2) 
.................... { 
....................    char *beg, *end; 
....................    static char *save; 
*
0135:  BCF    03.5
0136:  CLRF   25
....................  
....................    beg = (s1)? s1: save; 
....................    beg += strspn(beg, s2); 
....................    if (*beg == '\0') 
....................    { 
....................       *save = ' '; 
....................       return(0); 
....................    } 
....................    end = strpbrk(beg, s2); 
....................    if (*end != '\0') 
....................    { 
....................       *end = '\0'; 
....................       end++; 
....................    } 
....................    save = end; 
....................    return(beg); 
.................... } 
....................  
.................... /*****************************************************************/ 
.................... /*Miscellaneous functions*/ 
.................... /* standard template 
.................... maps error number in errnum to an error message string 
.................... Returns: Pointer to string 
.................... */ 
.................... #ifdef _ERRNO 
.................... char * strerror(unsigned int8 errnum) 
.................... { 
.................... char s[15]; 
.................... switch( errnum) 
.................... { 
.................... case 0: 
....................    strcpy(s,"no errors"); 
....................    return s; 
.................... case EDOM : 
....................    strcpy(s,"domain error"); 
....................    return s; 
.................... case ERANGE: 
....................    strcpy(s,"range error"); 
....................    return s; 
.................... } 
.................... } 
.................... #ENDIF 
.................... /* standard template: size_t strlen(const char *s). 
....................    Computes length of s1 (preceding terminating 0) */ 
....................  
.................... unsigned int8 *strlen(char *s) 
.................... { 
....................    char *sc; 
....................  
....................    for (sc = s; *sc != 0; sc++); 
....................    return(sc - s); 
.................... } 
....................  
.................... /* standard template: size_t stricmp(const char *s1, const char *s2). 
....................    Compares s1 to s2 ignoring case (upper vs. lower) */ 
....................  
.................... signed int8 stricmp(char *s1, char *s2) 
.................... { 
....................  for(; *s1==*s2||(isalpha(*s1)&&isalpha(*s2)&&(*s1==*s2+32||*s2==*s1+32)); 
....................     s1++, s2++) 
....................     if (*s1 == '\0') 
....................        return(0); 
....................  return((*s1 < *s2) ? -1: 1); 
.................... } 
....................  
....................  
.................... /* standard template: char *strlwr(char *s). 
....................    Replaces uppercase letters by lowercase; 
....................    returns pointer to new string s */ 
....................  
.................... char *strlwr(char *s) 
.................... { 
....................    char *p; 
....................  
....................    for (p = s; *p != '\0'; p++) 
....................       if (*p >= 'A' && *p <='Z') 
....................          *p += 'a' - 'A'; 
....................    return(s); 
.................... } 
....................  
....................  
.................... /************************************************************/ 
....................  
....................  
.................... #endif 
....................  
.................... void main() 
.................... { 
*
0126:  CLRF   04
0127:  MOVLW  1F
0128:  ANDWF  03,F
0129:  MOVLW  19
012A:  BSF    03.5
012B:  MOVWF  19
012C:  MOVLW  A6
012D:  MOVWF  18
012E:  MOVLW  90
012F:  BCF    03.5
0130:  MOVWF  18
0131:  BSF    03.5
0132:  BSF    1F.0
0133:  BSF    1F.1
0134:  BSF    1F.2
.................... char x='m';int i=0;char d[10]; 
*
0137:  MOVLW  6D
0138:  MOVWF  26
0139:  CLRF   27
.................... char a[10]={"abcd"}; 
013A:  MOVLW  61
013B:  MOVWF  32
013C:  MOVLW  62
013D:  MOVWF  33
013E:  MOVLW  63
013F:  MOVWF  34
0140:  MOVLW  64
0141:  MOVWF  35
0142:  CLRF   36
0143:  CLRF   37
0144:  CLRF   38
0145:  CLRF   39
0146:  CLRF   3A
0147:  CLRF   3B
....................    setup_adc_ports(NO_ANALOGS); 
0148:  BSF    03.5
0149:  BSF    1F.0
014A:  BSF    1F.1
014B:  BSF    1F.2
....................    setup_adc(ADC_OFF); 
014C:  BCF    03.5
014D:  BCF    1F.0
....................    setup_spi(SPI_SS_DISABLED); 
014E:  BCF    14.5
014F:  BSF    03.5
0150:  BCF    07.5
0151:  BSF    07.4
0152:  BCF    07.3
0153:  MOVLW  01
0154:  BCF    03.5
0155:  MOVWF  14
0156:  MOVLW  00
0157:  BSF    03.5
0158:  MOVWF  14
....................    setup_timer_0(RTCC_INTERNAL|RTCC_DIV_1); 
0159:  MOVF   01,W
015A:  ANDLW  C7
015B:  IORLW  08
015C:  MOVWF  01
....................    setup_timer_1(T1_DISABLED); 
015D:  BCF    03.5
015E:  CLRF   10
....................    setup_timer_2(T2_DISABLED,0,1); 
015F:  MOVLW  00
0160:  MOVWF  21
0161:  MOVWF  12
0162:  MOVLW  00
0163:  BSF    03.5
0164:  MOVWF  12
....................  
....................     
....................    lcd_init(); 
0165:  BCF    03.5
0166:  GOTO   09E
....................   l:lcd_putc("enter pass");   
0167:  CLRF   3C
0168:  MOVF   3C,W
0169:  CALL   00C
016A:  IORLW  00
016B:  BTFSC  03.2
016C:  GOTO   171
016D:  INCF   3C,F
016E:  MOVWF  3D
016F:  CALL   0DB
0170:  GOTO   168
....................   while(1) 
....................   { 
....................   output_bit( PIN_B0, 1); 
0171:  BSF    06.0
0172:  BSF    03.5
0173:  BCF    06.0
....................   output_bit( PIN_B1, 0); 
0174:  BCF    03.5
0175:  BCF    06.1
0176:  BSF    03.5
0177:  BCF    06.1
....................   output_bit( PIN_B2, 0); 
0178:  BCF    03.5
0179:  BCF    06.2
017A:  BSF    03.5
017B:  BCF    06.2
....................   output_bit( PIN_B3, 0); 
017C:  BCF    03.5
017D:  BCF    06.3
017E:  BSF    03.5
017F:  BCF    06.3
....................    if(input(PIN_B4)==1) 
0180:  BSF    06.4
0181:  BCF    03.5
0182:  BTFSS  06.4
0183:  GOTO   18E
....................    { 
....................    while(input(pin_b4)); 
0184:  BSF    03.5
0185:  BSF    06.4
0186:  BCF    03.5
0187:  BTFSC  06.4
0188:  GOTO   184
....................    x='0'; 
0189:  MOVLW  30
018A:  MOVWF  26
....................    lcd_putc('0'); 
018B:  MOVWF  3D
018C:  CALL   0DB
....................    } 
....................    else if(input(PIN_B5)==1) 
018D:  GOTO   1BA
018E:  BSF    03.5
018F:  BSF    06.5
0190:  BCF    03.5
0191:  BTFSS  06.5
0192:  GOTO   19D
....................    { 
....................    while(input(pin_b5)); 
0193:  BSF    03.5
0194:  BSF    06.5
0195:  BCF    03.5
0196:  BTFSC  06.5
0197:  GOTO   193
....................    x='4'; 
0198:  MOVLW  34
0199:  MOVWF  26
....................    lcd_putc('4'); 
019A:  MOVWF  3D
019B:  CALL   0DB
....................    } 
....................    else if(input(PIN_B6)==1) 
019C:  GOTO   1BA
019D:  BSF    03.5
019E:  BSF    06.6
019F:  BCF    03.5
01A0:  BTFSS  06.6
01A1:  GOTO   1AC
....................    { 
....................    while(input(pin_b6)); 
01A2:  BSF    03.5
01A3:  BSF    06.6
01A4:  BCF    03.5
01A5:  BTFSC  06.6
01A6:  GOTO   1A2
....................     x='8'; 
01A7:  MOVLW  38
01A8:  MOVWF  26
....................    lcd_putc('8'); 
01A9:  MOVWF  3D
01AA:  CALL   0DB
....................    } 
....................    else if(input(PIN_B7)==1) 
01AB:  GOTO   1BA
01AC:  BSF    03.5
01AD:  BSF    06.7
01AE:  BCF    03.5
01AF:  BTFSS  06.7
01B0:  GOTO   1BA
....................    { 
....................    while(input(pin_b7)); 
01B1:  BSF    03.5
01B2:  BSF    06.7
01B3:  BCF    03.5
01B4:  BTFSC  06.7
01B5:  GOTO   1B1
....................     x='c'; 
01B6:  MOVLW  63
01B7:  MOVWF  26
....................    lcd_putc('c'); 
01B8:  MOVWF  3D
01B9:  CALL   0DB
....................    } 
....................    
....................  output_bit( PIN_B0, 0); 
01BA:  BCF    06.0
01BB:  BSF    03.5
01BC:  BCF    06.0
....................  output_bit( PIN_B1, 1); 
01BD:  BCF    03.5
01BE:  BSF    06.1
01BF:  BSF    03.5
01C0:  BCF    06.1
....................  output_bit( PIN_B2, 0); 
01C1:  BCF    03.5
01C2:  BCF    06.2
01C3:  BSF    03.5
01C4:  BCF    06.2
....................  output_bit( PIN_B3, 0); 
01C5:  BCF    03.5
01C6:  BCF    06.3
01C7:  BSF    03.5
01C8:  BCF    06.3
....................    if(input(PIN_B4)==1) 
01C9:  BSF    06.4
01CA:  BCF    03.5
01CB:  BTFSS  06.4
01CC:  GOTO   1D7
....................    { 
....................    while(input(pin_b4)); 
01CD:  BSF    03.5
01CE:  BSF    06.4
01CF:  BCF    03.5
01D0:  BTFSC  06.4
01D1:  GOTO   1CD
....................     x='1'; 
01D2:  MOVLW  31
01D3:  MOVWF  26
....................    lcd_putc('1'); 
01D4:  MOVWF  3D
01D5:  CALL   0DB
....................    } 
....................    else if(input(PIN_B5)==1) 
01D6:  GOTO   203
01D7:  BSF    03.5
01D8:  BSF    06.5
01D9:  BCF    03.5
01DA:  BTFSS  06.5
01DB:  GOTO   1E6
....................    { 
....................    while(input(pin_b5)); 
01DC:  BSF    03.5
01DD:  BSF    06.5
01DE:  BCF    03.5
01DF:  BTFSC  06.5
01E0:  GOTO   1DC
....................     x='5'; 
01E1:  MOVLW  35
01E2:  MOVWF  26
....................    lcd_putc('5'); 
01E3:  MOVWF  3D
01E4:  CALL   0DB
....................    } 
....................    else if(input(PIN_B6)==1) 
01E5:  GOTO   203
01E6:  BSF    03.5
01E7:  BSF    06.6
01E8:  BCF    03.5
01E9:  BTFSS  06.6
01EA:  GOTO   1F5
....................    { 
....................    while(input(pin_b6)); 
01EB:  BSF    03.5
01EC:  BSF    06.6
01ED:  BCF    03.5
01EE:  BTFSC  06.6
01EF:  GOTO   1EB
....................     x='9'; 
01F0:  MOVLW  39
01F1:  MOVWF  26
....................    lcd_putc('9'); 
01F2:  MOVWF  3D
01F3:  CALL   0DB
....................    } 
....................    else if(input(PIN_B7)==1) 
01F4:  GOTO   203
01F5:  BSF    03.5
01F6:  BSF    06.7
01F7:  BCF    03.5
01F8:  BTFSS  06.7
01F9:  GOTO   203
....................    { 
....................    while(input(pin_b7)); 
01FA:  BSF    03.5
01FB:  BSF    06.7
01FC:  BCF    03.5
01FD:  BTFSC  06.7
01FE:  GOTO   1FA
....................     x='d'; 
01FF:  MOVLW  64
0200:  MOVWF  26
....................    lcd_putc('d'); 
0201:  MOVWF  3D
0202:  CALL   0DB
....................    } 
....................    
....................    
....................  output_bit( PIN_B0, 0); 
0203:  BCF    06.0
0204:  BSF    03.5
0205:  BCF    06.0
....................  output_bit( PIN_B1, 0); 
0206:  BCF    03.5
0207:  BCF    06.1
0208:  BSF    03.5
0209:  BCF    06.1
....................  output_bit( PIN_B2, 1); 
020A:  BCF    03.5
020B:  BSF    06.2
020C:  BSF    03.5
020D:  BCF    06.2
....................  output_bit( PIN_B3, 0); 
020E:  BCF    03.5
020F:  BCF    06.3
0210:  BSF    03.5
0211:  BCF    06.3
....................    if(input(PIN_B4)==1) 
0212:  BSF    06.4
0213:  BCF    03.5
0214:  BTFSS  06.4
0215:  GOTO   220
....................    { 
....................    while(input(pin_b4)); 
0216:  BSF    03.5
0217:  BSF    06.4
0218:  BCF    03.5
0219:  BTFSC  06.4
021A:  GOTO   216
....................     x='2'; 
021B:  MOVLW  32
021C:  MOVWF  26
....................    lcd_putc('2'); 
021D:  MOVWF  3D
021E:  CALL   0DB
....................    } 
....................    else if(input(PIN_B5)==1) 
021F:  GOTO   24C
0220:  BSF    03.5
0221:  BSF    06.5
0222:  BCF    03.5
0223:  BTFSS  06.5
0224:  GOTO   22F
....................    {  
....................    while(input(pin_b5)); 
0225:  BSF    03.5
0226:  BSF    06.5
0227:  BCF    03.5
0228:  BTFSC  06.5
0229:  GOTO   225
....................     x='6'; 
022A:  MOVLW  36
022B:  MOVWF  26
....................    lcd_putc('6'); 
022C:  MOVWF  3D
022D:  CALL   0DB
....................    } 
....................    else if(input(PIN_B6)==1) 
022E:  GOTO   24C
022F:  BSF    03.5
0230:  BSF    06.6
0231:  BCF    03.5
0232:  BTFSS  06.6
0233:  GOTO   23E
....................    { 
....................    while(input(pin_b6)); 
0234:  BSF    03.5
0235:  BSF    06.6
0236:  BCF    03.5
0237:  BTFSC  06.6
0238:  GOTO   234
....................     x='a'; 
0239:  MOVLW  61
023A:  MOVWF  26
....................    lcd_putc('a'); 
023B:  MOVWF  3D
023C:  CALL   0DB
....................    } 
....................    else if(input(PIN_B7)==1) 
023D:  GOTO   24C
023E:  BSF    03.5
023F:  BSF    06.7
0240:  BCF    03.5
0241:  BTFSS  06.7
0242:  GOTO   24C
....................    { 
....................    while(input(pin_b7)); 
0243:  BSF    03.5
0244:  BSF    06.7
0245:  BCF    03.5
0246:  BTFSC  06.7
0247:  GOTO   243
....................     x='e'; 
0248:  MOVLW  65
0249:  MOVWF  26
....................    
....................    lcd_putc('e'); 
024A:  MOVWF  3D
024B:  CALL   0DB
....................    } 
....................  output_bit( PIN_B0, 0); 
024C:  BCF    06.0
024D:  BSF    03.5
024E:  BCF    06.0
....................  output_bit( PIN_B1, 0); 
024F:  BCF    03.5
0250:  BCF    06.1
0251:  BSF    03.5
0252:  BCF    06.1
....................  output_bit( PIN_B2, 0); 
0253:  BCF    03.5
0254:  BCF    06.2
0255:  BSF    03.5
0256:  BCF    06.2
....................  output_bit( PIN_B3, 1); 
0257:  BCF    03.5
0258:  BSF    06.3
0259:  BSF    03.5
025A:  BCF    06.3
....................    if(input(PIN_B4)==1) 
025B:  BSF    06.4
025C:  BCF    03.5
025D:  BTFSS  06.4
025E:  GOTO   269
....................     { 
....................    while(input(pin_b4)); 
025F:  BSF    03.5
0260:  BSF    06.4
0261:  BCF    03.5
0262:  BTFSC  06.4
0263:  GOTO   25F
....................     x='3'; 
0264:  MOVLW  33
0265:  MOVWF  26
....................    lcd_putc('3'); 
0266:  MOVWF  3D
0267:  CALL   0DB
....................    } 
....................    else if(input(PIN_B5)==1) 
0268:  GOTO   297
0269:  BSF    03.5
026A:  BSF    06.5
026B:  BCF    03.5
026C:  BTFSS  06.5
026D:  GOTO   278
....................    { 
....................    while(input(pin_b5)); 
026E:  BSF    03.5
026F:  BSF    06.5
0270:  BCF    03.5
0271:  BTFSC  06.5
0272:  GOTO   26E
....................    x='7'; 
0273:  MOVLW  37
0274:  MOVWF  26
....................     lcd_putc('7'); 
0275:  MOVWF  3D
0276:  CALL   0DB
....................    }   
....................    else if(input(PIN_B6)==1) 
0277:  GOTO   297
0278:  BSF    03.5
0279:  BSF    06.6
027A:  BCF    03.5
027B:  BTFSS  06.6
027C:  GOTO   287
....................    { 
....................    while(input(pin_b6)); 
027D:  BSF    03.5
027E:  BSF    06.6
027F:  BCF    03.5
0280:  BTFSC  06.6
0281:  GOTO   27D
....................     x='b'; 
0282:  MOVLW  62
0283:  MOVWF  26
....................    lcd_putc('b'); 
0284:  MOVWF  3D
0285:  CALL   0DB
....................    }   
....................    else if(input(PIN_B7)==1) 
0286:  GOTO   297
0287:  BSF    03.5
0288:  BSF    06.7
0289:  BCF    03.5
028A:  BTFSS  06.7
028B:  GOTO   297
....................    { 
....................    while(input(pin_b7)); 
028C:  BSF    03.5
028D:  BSF    06.7
028E:  BCF    03.5
028F:  BTFSC  06.7
0290:  GOTO   28C
....................    x='f';  
0291:  MOVLW  66
0292:  MOVWF  26
....................    break; 
0293:  GOTO   2A4
....................    
....................    lcd_putc('f'); 
0294:  MOVLW  66
0295:  MOVWF  3D
0296:  CALL   0DB
....................    } 
....................    if(x!='m') 
0297:  MOVF   26,W
0298:  SUBLW  6D
0299:  BTFSC  03.2
029A:  GOTO   2A3
....................    { 
....................   d[i]=x; 
029B:  MOVLW  28
029C:  ADDWF  27,W
029D:  MOVWF  04
029E:  MOVF   26,W
029F:  MOVWF  00
....................   i++; 
02A0:  INCF   27,F
....................   x='m'; 
02A1:  MOVLW  6D
02A2:  MOVWF  26
....................   } 
....................  } 
02A3:  GOTO   171
....................  
....................   
....................  
....................  if(strcmp(a,d)) 
02A4:  MOVLW  32
02A5:  MOVWF  3C
02A6:  MOVLW  28
02A7:  MOVWF  3D
02A8:  GOTO   100
02A9:  MOVF   21,F
02AA:  BTFSC  03.2
02AB:  GOTO   2D6
....................  { 
....................  lcd_gotoxy(1,1); 
02AC:  MOVLW  01
02AD:  MOVWF  3E
02AE:  MOVWF  3F
02AF:  CALL   0C9
....................  lcd_putc("\f"); 
02B0:  CLRF   3C
02B1:  MOVF   3C,W
02B2:  CALL   01B
02B3:  IORLW  00
02B4:  BTFSC  03.2
02B5:  GOTO   2BA
02B6:  INCF   3C,F
02B7:  MOVWF  3D
02B8:  CALL   0DB
02B9:  GOTO   2B1
....................  i=0; 
02BA:  CLRF   27
....................  x='m'; 
02BB:  MOVLW  6D
02BC:  MOVWF  26
....................  lcd_putc(" denied "); 
02BD:  CLRF   3C
02BE:  MOVF   3C,W
02BF:  CALL   021
02C0:  IORLW  00
02C1:  BTFSC  03.2
02C2:  GOTO   2C7
02C3:  INCF   3C,F
02C4:  MOVWF  3D
02C5:  CALL   0DB
02C6:  GOTO   2BE
....................  delay_ms(100); 
02C7:  MOVLW  64
02C8:  MOVWF  3E
02C9:  CALL   044
....................  lcd_putc("\f"); 
02CA:  CLRF   3C
02CB:  MOVF   3C,W
02CC:  CALL   01B
02CD:  IORLW  00
02CE:  BTFSC  03.2
02CF:  GOTO   2D4
02D0:  INCF   3C,F
02D1:  MOVWF  3D
02D2:  CALL   0DB
02D3:  GOTO   2CB
....................  goto l; 
02D4:  GOTO   167
....................  } 
....................  else 
02D5:  GOTO   302
....................  { 
....................  lcd_gotoxy(1,1); 
02D6:  MOVLW  01
02D7:  MOVWF  3E
02D8:  MOVWF  3F
02D9:  CALL   0C9
....................  lcd_putc("\f"); 
02DA:  CLRF   3C
02DB:  MOVF   3C,W
02DC:  CALL   01B
02DD:  IORLW  00
02DE:  BTFSC  03.2
02DF:  GOTO   2E4
02E0:  INCF   3C,F
02E1:  MOVWF  3D
02E2:  CALL   0DB
02E3:  GOTO   2DB
....................  lcd_putc("granted"); 
02E4:  CLRF   3C
02E5:  MOVF   3C,W
02E6:  CALL   02E
02E7:  IORLW  00
02E8:  BTFSC  03.2
02E9:  GOTO   2EE
02EA:  INCF   3C,F
02EB:  MOVWF  3D
02EC:  CALL   0DB
02ED:  GOTO   2E5
....................  lcd_putc("\f"); 
02EE:  CLRF   3C
02EF:  MOVF   3C,W
02F0:  CALL   01B
02F1:  IORLW  00
02F2:  BTFSC  03.2
02F3:  GOTO   2F8
02F4:  INCF   3C,F
02F5:  MOVWF  3D
02F6:  CALL   0DB
02F7:  GOTO   2EF
....................  lcd_putc("enjoy"); 
02F8:  CLRF   3C
02F9:  MOVF   3C,W
02FA:  CALL   03A
02FB:  IORLW  00
02FC:  BTFSC  03.2
02FD:  GOTO   302
02FE:  INCF   3C,F
02FF:  MOVWF  3D
0300:  CALL   0DB
0301:  GOTO   2F9
....................  } 
....................  } 
....................  
....................   
....................   
....................   
....................     
....................  
0302:  SLEEP

Configuration Fuses:
   Word  1: 3FB8   LP NOWDT NOPUT NOPROTECT NOBROWNOUT
