CCS PCM C Compiler, Version 4.057, 17685               11-Nov-14 11:12

               Filename: range.lst

               ROM used: 118 words (3%)
                         Largest free fragment is 2048
               RAM used: 6 (3%) at main() level
                         7 (4%) worst case
               Stack:    1 locations

*
0000:  MOVLW  00
0001:  MOVWF  0A
0002:  GOTO   019
0003:  NOP
.................... #include "E:\JIJU\pic c\sample\range.h" 
.................... #include <16F73.h> 
.................... //////// Standard Header file for the PIC16F73 device //////////////// 
.................... #device PIC16F73 
.................... #list 
....................  
.................... #device adc=8 
....................  
.................... #FUSES NOWDT                 	//No Watch Dog Timer 
.................... #FUSES XT                    	//Crystal osc <= 4mhz 
.................... #FUSES NOPUT                 	//No Power Up Timer 
.................... #FUSES NOPROTECT             	//Code not protected from reading 
.................... #FUSES NOBROWNOUT            	//No brownout reset 
....................  
.................... #use delay(clock=4000000) 
0004:  MOVLW  27
0005:  MOVWF  04
0006:  MOVF   00,W
0007:  BTFSC  03.2
0008:  GOTO   017
0009:  MOVLW  01
000A:  MOVWF  21
000B:  CLRF   20
000C:  DECFSZ 20,F
000D:  GOTO   00C
000E:  DECFSZ 21,F
000F:  GOTO   00B
0010:  MOVLW  4A
0011:  MOVWF  20
0012:  DECFSZ 20,F
0013:  GOTO   012
0014:  GOTO   015
0015:  DECFSZ 00,F
0016:  GOTO   009
0017:  BCF    0A.3
0018:  GOTO   051 (RETURN)
.................... #use rs232(baud=9600,parity=N,xmit=PIN_C6,rcv=PIN_C7,bits=8) 
....................  
....................  
....................  
....................  
.................... void main() 
.................... { 
0019:  CLRF   04
001A:  MOVLW  1F
001B:  ANDWF  03,F
001C:  MOVLW  19
001D:  BSF    03.5
001E:  MOVWF  19
001F:  MOVLW  A6
0020:  MOVWF  18
0021:  MOVLW  90
0022:  BCF    03.5
0023:  MOVWF  18
0024:  BSF    03.5
0025:  BSF    1F.0
0026:  BSF    1F.1
0027:  BSF    1F.2
.................... int a; 
....................    setup_adc_ports(ALL_ANALOG); 
0028:  BCF    1F.0
0029:  BCF    1F.1
002A:  BCF    1F.2
....................    setup_adc(ADC_CLOCK_DIV_2); 
002B:  BCF    03.5
002C:  BCF    1F.6
002D:  BCF    1F.7
002E:  BSF    1F.0
....................    setup_spi(SPI_SS_DISABLED); 
002F:  BCF    14.5
0030:  BSF    03.5
0031:  BCF    07.5
0032:  BSF    07.4
0033:  BCF    07.3
0034:  MOVLW  01
0035:  BCF    03.5
0036:  MOVWF  14
0037:  MOVLW  00
0038:  BSF    03.5
0039:  MOVWF  14
....................    setup_timer_0(RTCC_INTERNAL|RTCC_DIV_1); 
003A:  MOVF   01,W
003B:  ANDLW  C7
003C:  IORLW  08
003D:  MOVWF  01
....................    setup_timer_1(T1_DISABLED); 
003E:  BCF    03.5
003F:  CLRF   10
....................    setup_timer_2(T2_DISABLED,0,1); 
0040:  MOVLW  00
0041:  MOVWF  21
0042:  MOVWF  12
0043:  MOVLW  00
0044:  BSF    03.5
0045:  MOVWF  12
....................  
....................  set_tris_b(0x00); 
0046:  MOVWF  06
....................  while(1) 
....................  { 
....................  set_adc_channel(1); 
0047:  MOVLW  08
0048:  BCF    03.5
0049:  MOVWF  21
004A:  MOVF   1F,W
004B:  ANDLW  C7
004C:  IORWF  21,W
004D:  MOVWF  1F
....................  delay_ms(10); 
004E:  MOVLW  0A
004F:  MOVWF  27
0050:  GOTO   004
....................  a=read_adc(); 
0051:  BSF    1F.2
0052:  BTFSC  1F.2
0053:  GOTO   052
0054:  MOVF   1E,W
0055:  MOVWF  26
....................  if(a<=50) 
0056:  MOVF   26,W
0057:  SUBLW  32
0058:  BTFSS  03.0
0059:  GOTO   060
....................  { 
....................  output_b(1); 
005A:  BSF    03.5
005B:  CLRF   06
005C:  MOVLW  01
005D:  BCF    03.5
005E:  MOVWF  06
....................  } 
....................  else if(a<=100) 
005F:  GOTO   073
0060:  MOVF   26,W
0061:  SUBLW  64
0062:  BTFSS  03.0
0063:  GOTO   06A
....................  { 
....................  output_b(2); 
0064:  BSF    03.5
0065:  CLRF   06
0066:  MOVLW  02
0067:  BCF    03.5
0068:  MOVWF  06
....................  } 
....................  else if(a<=250) 
0069:  GOTO   073
006A:  MOVF   26,W
006B:  SUBLW  FA
006C:  BTFSS  03.0
006D:  GOTO   073
....................  { 
....................  output_b(4); 
006E:  BSF    03.5
006F:  CLRF   06
0070:  MOVLW  04
0071:  BCF    03.5
0072:  MOVWF  06
....................  } 
....................  } 
0073:  BSF    03.5
0074:  GOTO   047
....................  
.................... } 
0075:  SLEEP

Configuration Fuses:
   Word  1: 3FB9   XT NOWDT NOPUT NOPROTECT NOBROWNOUT
