004-005 @READ_PROGRAM_MEMORY8.P1
015-016 CCP_1
015     CCP_1_LOW
016     CCP_1_HIGH
01B-01C CCP_2
01B     CCP_2_LOW
01C     CCP_2_HIGH
020     @SCRATCH
021     @SCRATCH
021     _RETURN_
022     @SCRATCH
023     @SCRATCH
024     @SCRATCH
026     main.i
027     main.@SCRATCH1
028     @delay_ms1.P1
10D-10E @READ_PROGRAM_MEMORY8.P1

ROM Allocation:
0004  @delay_ms1
0019  main
0019  @cinit

Project Directory:
    E:\JIJU\pic c\sample\

Project Files:
    spirotate.c
    spirotate.h
    C:\Program Files\PICC\devices\16F73.h

Units:
    spirotate.c (main)

Compiler Settings:
    Processor:      PIC16F73
    Pointer Size:   8
    ADC Range:      0-255
    Opt Level:      9
    Short,Int,Long: UNSIGNED: 1,8,16
    Float,Double:   32,32

Output Files:
    Errors:      spirotate.err
    Ext Symbols: spirotate.esym
    INHX8:       spirotate.hex
    Symbols:     spirotate.sym
    List:        spirotate.lst
    Debug/COFF:  spirotate.cof
    Project:     spirotate.PJT
    Call Tree:   spirotate.tre
    Statistics:  spirotate.sta
