CCS PCM C Compiler, Version 4.057, 17685               24-Nov-14 11:57

               Filename: switchpgm.lst

               ROM used: 66 words (2%)
                         Largest free fragment is 2048
               RAM used: 7 (4%) at main() level
                         7 (4%) worst case
               Stack:    0 locations

*
0000:  MOVLW  00
0001:  MOVWF  0A
0002:  GOTO   004
0003:  NOP
.................... #include "E:\JIJU\pic c\sample\switchpgm.h" 
.................... #include <16F73.h> 
.................... //////// Standard Header file for the PIC16F73 device //////////////// 
.................... #device PIC16F73 
.................... #list 
....................  
.................... #device adc=8 
....................  
.................... #FUSES NOWDT                 	//No Watch Dog Timer 
.................... #FUSES XT                    	//Crystal osc <= 4mhz 
.................... #FUSES NOPUT                 	//No Power Up Timer 
.................... #FUSES NOPROTECT             	//Code not protected from reading 
.................... #FUSES NOBROWNOUT            	//No brownout reset 
....................  
.................... #use delay(clock=4000000) 
.................... #use rs232(baud=9600,parity=N,xmit=PIN_C6,rcv=PIN_C7,bits=8) 
....................  
....................  
....................  
....................  
.................... void main() 
.................... { 
0004:  CLRF   04
0005:  MOVLW  1F
0006:  ANDWF  03,F
0007:  MOVLW  19
0008:  BSF    03.5
0009:  MOVWF  19
000A:  MOVLW  A6
000B:  MOVWF  18
000C:  MOVLW  90
000D:  BCF    03.5
000E:  MOVWF  18
000F:  BSF    03.5
0010:  BSF    1F.0
0011:  BSF    1F.1
0012:  BSF    1F.2
.................... int a=0; 
0013:  BCF    03.5
0014:  CLRF   26
....................    setup_adc_ports(NO_ANALOGS); 
0015:  BSF    03.5
0016:  BSF    1F.0
0017:  BSF    1F.1
0018:  BSF    1F.2
....................    setup_adc(ADC_OFF); 
0019:  BCF    03.5
001A:  BCF    1F.0
....................    setup_spi(SPI_SS_DISABLED); 
001B:  BCF    14.5
001C:  BSF    03.5
001D:  BCF    07.5
001E:  BSF    07.4
001F:  BCF    07.3
0020:  MOVLW  01
0021:  BCF    03.5
0022:  MOVWF  14
0023:  MOVLW  00
0024:  BSF    03.5
0025:  MOVWF  14
....................    setup_timer_0(RTCC_INTERNAL|RTCC_DIV_1); 
0026:  MOVF   01,W
0027:  ANDLW  C7
0028:  IORLW  08
0029:  MOVWF  01
....................    setup_timer_1(T1_DISABLED); 
002A:  BCF    03.5
002B:  CLRF   10
....................    setup_timer_2(T2_DISABLED,0,1); 
002C:  MOVLW  00
002D:  MOVWF  21
002E:  MOVWF  12
002F:  MOVLW  00
0030:  BSF    03.5
0031:  MOVWF  12
.................... set_tris_b(0x00); 
0032:  MOVWF  06
.................... while(1) 
.................... { 
.................... if( input_state(pin_A3)==1) 
0033:  BCF    03.5
0034:  BTFSS  05.3
0035:  GOTO   03C
.................... { 
.................... output_b(0xff); 
0036:  BSF    03.5
0037:  CLRF   06
0038:  MOVLW  FF
0039:  BCF    03.5
003A:  MOVWF  06
.................... } 
.................... else 
003B:  GOTO   040
.................... output_b(0x00); 
003C:  BSF    03.5
003D:  CLRF   06
003E:  BCF    03.5
003F:  CLRF   06
.................... } 
0040:  GOTO   034
....................  
.................... } 
0041:  SLEEP

Configuration Fuses:
   Word  1: 3FB9   XT NOWDT NOPUT NOPROTECT NOBROWNOUT
