004-005 @READ_PROGRAM_MEMORY8.P1
015-016 CCP_1
015     CCP_1_LOW
016     CCP_1_HIGH
01B-01C CCP_2
01B     CCP_2_LOW
01C     CCP_2_HIGH
020     @SCRATCH
021     @SCRATCH
021     _RETURN_
022     @SCRATCH
023     @SCRATCH
024     @SCRATCH
026     main.a
027     main.@SCRATCH1
028     main.@SCRATCH2
10D-10E @READ_PROGRAM_MEMORY8.P1

ROM Allocation:
0004  main
0004  @cinit

Project Directory:
    E:\JIJU\pic c\sample\

Project Files:
    TIMER1.c
    TIMER1.h
    C:\Program Files\PICC\devices\16F73.h

Units:
    TIMER1.c (main)

Compiler Settings:
    Processor:      PIC16F73
    Pointer Size:   8
    ADC Range:      0-255
    Opt Level:      9
    Short,Int,Long: UNSIGNED: 1,8,16
    Float,Double:   32,32

Output Files:
    Errors:      TIMER1.err
    Ext Symbols: TIMER1.esym
    INHX8:       TIMER1.hex
    Symbols:     TIMER1.sym
    List:        TIMER1.lst
    Debug/COFF:  TIMER1.cof
    Project:     TIMER1.PJT
    Call Tree:   TIMER1.tre
    Statistics:  TIMER1.sta
