CCS PCM C Compiler, Version 4.057, 17685               11-Nov-14 10:47

               Filename: two ch adc.lst

               ROM used: 113 words (3%)
                         Largest free fragment is 2048
               RAM used: 7 (4%) at main() level
                         8 (4%) worst case
               Stack:    1 locations

*
0000:  MOVLW  00
0001:  MOVWF  0A
0002:  GOTO   018
0003:  NOP
.................... #include "E:\JIJU\pic c\sample\two ch adc.h" 
.................... #include <16F73.h> 
.................... //////// Standard Header file for the PIC16F73 device //////////////// 
.................... #device PIC16F73 
.................... #list 
....................  
.................... #device adc=8 
....................  
.................... #FUSES NOWDT                 	//No Watch Dog Timer 
.................... #FUSES XT                    	//Crystal osc <= 4mhz 
.................... #FUSES NOPUT                 	//No Power Up Timer 
.................... #FUSES NOPROTECT             	//Code not protected from reading 
.................... #FUSES NOBROWNOUT            	//No brownout reset 
....................  
.................... #use delay(clock=4000000) 
0004:  MOVLW  28
0005:  MOVWF  04
0006:  MOVF   00,W
0007:  BTFSC  03.2
0008:  GOTO   017
0009:  MOVLW  01
000A:  MOVWF  21
000B:  CLRF   20
000C:  DECFSZ 20,F
000D:  GOTO   00C
000E:  DECFSZ 21,F
000F:  GOTO   00B
0010:  MOVLW  4A
0011:  MOVWF  20
0012:  DECFSZ 20,F
0013:  GOTO   012
0014:  GOTO   015
0015:  DECFSZ 00,F
0016:  GOTO   009
0017:  RETLW  00
.................... #use rs232(baud=9600,parity=N,xmit=PIN_C6,rcv=PIN_C7,bits=8) 
....................  
....................  
....................  
....................  
.................... void main() 
.................... { 
0018:  CLRF   04
0019:  MOVLW  1F
001A:  ANDWF  03,F
001B:  MOVLW  19
001C:  BSF    03.5
001D:  MOVWF  19
001E:  MOVLW  A6
001F:  MOVWF  18
0020:  MOVLW  90
0021:  BCF    03.5
0022:  MOVWF  18
0023:  BSF    03.5
0024:  BSF    1F.0
0025:  BSF    1F.1
0026:  BSF    1F.2
.................... int a;int b; 
....................    setup_adc_ports(ALL_ANALOG); 
0027:  BCF    1F.0
0028:  BCF    1F.1
0029:  BCF    1F.2
....................    setup_adc(ADC_CLOCK_DIV_2); 
002A:  BCF    03.5
002B:  BCF    1F.6
002C:  BCF    1F.7
002D:  BSF    1F.0
....................    setup_spi(SPI_SS_DISABLED); 
002E:  BCF    14.5
002F:  BSF    03.5
0030:  BCF    07.5
0031:  BSF    07.4
0032:  BCF    07.3
0033:  MOVLW  01
0034:  BCF    03.5
0035:  MOVWF  14
0036:  MOVLW  00
0037:  BSF    03.5
0038:  MOVWF  14
....................    setup_timer_0(RTCC_INTERNAL|RTCC_DIV_1); 
0039:  MOVF   01,W
003A:  ANDLW  C7
003B:  IORLW  08
003C:  MOVWF  01
....................    setup_timer_1(T1_DISABLED); 
003D:  BCF    03.5
003E:  CLRF   10
....................    setup_timer_2(T2_DISABLED,0,1); 
003F:  MOVLW  00
0040:  MOVWF  21
0041:  MOVWF  12
0042:  MOVLW  00
0043:  BSF    03.5
0044:  MOVWF  12
.................... set_tris_b(0x00); 
0045:  MOVWF  06
.................... set_tris_c(0x00); 
0046:  MOVWF  07
.................... while(1) 
.................... { 
.................... set_adc_channel(0); 
0047:  MOVLW  00
0048:  BCF    03.5
0049:  MOVWF  21
004A:  MOVF   1F,W
004B:  ANDLW  C7
004C:  IORWF  21,W
004D:  MOVWF  1F
.................... delay_ms(10); 
004E:  MOVLW  0A
004F:  MOVWF  28
0050:  CALL   004
.................... a=read_adc(); 
0051:  BSF    1F.2
0052:  BTFSC  1F.2
0053:  GOTO   052
0054:  MOVF   1E,W
0055:  MOVWF  26
.................... output_b(a); 
0056:  BSF    03.5
0057:  CLRF   06
0058:  BCF    03.5
0059:  MOVF   26,W
005A:  MOVWF  06
....................  
.................... set_adc_channel(1); 
005B:  MOVLW  08
005C:  MOVWF  21
005D:  MOVF   1F,W
005E:  ANDLW  C7
005F:  IORWF  21,W
0060:  MOVWF  1F
.................... delay_ms(10); 
0061:  MOVLW  0A
0062:  MOVWF  28
0063:  CALL   004
.................... b=read_adc(); 
0064:  BSF    1F.2
0065:  BTFSC  1F.2
0066:  GOTO   065
0067:  MOVF   1E,W
0068:  MOVWF  27
.................... output_c(b); 
0069:  BSF    03.5
006A:  CLRF   07
006B:  BCF    03.5
006C:  MOVF   27,W
006D:  MOVWF  07
.................... } 
006E:  BSF    03.5
006F:  GOTO   047
....................  
.................... } 
0070:  SLEEP

Configuration Fuses:
   Word  1: 3FB9   XT NOWDT NOPUT NOPROTECT NOBROWNOUT
