CCS PCM C Compiler, Version 4.057, 17685               11-Nov-14 11:54

               Filename: usarttrnsstrng.lst

               ROM used: 87 words (2%)
                         Largest free fragment is 2048
               RAM used: 26 (14%) at main() level
                         26 (14%) worst case
               Stack:    0 locations

*
0000:  MOVLW  00
0001:  MOVWF  0A
0002:  GOTO   004
0003:  NOP
.................... #include "E:\JIJU\pic c\sample\usarttrnsstrng.h" 
.................... #include <16F73.h> 
.................... //////// Standard Header file for the PIC16F73 device //////////////// 
.................... #device PIC16F73 
.................... #list 
....................  
.................... #device adc=8 
....................  
.................... #FUSES NOWDT                 	//No Watch Dog Timer 
.................... #FUSES XT                    	//Crystal osc <= 4mhz 
.................... #FUSES NOPUT                 	//No Power Up Timer 
.................... #FUSES NOPROTECT             	//Code not protected from reading 
.................... #FUSES NOBROWNOUT            	//No brownout reset 
....................  
.................... #use delay(clock=40000009) 
.................... #use rs232(baud=9600,parity=N,xmit=PIN_C6,rcv=PIN_C7,bits=8) 
....................  
....................  
....................  
....................  
.................... void main() 
.................... { 
0004:  CLRF   04
0005:  MOVLW  1F
0006:  ANDWF  03,F
0007:  MOVLW  40
0008:  BSF    03.5
0009:  MOVWF  19
000A:  MOVLW  A2
000B:  MOVWF  18
000C:  MOVLW  90
000D:  BCF    03.5
000E:  MOVWF  18
000F:  BSF    03.5
0010:  BSF    1F.0
0011:  BSF    1F.1
0012:  BSF    1F.2
.................... int a[20]; 
....................    setup_adc_ports(NO_ANALOGS); 
0013:  BSF    1F.0
0014:  BSF    1F.1
0015:  BSF    1F.2
....................    setup_adc(ADC_OFF); 
0016:  BCF    03.5
0017:  BCF    1F.0
....................    setup_spi(SPI_SS_DISABLED); 
0018:  BCF    14.5
0019:  BSF    03.5
001A:  BCF    07.5
001B:  BSF    07.4
001C:  BCF    07.3
001D:  MOVLW  01
001E:  BCF    03.5
001F:  MOVWF  14
0020:  MOVLW  00
0021:  BSF    03.5
0022:  MOVWF  14
....................    setup_timer_0(RTCC_INTERNAL|RTCC_DIV_1); 
0023:  MOVF   01,W
0024:  ANDLW  C7
0025:  IORLW  08
0026:  MOVWF  01
....................    setup_timer_1(T1_DISABLED); 
0027:  BCF    03.5
0028:  CLRF   10
....................    setup_timer_2(T2_DISABLED,0,1); 
0029:  MOVLW  00
002A:  MOVWF  21
002B:  MOVWF  12
002C:  MOVLW  00
002D:  BSF    03.5
002E:  MOVWF  12
....................  
.................... set_tris_b(0x00); 
002F:  MOVWF  06
.................... while(1) 
.................... { 
.................... gets(a); 
0030:  MOVLW  26
0031:  MOVWF  04
0032:  DECF   04,F
0033:  INCF   04,F
0034:  BCF    03.5
0035:  BTFSS  0C.5
0036:  GOTO   035
0037:  MOVF   1A,W
0038:  MOVWF  00
0039:  MOVLW  0D
003A:  SUBWF  00,W
003B:  BTFSC  03.2
003C:  GOTO   03F
003D:  BSF    03.5
003E:  GOTO   033
003F:  CLRF   00
.................... puts(a); 
0040:  MOVLW  26
0041:  MOVWF  04
0042:  MOVLW  00
0043:  IORWF  00,W
0044:  BTFSC  03.2
0045:  GOTO   04C
0046:  MOVF   00,W
0047:  BTFSS  0C.4
0048:  GOTO   047
0049:  MOVWF  19
004A:  INCF   04,F
004B:  GOTO   042
004C:  MOVLW  0D
004D:  BTFSS  0C.4
004E:  GOTO   04D
004F:  MOVWF  19
0050:  MOVLW  0A
0051:  BTFSS  0C.4
0052:  GOTO   051
0053:  MOVWF  19
.................... } 
0054:  BSF    03.5
0055:  GOTO   030
....................  
.................... } 
0056:  SLEEP

Configuration Fuses:
   Word  1: 3FB9   XT NOWDT NOPUT NOPROTECT NOBROWNOUT
