Warning[205] E:\PIC KIT\PIC220908\TIMER0\TIMER0.ASM 9 : Found directive in column 1. (cblock)
Warning[205] E:\PIC KIT\PIC220908\TIMER0\TIMER0.ASM 11 : Found directive in column 1. (ENDC)
Message[302] E:\PIC KIT\PIC220908\TIMER0\TIMER0.ASM 19 : Register in operand not in bank 0.  Ensure that bank bits are correct.
Message[302] E:\PIC KIT\PIC220908\TIMER0\TIMER0.ASM 21 : Register in operand not in bank 0.  Ensure that bank bits are correct.
